digraph G {
fontname = "Bitstream Vera Sans"
fontsize = 8

overlap=false;

compound=true;    

node [
  fontname = "Bitstream Vera Sans"
  fontsize = 8
  shape = "record"
]

edge [
  fontname = "Bitstream Vera Sans"
  fontsize = 8
  mode="ipsep"            
]


DDI4_IdentifierRole [
  label = "{<id>IdentifierRole | \l \l| \l \l}"

  tooltip = "LogicalDataDescription:IdentifierRole"

href = "IdentifierRole.html"
]

subgraph LogicalDataDescription {
label = "LogicalDataDescription"    

  node [ color = "#0000ff" ]

DDI4_ViewpointRole [
  label = "{<id>DDI_ViewpointRole}"

  tooltip = "LogicalDataDescription:ViewpointRole"

href = "../LogicalDataDescription/ViewpointRole.html"
]

}

DDI4_IdentifierRole -> DDI4_ViewpointRole [arrowhead=onormal color="#000000"];

}