digraph G {
fontname = "Bitstream Vera Sans"
fontsize = 8

overlap=false;

compound=true;    

node [
  fontname = "Bitstream Vera Sans"
  fontsize = 8
  shape = "record"
]

edge [
  fontname = "Bitstream Vera Sans"
  fontsize = 8
  mode="ipsep"            
]


DDI4_LogicalRecord [
  label = "{<id>LogicalRecord | + type : CollectionType \l + name : ObjectName \l + purpose : InternationalStructuredString \l + contains : InstanceVariableIndicator \l + isOrdered :  \l \l \l| <LogicalRecord_realizes_association> realizes \l| <LogicalRecord_definingConcept_association> definingConcept \l \l}"

  tooltip = "LogicalDataDescription:LogicalRecord"

href = "LogicalRecord.html"
]

subgraph Conceptual {
label = "Conceptual"    

  node [ color = "#0000ff" ]

DDI4_Concept [
  label = "{<id>DDI_Concept}"

  tooltip = "Conceptual:Concept"

href = "../Conceptual/Concept.html"
]

}

subgraph CollectionsPattern {
label = "CollectionsPattern"    

  node [ color = "#0000ff" ]

DDI4_SimpleCollection [
  label = "{<id>DDI_SimpleCollection}"

  tooltip = "CollectionsPattern:SimpleCollection"

href = "../CollectionsPattern/SimpleCollection.html"
]

}

subgraph Identification {
label = "Identification"    

  node [ color = "#0000ff" ]

DDI4_AnnotatedIdentifiable [
  label = "{<id>DDI_AnnotatedIdentifiable}"

  tooltip = "Identification:AnnotatedIdentifiable"

href = "../Identification/AnnotatedIdentifiable.html"
]

}

DDI4_LogicalRecord -> DDI4_AnnotatedIdentifiable [arrowhead=onormal color="#000000"];

  DDI4_LogicalRecord:LogicalRecord_realizes_association -> DDI4_SimpleCollection [ arrowhead=none arrowtail=none  edgetooltip="realizes" fontcolor="black" color="#00000"];

  DDI4_LogicalRecord:LogicalRecord_definingConcept_association -> DDI4_Concept [ arrowhead=none arrowtail=odiamond labeldistance=1.9 taillabel="0..n" headlabel="0..n" edgetooltip="definingConcept" fontcolor="black" color="#00000"];

}