digraph G {
fontname = "Bitstream Vera Sans"
fontsize = 8

overlap=false;

compound=true;    

node [
  fontname = "Bitstream Vera Sans"
  fontsize = 8
  shape = "record"
]

edge [
  fontname = "Bitstream Vera Sans"
  fontsize = 8
  mode="ipsep"            
]


DDI4_UnitDataViewpoint [
  label = "{<id>UnitDataViewpoint | \l \l| <UnitDataViewpoint_hasIdentifierRole_association> hasIdentifierRole \l| <UnitDataViewpoint_hasMeasureRole_association> hasMeasureRole \l| <UnitDataViewpoint_hasAttributeRole_association> hasAttributeRole \l \l}"

  tooltip = "LogicalDataDescription:UnitDataViewpoint"

href = "UnitDataViewpoint.html"
]

subgraph Identification {
label = "Identification"    

  node [ color = "#0000ff" ]

DDI4_AnnotatedIdentifiable [
  label = "{<id>DDI_AnnotatedIdentifiable}"

  tooltip = "Identification:AnnotatedIdentifiable"

href = "../Identification/AnnotatedIdentifiable.html"
]

}

subgraph LogicalDataDescription {
label = "LogicalDataDescription"    

  node [ color = "#0000ff" ]

DDI4_AttributeRole [
  label = "{<id>DDI_AttributeRole}"

  tooltip = "LogicalDataDescription:AttributeRole"

href = "../LogicalDataDescription/AttributeRole.html"
]

DDI4_IdentifierRole [
  label = "{<id>DDI_IdentifierRole}"

  tooltip = "LogicalDataDescription:IdentifierRole"

href = "../LogicalDataDescription/IdentifierRole.html"
]

DDI4_MeasureRole [
  label = "{<id>DDI_MeasureRole}"

  tooltip = "LogicalDataDescription:MeasureRole"

href = "../LogicalDataDescription/MeasureRole.html"
]

}

DDI4_UnitDataViewpoint -> DDI4_AnnotatedIdentifiable [arrowhead=onormal color="#000000"];

  DDI4_UnitDataViewpoint:UnitDataViewpoint_hasIdentifierRole_association -> DDI4_IdentifierRole [ arrowhead=none arrowtail=odiamond labeldistance=1.9 taillabel="0..1" headlabel="0..n" edgetooltip="hasIdentifierRole" fontcolor="black" color="#00000"];

  DDI4_UnitDataViewpoint:UnitDataViewpoint_hasMeasureRole_association -> DDI4_MeasureRole [ arrowhead=none arrowtail=odiamond labeldistance=1.9 taillabel="0..1" headlabel="0..n" edgetooltip="hasMeasureRole" fontcolor="black" color="#00000"];

  DDI4_UnitDataViewpoint:UnitDataViewpoint_hasAttributeRole_association -> DDI4_AttributeRole [ arrowhead=none arrowtail=odiamond labeldistance=1.9 taillabel="0..1" headlabel="0..n" edgetooltip="hasAttributeRole" fontcolor="black" color="#00000"];

}