digraph G {
fontname = "Bitstream Vera Sans"
fontsize = 8

overlap=false;

compound=true;    

node [
  fontname = "Bitstream Vera Sans"
  fontsize = 8
  shape = "record"
]

edge [
  fontname = "Bitstream Vera Sans"
  fontsize = 8
  mode="ipsep"            
]


DDI4_ClassificationSeriesRelationStructure [
  label = "{<id>ClassificationSeriesRelationStructure | + hasRelationSpecification : RelationSpecification \l + semantic : ExternalControlledVocabularyEntry \l + totality : TotalityType \l + hasMemberRelation : ClassificationSeriesRelation \l \l \l| <ClassificationSeriesRelationStructure_realizes_association> realizes \l \l}"

  tooltip = "Representations:ClassificationSeriesRelationStructure"

href = "ClassificationSeriesRelationStructure.html"
]

subgraph CollectionsPattern {
label = "CollectionsPattern"    

  node [ color = "#0000ff" ]

DDI4_RelationStructure [
  label = "{<id>DDI_RelationStructure}"

  tooltip = "CollectionsPattern:RelationStructure"

href = "../CollectionsPattern/RelationStructure.html"
]

}

subgraph Identification {
label = "Identification"    

  node [ color = "#0000ff" ]

DDI4_Identifiable [
  label = "{<id>DDI_Identifiable}"

  tooltip = "Identification:Identifiable"

href = "../Identification/Identifiable.html"
]

}

DDI4_ClassificationSeriesRelationStructure -> DDI4_Identifiable [arrowhead=onormal color="#000000"];

  DDI4_ClassificationSeriesRelationStructure:ClassificationSeriesRelationStructure_realizes_association -> DDI4_RelationStructure [ arrowhead=none arrowtail=none  edgetooltip="realizes" fontcolor="black" color="#00000"];

}