digraph G {
fontname = "Bitstream Vera Sans"
fontsize = 8

overlap=false;

compound=true;    

node [
  fontname = "Bitstream Vera Sans"
  fontsize = 8
  shape = "record"
]

edge [
  fontname = "Bitstream Vera Sans"
  fontsize = 8
  mode="ipsep"            
]


DDI4_VocabularyRelationStructure [
  label = "{<id>VocabularyRelationStructure | + criteria : InternationalStructuredString \l + displayLabel : LabelForDisplay \l + usage : InternationalStructuredString \l + hasRelationSpecification : RelationSpecification \l + semantic : ExternalControlledVocabularyEntry \l + totality : TotalityType \l + hasMemberRelation : VocabularyEntryRelation \l \l \l| <VocabularyRelationStructure_realizes_association> realizes \l \l}"

  tooltip = "CustomMetadata:VocabularyRelationStructure"

href = "VocabularyRelationStructure.html"
]

subgraph CollectionsPattern {
label = "CollectionsPattern"    

  node [ color = "#0000ff" ]

DDI4_RelationStructure [
  label = "{<id>DDI_RelationStructure}"

  tooltip = "CollectionsPattern:RelationStructure"

href = "../CollectionsPattern/RelationStructure.html"
]

}

subgraph Identification {
label = "Identification"    

  node [ color = "#0000ff" ]

DDI4_AnnotatedIdentifiable [
  label = "{<id>DDI_AnnotatedIdentifiable}"

  tooltip = "Identification:AnnotatedIdentifiable"

href = "../Identification/AnnotatedIdentifiable.html"
]

}

DDI4_VocabularyRelationStructure -> DDI4_AnnotatedIdentifiable [arrowhead=onormal color="#000000"];

  DDI4_VocabularyRelationStructure:VocabularyRelationStructure_realizes_association -> DDI4_RelationStructure [ arrowhead=none arrowtail=none  edgetooltip="realizes" fontcolor="black" color="#00000"];

}