digraph G {
fontname = "Bitstream Vera Sans"
fontsize = 8

overlap=false;

compound=true;    

node [
  fontname = "Bitstream Vera Sans"
  fontsize = 8
  shape = "record"
]

edge [
  fontname = "Bitstream Vera Sans"
  fontsize = 8
  mode="ipsep"            
]


DDI4_Standard [
  label = "{<id>Standard | \l \l| <Standard_compliance_association> compliance \l| <Standard_standardUsed_association> standardUsed \l \l}"

  tooltip = "StudyRelated:Standard"

href = "Standard.html"
]

subgraph StudyRelated {
label = "StudyRelated"    

  node [ color = "#0000ff" ]

DDI4_ComplianceStatement [
  label = "{<id>DDI_ComplianceStatement}"

  tooltip = "StudyRelated:ComplianceStatement"

href = "../StudyRelated/ComplianceStatement.html"
]

}

subgraph Utility {
label = "Utility"    

  node [ color = "#0000ff" ]

DDI4_ExternalMaterial [
  label = "{<id>DDI_ExternalMaterial}"

  tooltip = "Utility:ExternalMaterial"

href = "../Utility/ExternalMaterial.html"
]

}

subgraph Identification {
label = "Identification"    

  node [ color = "#0000ff" ]

DDI4_AnnotatedIdentifiable [
  label = "{<id>DDI_AnnotatedIdentifiable}"

  tooltip = "Identification:AnnotatedIdentifiable"

href = "../Identification/AnnotatedIdentifiable.html"
]

}

DDI4_Standard -> DDI4_AnnotatedIdentifiable [arrowhead=onormal color="#000000"];

  DDI4_Standard:Standard_compliance_association -> DDI4_ComplianceStatement [ arrowhead=none arrowtail=odiamond labeldistance=1.9 taillabel="0..n" headlabel="0..1" edgetooltip="compliance" fontcolor="black" color="#00000"];

  DDI4_Standard:Standard_standardUsed_association -> DDI4_ExternalMaterial [ arrowhead=none arrowtail=odiamond labeldistance=1.9 taillabel="0..n" headlabel="0..n" edgetooltip="standardUsed" fontcolor="black" color="#00000"];

}