digraph G {
fontname = "Bitstream Vera Sans"
fontsize = 8

overlap=false;

compound=true;    

node [
  fontname = "Bitstream Vera Sans"
  fontsize = 8
  shape = "record"
]

edge [
  fontname = "Bitstream Vera Sans"
  fontsize = 8
  mode="ipsep"            
]


DDI4_Study [
  label = "{<id>Study | + kindOfData : ExternalControlledVocabularyEntry \l + overview : InternationalStructuredString \l + bibliographicCitation : InternationalStructuredString \l \l \l| <Study_partOfSeries_association> partOfSeries \l| <Study_hasCoverage_association> hasCoverage \l| <Study_hasAnalysisUnit_association> hasAnalysisUnit \l| <Study_hasPopulation_association> hasPopulation \l| <Study_hasUniverse_association> hasUniverse \l| <Study_hasDesign_association> hasDesign \l| <Study_hasProcess_association> hasProcess \l| <Study_hasInstrument_association> hasInstrument \l| <Study_hasEmbargo_association> hasEmbargo \l| <Study_accessInformation_association> accessInformation \l| <Study_hasFundingInformation_association> hasFundingInformation \l| <Study_hasAuthorizationSource_association> hasAuthorizationSource \l| <Study_hasQualityStatement_association> hasQualityStatement \l| <Study_hasBudget_association> hasBudget \l| <Study_hasInstanceVariable_association> hasInstanceVariable \l| <Study_realizes_association> realizes \l| <Study_hasExPostEvaluation_association> hasExPostEvaluation \l| <Study_hasSamplingProcedure_association> hasSamplingProcedure \l| <Study_hasMethodology_association> hasMethodology \l| <Study_hasAlgorithm_association> hasAlgorithm \l| <Study_hasConcept_association> hasConcept \l| <Study_hasVariableCollection_association> hasVariableCollection \l| <Study_hasAgentListing_association> hasAgentListing \l \l}"

  tooltip = "StudyRelated:Study"

href = "Study.html"
]

subgraph Conceptual {
label = "Conceptual"    

  node [ color = "#0000ff" ]

DDI4_Concept [
  label = "{<id>DDI_Concept}"

  tooltip = "Conceptual:Concept"

href = "../Conceptual/Concept.html"
]

DDI4_InstanceVariable [
  label = "{<id>DDI_InstanceVariable}"

  tooltip = "Conceptual:InstanceVariable"

href = "../Conceptual/InstanceVariable.html"
]

DDI4_Population [
  label = "{<id>DDI_Population}"

  tooltip = "Conceptual:Population"

href = "../Conceptual/Population.html"
]

DDI4_UnitType [
  label = "{<id>DDI_UnitType}"

  tooltip = "Conceptual:UnitType"

href = "../Conceptual/UnitType.html"
]

DDI4_Universe [
  label = "{<id>DDI_Universe}"

  tooltip = "Conceptual:Universe"

href = "../Conceptual/Universe.html"
]

DDI4_VariableCollection [
  label = "{<id>DDI_VariableCollection}"

  tooltip = "Conceptual:VariableCollection"

href = "../Conceptual/VariableCollection.html"
]

}

subgraph SimpleMethodologyOverview {
label = "SimpleMethodologyOverview"    

  node [ color = "#0000ff" ]

DDI4_AlgorithmOverview [
  label = "{<id>DDI_AlgorithmOverview}"

  tooltip = "SimpleMethodologyOverview:AlgorithmOverview"

href = "../SimpleMethodologyOverview/AlgorithmOverview.html"
]

DDI4_DesignOverview [
  label = "{<id>DDI_DesignOverview}"

  tooltip = "SimpleMethodologyOverview:DesignOverview"

href = "../SimpleMethodologyOverview/DesignOverview.html"
]

DDI4_MethodologyOverview [
  label = "{<id>DDI_MethodologyOverview}"

  tooltip = "SimpleMethodologyOverview:MethodologyOverview"

href = "../SimpleMethodologyOverview/MethodologyOverview.html"
]

DDI4_ProcessOverview [
  label = "{<id>DDI_ProcessOverview}"

  tooltip = "SimpleMethodologyOverview:ProcessOverview"

href = "../SimpleMethodologyOverview/ProcessOverview.html"
]

}

subgraph SamplingMethodology {
label = "SamplingMethodology"    

  node [ color = "#0000ff" ]

DDI4_SamplingProcedure [
  label = "{<id>DDI_SamplingProcedure}"

  tooltip = "SamplingMethodology:SamplingProcedure"

href = "../SamplingMethodology/SamplingProcedure.html"
]

}

subgraph StudyRelated {
label = "StudyRelated"    

  node [ color = "#0000ff" ]

DDI4_Budget [
  label = "{<id>DDI_Budget}"

  tooltip = "StudyRelated:Budget"

href = "../StudyRelated/Budget.html"
]

DDI4_Embargo [
  label = "{<id>DDI_Embargo}"

  tooltip = "StudyRelated:Embargo"

href = "../StudyRelated/Embargo.html"
]

DDI4_ExPostEvaluation [
  label = "{<id>DDI_ExPostEvaluation}"

  tooltip = "StudyRelated:ExPostEvaluation"

href = "../StudyRelated/ExPostEvaluation.html"
]

DDI4_QualityStatement [
  label = "{<id>DDI_QualityStatement}"

  tooltip = "StudyRelated:QualityStatement"

href = "../StudyRelated/QualityStatement.html"
]

DDI4_StudySeries [
  label = "{<id>DDI_StudySeries}"

  tooltip = "StudyRelated:StudySeries"

href = "../StudyRelated/StudySeries.html"
]

}

subgraph Utility {
label = "Utility"    

  node [ color = "#0000ff" ]

DDI4_FundingInformation [
  label = "{<id>DDI_FundingInformation}"

  tooltip = "Utility:FundingInformation"

href = "../Utility/FundingInformation.html"
]

}

subgraph Discovery {
label = "Discovery"    

  node [ color = "#0000ff" ]

DDI4_Access [
  label = "{<id>DDI_Access}"

  tooltip = "Discovery:Access"

href = "../Discovery/Access.html"
]

DDI4_Coverage [
  label = "{<id>DDI_Coverage}"

  tooltip = "Discovery:Coverage"

href = "../Discovery/Coverage.html"
]

}

subgraph DataCapture {
label = "DataCapture"    

  node [ color = "#0000ff" ]

DDI4_ImplementedInstrument [
  label = "{<id>DDI_ImplementedInstrument}"

  tooltip = "DataCapture:ImplementedInstrument"

href = "../DataCapture/ImplementedInstrument.html"
]

}

subgraph CollectionsPattern {
label = "CollectionsPattern"    

  node [ color = "#0000ff" ]

DDI4_CollectionMember [
  label = "{<id>DDI_CollectionMember}"

  tooltip = "CollectionsPattern:CollectionMember"

href = "../CollectionsPattern/CollectionMember.html"
]

}

subgraph Identification {
label = "Identification"    

  node [ color = "#0000ff" ]

DDI4_AnnotatedIdentifiable [
  label = "{<id>DDI_AnnotatedIdentifiable}"

  tooltip = "Identification:AnnotatedIdentifiable"

href = "../Identification/AnnotatedIdentifiable.html"
]

}

subgraph Agents {
label = "Agents"    

  node [ color = "#0000ff" ]

DDI4_AgentListing [
  label = "{<id>DDI_AgentListing}"

  tooltip = "Agents:AgentListing"

href = "../Agents/AgentListing.html"
]

}

subgraph Representations {
label = "Representations"    

  node [ color = "#0000ff" ]

DDI4_AuthorizationSource [
  label = "{<id>DDI_AuthorizationSource}"

  tooltip = "Representations:AuthorizationSource"

href = "../Representations/AuthorizationSource.html"
]

}

DDI4_Study -> DDI4_AnnotatedIdentifiable [arrowhead=onormal color="#000000"];

  DDI4_Study:Study_partOfSeries_association -> DDI4_StudySeries [ arrowhead=none arrowtail=odiamond labeldistance=1.9 taillabel="0..n" headlabel="0..n" edgetooltip="partOfSeries" fontcolor="black" color="#00000"];

  DDI4_Study:Study_hasCoverage_association -> DDI4_Coverage [ arrowhead=none arrowtail=odiamond labeldistance=1.9 taillabel="0..n" headlabel="0..n" edgetooltip="hasCoverage" fontcolor="black" color="#00000"];

  DDI4_Study:Study_hasAnalysisUnit_association -> DDI4_UnitType [ arrowhead=none arrowtail=odiamond labeldistance=1.9 taillabel="0..n" headlabel="0..n" edgetooltip="hasAnalysisUnit" fontcolor="black" color="#00000"];

  DDI4_Study:Study_hasPopulation_association -> DDI4_Population [ arrowhead=none arrowtail=odiamond labeldistance=1.9 taillabel="0..n" headlabel="0..n" edgetooltip="hasPopulation" fontcolor="black" color="#00000"];

  DDI4_Study:Study_hasUniverse_association -> DDI4_Universe [ arrowhead=none arrowtail=odiamond labeldistance=1.9 taillabel="0..n" headlabel="0..n" edgetooltip="hasUniverse" fontcolor="black" color="#00000"];

  DDI4_Study:Study_hasDesign_association -> DDI4_DesignOverview [ arrowhead=none arrowtail=odiamond labeldistance=1.9 taillabel="0..n" headlabel="0..1" edgetooltip="hasDesign" fontcolor="black" color="#00000"];

  DDI4_Study:Study_hasProcess_association -> DDI4_ProcessOverview [ arrowhead=none arrowtail=odiamond labeldistance=1.9 taillabel="0..n" headlabel="0..n" edgetooltip="hasProcess" fontcolor="black" color="#00000"];

  DDI4_Study:Study_hasInstrument_association -> DDI4_ImplementedInstrument [ arrowhead=none arrowtail=odiamond labeldistance=1.9 taillabel="0..n" headlabel="0..n" edgetooltip="hasInstrument" fontcolor="black" color="#00000"];

  DDI4_Study:Study_hasEmbargo_association -> DDI4_Embargo [ arrowhead=none arrowtail=odiamond labeldistance=1.9 taillabel="0..n" headlabel="0..1" edgetooltip="hasEmbargo" fontcolor="black" color="#00000"];

  DDI4_Study:Study_accessInformation_association -> DDI4_Access [ arrowhead=none arrowtail=odiamond labeldistance=1.9 taillabel="0..n" headlabel="0..1" edgetooltip="accessInformation" fontcolor="black" color="#00000"];

  DDI4_Study:Study_hasFundingInformation_association -> DDI4_FundingInformation [ arrowhead=none arrowtail=odiamond labeldistance=1.9 taillabel="0..n" headlabel="0..n" edgetooltip="hasFundingInformation" fontcolor="black" color="#00000"];

  DDI4_Study:Study_hasAuthorizationSource_association -> DDI4_AuthorizationSource [ arrowhead=none arrowtail=odiamond labeldistance=1.9 taillabel="0..n" headlabel="0..n" edgetooltip="hasAuthorizationSource" fontcolor="black" color="#00000"];

  DDI4_Study:Study_hasQualityStatement_association -> DDI4_QualityStatement [ arrowhead=none arrowtail=odiamond labeldistance=1.9 taillabel="0..n" headlabel="0..1" edgetooltip="hasQualityStatement" fontcolor="black" color="#00000"];

  DDI4_Study:Study_hasBudget_association -> DDI4_Budget [ arrowhead=none arrowtail=odiamond labeldistance=1.9 taillabel="0..n" headlabel="0..n" edgetooltip="hasBudget" fontcolor="black" color="#00000"];

  DDI4_Study:Study_hasInstanceVariable_association -> DDI4_InstanceVariable [ arrowhead=none arrowtail=odiamond labeldistance=1.9 taillabel="0..n" headlabel="0..n" edgetooltip="hasInstanceVariable" fontcolor="black" color="#00000"];

  DDI4_Study:Study_realizes_association -> DDI4_CollectionMember [ arrowhead=none arrowtail=none  edgetooltip="realizes" fontcolor="black" color="#00000"];

  DDI4_Study:Study_hasExPostEvaluation_association -> DDI4_ExPostEvaluation [ arrowhead=none arrowtail=odiamond labeldistance=1.9 taillabel="0..1" headlabel="0..n" edgetooltip="hasExPostEvaluation" fontcolor="black" color="#00000"];

  DDI4_Study:Study_hasSamplingProcedure_association -> DDI4_SamplingProcedure [ arrowhead=none arrowtail=odiamond labeldistance=1.9 taillabel="0..n" headlabel="0..n" edgetooltip="hasSamplingProcedure" fontcolor="black" color="#00000"];

  DDI4_Study:Study_hasMethodology_association -> DDI4_MethodologyOverview [ arrowhead=none arrowtail=odiamond labeldistance=1.9 taillabel="0..n" headlabel="0..n" edgetooltip="hasMethodology" fontcolor="black" color="#00000"];

  DDI4_Study:Study_hasAlgorithm_association -> DDI4_AlgorithmOverview [ arrowhead=none arrowtail=odiamond labeldistance=1.9 taillabel="0..n" headlabel="0..n" edgetooltip="hasAlgorithm" fontcolor="black" color="#00000"];

  DDI4_Study:Study_hasConcept_association -> DDI4_Concept [ arrowhead=none arrowtail=odiamond labeldistance=1.9 taillabel="0..n" headlabel="0..n" edgetooltip="hasConcept" fontcolor="black" color="#00000"];

  DDI4_Study:Study_hasVariableCollection_association -> DDI4_VariableCollection [ arrowhead=none arrowtail=odiamond labeldistance=1.9 taillabel="0..n" headlabel="0..n" edgetooltip="hasVariableCollection" fontcolor="black" color="#00000"];

  DDI4_Study:Study_hasAgentListing_association -> DDI4_AgentListing [ arrowhead=none arrowtail=odiamond labeldistance=1.9 taillabel="0..n" headlabel="0..n" edgetooltip="hasAgentListing" fontcolor="black" color="#00000"];

}