digraph G {
fontname = "Bitstream Vera Sans"
fontsize = 8

overlap=false;

compound=true;    

node [
  fontname = "Bitstream Vera Sans"
  fontsize = 8
  shape = "record"
]

edge [
  fontname = "Bitstream Vera Sans"
  fontsize = 8
  mode="ipsep"            
]


DDI4_DataPointRelationStructure [
  label = "{<id>DataPointRelationStructure | + hasRelationSpecification : RelationSpecification \l + semantic : ExternalControlledVocabularyEntry \l + totality : TotalityType \l + hasMemberRelation : DataPointRelation \l \l \l| <DataPointRelationStructure_realizes_association> realizes \l \l}"

  tooltip = "FormatDescription:DataPointRelationStructure"

href = "DataPointRelationStructure.html"
]

DDI4_PhysicalDataSet [
  label = "{<id>PhysicalDataSet | + overview : InternationalStructuredString \l + physicalFileName :  \l + numberOfSegments :  \l + contains : PhysicalRecordSegmentIndicator \l + isOrdered :  \l + type : CollectionType \l + purpose : InternationalStructuredString \l \l \l| <PhysicalDataSet_formatsDataStore_association> formatsDataStore \l| <PhysicalDataSet_realizes_association> realizes \l| <PhysicalDataSet_isStructuredBy_association> isStructuredBy \l| <PhysicalDataSet_hasVariableStatistics_association> hasVariableStatistics \l| <PhysicalDataSet_definingConcept_association> definingConcept \l \l}"

  tooltip = "FormatDescription:PhysicalDataSet"

href = "PhysicalDataSet.html"
]

DDI4_PhysicalLayoutRelationStructure [
  label = "{<id>PhysicalLayoutRelationStructure | + criteria : InternationalStructuredString \l + hasRelationSpecification : RelationSpecification \l + semantic : ExternalControlledVocabularyEntry \l + totality : TotalityType \l + hasMemberRelation : ValueMappingRelation \l \l \l| <PhysicalLayoutRelationStructure_realizes_association> realizes \l \l}"

  tooltip = "FormatDescription:PhysicalLayoutRelationStructure"

href = "PhysicalLayoutRelationStructure.html"
]

DDI4_PhysicalOrderRelationStructure [
  label = "{<id>PhysicalOrderRelationStructure | + hasRelationSpecification : RelationSpecification \l + semantic : ExternalControlledVocabularyEntry \l + totality : TotalityType \l + hasMemberRelation : PhysicalRecordSegmentRelation \l \l \l| <PhysicalOrderRelationStructure_realizes_association> realizes \l \l}"

  tooltip = "FormatDescription:PhysicalOrderRelationStructure"

href = "PhysicalOrderRelationStructure.html"
]

DDI4_PhysicalRecordSegment [
  label = "{<id>PhysicalRecordSegment | + physicalFileName :  \l + contains : DataPointIndicator \l + isOrdered :  \l \l \l| <PhysicalRecordSegment_hasPhysicalLayout_association> hasPhysicalLayout \l| <PhysicalRecordSegment_representsPopulation_association> representsPopulation \l| <PhysicalRecordSegment_mapTo_association> mapTo \l| <PhysicalRecordSegment_realizes_association> realizes \l| <PhysicalRecordSegment_isStructuredBy_association> isStructuredBy \l| <PhysicalRecordSegment_definingConcept_association> definingConcept \l \l}"

  tooltip = "FormatDescription:PhysicalRecordSegment"

href = "PhysicalRecordSegment.html"
]

DDI4_PhysicalSegmentLayout [
  label = "{<id>PhysicalSegmentLayout | + isDelimited :  \l + delimiter :  \l + isFixedWidth :  \l + escapeCharacter :  \l + lineTerminator :  \l + quoteCharacter :  \l + commentPrefix :  \l + encoding : ExternalControlledVocabularyEntry \l + hasHeader :  \l + headerRowCount :  \l + skipBlankRows :  \l + skipDataColumns :  \l + skipInitialSpace :  \l + skipRows :  \l + trim : TrimValues \l + nullSequence :  \l + headerIsCaseSensitive :  \l + arrayBase :  \l + treatConsecutiveDelimitersAsOne :  \l + overview : InternationalStructuredString \l + tableDirection : TableDirectionValues \l + textDirection : TextDirectionValues \l + type : CollectionType \l + name : ObjectName \l + purpose : InternationalStructuredString \l + contains : ValueMappingIndicator \l + isOrdered :  \l \l \l| <PhysicalSegmentLayout_realizes_association> realizes \l| <PhysicalSegmentLayout_formatsLogicalRecord_association> formatsLogicalRecord \l| <PhysicalSegmentLayout_isStructuredBy_association> isStructuredBy \l| <PhysicalSegmentLayout_definingConcept_association> definingConcept \l \l}"

  tooltip = "FormatDescription:PhysicalSegmentLayout"

href = "PhysicalSegmentLayout.html"
]

DDI4_PhysicalSegmentLocation [
  label = "{<id>PhysicalSegmentLocation | \l \l| \l \l}"

  tooltip = "FormatDescription:PhysicalSegmentLocation"

href = "PhysicalSegmentLocation.html"
]

DDI4_SegmentByText [
  label = "{<id>SegmentByText | + startLine :  \l + endLine :  \l + startCharacterPosition :  \l + endCharacterPosition :  \l + characterLength :  \l \l \l| \l \l}"

  tooltip = "FormatDescription:SegmentByText"

href = "SegmentByText.html"
]

DDI4_UnitSegmentLayout [
  label = "{<id>UnitSegmentLayout | \l \l| \l \l}"

  tooltip = "FormatDescription:UnitSegmentLayout"

href = "UnitSegmentLayout.html"
]

DDI4_ValueMapping [
  label = "{<id>ValueMapping | + physicalDataType : ExternalControlledVocabularyEntry \l + defaultDecimalSeparator : Char \l + defaultDigitGroupSeparator : Char \l + numberPattern :  \l + defaultValue : ValueString \l + nullSequence :  \l + format : ExternalControlledVocabularyEntry \l + length :  \l + minimumLength :  \l + maximumLength :  \l + scale :  \l + decimalPositions :  \l + isRequired :  \l \l \l| <ValueMapping_formatsDataPoint_association> formatsDataPoint \l| <ValueMapping_describesSegmentLocation_association> describesSegmentLocation \l| <ValueMapping_realizes_association> realizes \l \l}"

  tooltip = "FormatDescription:ValueMapping"

href = "ValueMapping.html"
]

subgraph Conceptual {
label = "Conceptual"    

  node [ color = "#0000ff" ]

DDI4_Concept [
  label = "{<id>DDI_Concept}"

  tooltip = "Conceptual:Concept"

href = "../Conceptual/Concept.html"
]

DDI4_Population [
  label = "{<id>DDI_Population}"

  tooltip = "Conceptual:Population"

href = "../Conceptual/Population.html"
]

}

subgraph SimpleCodebook {
label = "SimpleCodebook"    

  node [ color = "#0000ff" ]

DDI4_VariableStatistics [
  label = "{<id>DDI_VariableStatistics}"

  tooltip = "SimpleCodebook:VariableStatistics"

href = "../SimpleCodebook/VariableStatistics.html"
]

}

subgraph CollectionsPattern {
label = "CollectionsPattern"    

  node [ color = "#0000ff" ]

DDI4_CollectionMember [
  label = "{<id>DDI_CollectionMember}"

  tooltip = "CollectionsPattern:CollectionMember"

href = "../CollectionsPattern/CollectionMember.html"
]

DDI4_RelationStructure [
  label = "{<id>DDI_RelationStructure}"

  tooltip = "CollectionsPattern:RelationStructure"

href = "../CollectionsPattern/RelationStructure.html"
]

DDI4_StructuredCollection [
  label = "{<id>DDI_StructuredCollection}"

  tooltip = "CollectionsPattern:StructuredCollection"

href = "../CollectionsPattern/StructuredCollection.html"
]

}

subgraph Identification {
label = "Identification"    

  node [ color = "#0000ff" ]

DDI4_AnnotatedIdentifiable [
  label = "{<id>DDI_AnnotatedIdentifiable}"

  tooltip = "Identification:AnnotatedIdentifiable"

href = "../Identification/AnnotatedIdentifiable.html"
]

DDI4_Identifiable [
  label = "{<id>DDI_Identifiable}"

  tooltip = "Identification:Identifiable"

href = "../Identification/Identifiable.html"
]

}

subgraph LogicalDataDescription {
label = "LogicalDataDescription"    

  node [ color = "#0000ff" ]

DDI4_DataPoint [
  label = "{<id>DDI_DataPoint}"

  tooltip = "LogicalDataDescription:DataPoint"

href = "../LogicalDataDescription/DataPoint.html"
]

DDI4_DataStore [
  label = "{<id>DDI_DataStore}"

  tooltip = "LogicalDataDescription:DataStore"

href = "../LogicalDataDescription/DataStore.html"
]

DDI4_LogicalRecord [
  label = "{<id>DDI_LogicalRecord}"

  tooltip = "LogicalDataDescription:LogicalRecord"

href = "../LogicalDataDescription/LogicalRecord.html"
]

}

DDI4_DataPointRelationStructure -> DDI4_Identifiable [arrowhead=onormal color="#000000"];

  DDI4_DataPointRelationStructure:DataPointRelationStructure_realizes_association -> DDI4_RelationStructure [ arrowhead=none arrowtail=none  edgetooltip="realizes" fontcolor="black" color="#00000"];

DDI4_PhysicalDataSet -> DDI4_AnnotatedIdentifiable [arrowhead=onormal color="#000000"];

  DDI4_PhysicalDataSet:PhysicalDataSet_formatsDataStore_association -> DDI4_DataStore [ arrowhead=none arrowtail=odiamond labeldistance=1.9 taillabel="0..n" headlabel="0..n" edgetooltip="formatsDataStore" fontcolor="black" color="#00000"];

  DDI4_PhysicalDataSet:PhysicalDataSet_realizes_association -> DDI4_StructuredCollection [ arrowhead=none arrowtail=none  edgetooltip="realizes" fontcolor="black" color="#00000"];

  DDI4_PhysicalDataSet:PhysicalDataSet_isStructuredBy_association -> DDI4_PhysicalOrderRelationStructure [ arrowhead=none arrowtail=odiamond labeldistance=1.9 taillabel="0..n" headlabel="0..n" edgetooltip="isStructuredBy" fontcolor="black" color="#00000"];

  DDI4_PhysicalDataSet:PhysicalDataSet_hasVariableStatistics_association -> DDI4_VariableStatistics [ arrowhead=none arrowtail=odiamond labeldistance=1.9 taillabel="0..n" headlabel="0..n" edgetooltip="hasVariableStatistics" fontcolor="black" color="#00000"];

  DDI4_PhysicalDataSet:PhysicalDataSet_definingConcept_association -> DDI4_Concept [ arrowhead=none arrowtail=odiamond labeldistance=1.9 taillabel="0..n" headlabel="0..n" edgetooltip="definingConcept" fontcolor="black" color="#00000"];

DDI4_PhysicalLayoutRelationStructure -> DDI4_Identifiable [arrowhead=onormal color="#000000"];

  DDI4_PhysicalLayoutRelationStructure:PhysicalLayoutRelationStructure_realizes_association -> DDI4_RelationStructure [ arrowhead=none arrowtail=none  edgetooltip="realizes" fontcolor="black" color="#00000"];

DDI4_PhysicalOrderRelationStructure -> DDI4_Identifiable [arrowhead=onormal color="#000000"];

  DDI4_PhysicalOrderRelationStructure:PhysicalOrderRelationStructure_realizes_association -> DDI4_RelationStructure [ arrowhead=none arrowtail=none  edgetooltip="realizes" fontcolor="black" color="#00000"];

DDI4_PhysicalRecordSegment -> DDI4_AnnotatedIdentifiable [arrowhead=onormal color="#000000"];

  DDI4_PhysicalRecordSegment:PhysicalRecordSegment_hasPhysicalLayout_association -> DDI4_PhysicalSegmentLayout [ arrowhead=none arrowtail=odiamond labeldistance=1.9 taillabel="0..n" headlabel="0..1" edgetooltip="hasPhysicalLayout" fontcolor="black" color="#00000"];

  DDI4_PhysicalRecordSegment:PhysicalRecordSegment_representsPopulation_association -> DDI4_Population [ arrowhead=none arrowtail=odiamond labeldistance=1.9 taillabel="0..n" headlabel="0..1" edgetooltip="representsPopulation" fontcolor="black" color="#00000"];

  DDI4_PhysicalRecordSegment:PhysicalRecordSegment_mapTo_association -> DDI4_LogicalRecord [ arrowhead=none arrowtail=odiamond labeldistance=1.9 taillabel="0..n" headlabel="0..1" edgetooltip="mapTo" fontcolor="black" color="#00000"];

  DDI4_PhysicalRecordSegment:PhysicalRecordSegment_realizes_association -> DDI4_StructuredCollection [ arrowhead=none arrowtail=none  edgetooltip="realizes" fontcolor="black" color="#00000"];

  DDI4_PhysicalRecordSegment:PhysicalRecordSegment_isStructuredBy_association -> DDI4_DataPointRelationStructure [ arrowhead=none arrowtail=odiamond labeldistance=1.9 taillabel="0..n" headlabel="0..n" edgetooltip="isStructuredBy" fontcolor="black" color="#00000"];

  DDI4_PhysicalRecordSegment:PhysicalRecordSegment_definingConcept_association -> DDI4_Concept [ arrowhead=none arrowtail=odiamond labeldistance=1.9 taillabel="0..n" headlabel="0..n" edgetooltip="definingConcept" fontcolor="black" color="#00000"];

DDI4_PhysicalSegmentLayout -> DDI4_AnnotatedIdentifiable [arrowhead=onormal color="#000000"];

  DDI4_PhysicalSegmentLayout:PhysicalSegmentLayout_realizes_association -> DDI4_StructuredCollection [ arrowhead=none arrowtail=none  edgetooltip="realizes" fontcolor="black" color="#00000"];

  DDI4_PhysicalSegmentLayout:PhysicalSegmentLayout_formatsLogicalRecord_association -> DDI4_LogicalRecord [ arrowhead=none arrowtail=odiamond labeldistance=1.9 taillabel="0..n" headlabel="0..1" edgetooltip="formatsLogicalRecord" fontcolor="black" color="#00000"];

  DDI4_PhysicalSegmentLayout:PhysicalSegmentLayout_isStructuredBy_association -> DDI4_PhysicalLayoutRelationStructure [ arrowhead=none arrowtail=odiamond labeldistance=1.9 taillabel="0..n" headlabel="0..n" edgetooltip="isStructuredBy" fontcolor="black" color="#00000"];

  DDI4_PhysicalSegmentLayout:PhysicalSegmentLayout_definingConcept_association -> DDI4_Concept [ arrowhead=none arrowtail=odiamond labeldistance=1.9 taillabel="0..n" headlabel="0..n" edgetooltip="definingConcept" fontcolor="black" color="#00000"];

DDI4_PhysicalSegmentLocation -> DDI4_AnnotatedIdentifiable [arrowhead=onormal color="#000000"];

DDI4_SegmentByText -> DDI4_PhysicalSegmentLocation [arrowhead=onormal color="#000000"];

DDI4_UnitSegmentLayout -> DDI4_PhysicalSegmentLayout [arrowhead=onormal color="#000000"];

DDI4_ValueMapping -> DDI4_Identifiable [arrowhead=onormal color="#000000"];

  DDI4_ValueMapping:ValueMapping_formatsDataPoint_association -> DDI4_DataPoint [ arrowhead=none arrowtail=odiamond labeldistance=1.9 taillabel="1..1" headlabel="0..n" edgetooltip="formatsDataPoint" fontcolor="black" color="#00000"];

  DDI4_ValueMapping:ValueMapping_describesSegmentLocation_association -> DDI4_PhysicalSegmentLocation [ arrowhead=none arrowtail=odiamond labeldistance=1.9 taillabel="0..n" headlabel="0..1" edgetooltip="describesSegmentLocation" fontcolor="black" color="#00000"];

  DDI4_ValueMapping:ValueMapping_realizes_association -> DDI4_CollectionMember [ arrowhead=none arrowtail=none  edgetooltip="realizes" fontcolor="black" color="#00000"];

}