digraph G {
fontname = "Bitstream Vera Sans"
fontsize = 8

overlap=false;

compound=true;    

node [
  fontname = "Bitstream Vera Sans"
  fontsize = 8
  shape = "record"
]

edge [
  fontname = "Bitstream Vera Sans"
  fontsize = 8
  mode="ipsep"            
]


DDI4_MethodologyOverview [
  label = "{<id>MethodologyOverview | + subjectOfMethodology : ExternalControlledVocabularyEntry \l + name : ObjectName \l + usage : InternationalStructuredString \l + rationale : InternationalStructuredString \l + overview : InternationalStructuredString \l \l \l| <MethodologyOverview_isDescribedIn_association> isDescribedIn \l| <MethodologyOverview_hasDesign_association> hasDesign \l| <MethodologyOverview_isExpressedBy_association> isExpressedBy \l| <MethodologyOverview_componentMethodology_association> componentMethodology \l| <MethodologyOverview_realizes_association> realizes \l \l}"

  tooltip = "SimpleMethodologyOverview:MethodologyOverview"

href = "MethodologyOverview.html"
]

subgraph SimpleMethodologyOverview {
label = "SimpleMethodologyOverview"    

  node [ color = "#0000ff" ]

DDI4_AlgorithmOverview [
  label = "{<id>DDI_AlgorithmOverview}"

  tooltip = "SimpleMethodologyOverview:AlgorithmOverview"

href = "../SimpleMethodologyOverview/AlgorithmOverview.html"
]

DDI4_DesignOverview [
  label = "{<id>DDI_DesignOverview}"

  tooltip = "SimpleMethodologyOverview:DesignOverview"

href = "../SimpleMethodologyOverview/DesignOverview.html"
]

}

subgraph MethodologyPattern {
label = "MethodologyPattern"    

  node [ color = "#0000ff" ]

DDI4_Methodology [
  label = "{<id>DDI_Methodology}"

  tooltip = "MethodologyPattern:Methodology"

href = "../MethodologyPattern/Methodology.html"
]

}

subgraph Utility {
label = "Utility"    

  node [ color = "#0000ff" ]

DDI4_ExternalMaterial [
  label = "{<id>DDI_ExternalMaterial}"

  tooltip = "Utility:ExternalMaterial"

href = "../Utility/ExternalMaterial.html"
]

}

subgraph Identification {
label = "Identification"    

  node [ color = "#0000ff" ]

DDI4_AnnotatedIdentifiable [
  label = "{<id>DDI_AnnotatedIdentifiable}"

  tooltip = "Identification:AnnotatedIdentifiable"

href = "../Identification/AnnotatedIdentifiable.html"
]

}

DDI4_MethodologyOverview -> DDI4_AnnotatedIdentifiable [arrowhead=onormal color="#000000"];

  DDI4_MethodologyOverview:MethodologyOverview_isDescribedIn_association -> DDI4_ExternalMaterial [ arrowhead=none arrowtail=odiamond labeldistance=1.9 taillabel="0..n" headlabel="0..n" edgetooltip="isDescribedIn" fontcolor="black" color="#00000"];

  DDI4_MethodologyOverview:MethodologyOverview_hasDesign_association -> DDI4_DesignOverview [ arrowhead=none arrowtail=odiamond labeldistance=1.9 taillabel="0..n" headlabel="0..n" edgetooltip="hasDesign" fontcolor="black" color="#00000"];

  DDI4_MethodologyOverview:MethodologyOverview_isExpressedBy_association -> DDI4_AlgorithmOverview [ arrowhead=none arrowtail=odiamond labeldistance=1.9 taillabel="0..n" headlabel="0..n" edgetooltip="isExpressedBy" fontcolor="black" color="#00000"];

  DDI4_MethodologyOverview:MethodologyOverview_componentMethodology_association -> DDI4_MethodologyOverview [ arrowhead=none arrowtail=odiamond labeldistance=1.9 taillabel="0..n" headlabel="0..n" edgetooltip="componentMethodology" fontcolor="black" color="#00000"];

  DDI4_MethodologyOverview:MethodologyOverview_realizes_association -> DDI4_Methodology [ arrowhead=none arrowtail=none  edgetooltip="realizes" fontcolor="black" color="#00000"];

}