digraph G {
fontname = "Bitstream Vera Sans"
fontsize = 8

overlap=false;

compound=true;    

node [
  fontname = "Bitstream Vera Sans"
  fontsize = 8
  shape = "record"
]

edge [
  fontname = "Bitstream Vera Sans"
  fontsize = 8
  mode="ipsep"            
]


DDI4_AgentListing [
  label = "{<id>AgentListing | + type : CollectionType \l + name : ObjectName \l + purpose : InternationalStructuredString \l + contains : AgentIndicator \l + isOrdered :  \l \l \l| <AgentListing_realizes_association> realizes \l| <AgentListing_isStructuredBy_association> isStructuredBy \l| <AgentListing_maintenanceUnit_association> maintenanceUnit \l| <AgentListing_definingConcept_association> definingConcept \l \l}"

  tooltip = "Agents:AgentListing"

href = "AgentListing.html"
]

subgraph Conceptual {
label = "Conceptual"    

  node [ color = "#0000ff" ]

DDI4_Concept [
  label = "{<id>DDI_Concept}"

  tooltip = "Conceptual:Concept"

href = "../Conceptual/Concept.html"
]

}

subgraph CollectionsPattern {
label = "CollectionsPattern"    

  node [ color = "#0000ff" ]

DDI4_StructuredCollection [
  label = "{<id>DDI_StructuredCollection}"

  tooltip = "CollectionsPattern:StructuredCollection"

href = "../CollectionsPattern/StructuredCollection.html"
]

}

subgraph Identification {
label = "Identification"    

  node [ color = "#0000ff" ]

DDI4_Identifiable [
  label = "{<id>DDI_Identifiable}"

  tooltip = "Identification:Identifiable"

href = "../Identification/Identifiable.html"
]

}

subgraph Agents {
label = "Agents"    

  node [ color = "#0000ff" ]

DDI4_Agent [
  label = "{<id>DDI_Agent}"

  tooltip = "Agents:Agent"

href = "../Agents/Agent.html"
]

DDI4_AgentRelationStructure [
  label = "{<id>DDI_AgentRelationStructure}"

  tooltip = "Agents:AgentRelationStructure"

href = "../Agents/AgentRelationStructure.html"
]

}

DDI4_AgentListing -> DDI4_Identifiable [arrowhead=onormal color="#000000"];

  DDI4_AgentListing:AgentListing_realizes_association -> DDI4_StructuredCollection [ arrowhead=none arrowtail=none  edgetooltip="realizes" fontcolor="black" color="#00000"];

  DDI4_AgentListing:AgentListing_isStructuredBy_association -> DDI4_AgentRelationStructure [ arrowhead=none arrowtail=odiamond labeldistance=1.9 taillabel="0..n" headlabel="0..n" edgetooltip="isStructuredBy" fontcolor="black" color="#00000"];

  DDI4_AgentListing:AgentListing_maintenanceUnit_association -> DDI4_Agent [ arrowhead=none arrowtail=odiamond labeldistance=1.9 taillabel="0..n" headlabel="0..1" edgetooltip="maintenanceUnit" fontcolor="black" color="#00000"];

  DDI4_AgentListing:AgentListing_definingConcept_association -> DDI4_Concept [ arrowhead=none arrowtail=odiamond labeldistance=1.9 taillabel="0..n" headlabel="0..n" edgetooltip="definingConcept" fontcolor="black" color="#00000"];

}