digraph G {
fontname = "Bitstream Vera Sans"
fontsize = 8

overlap=false;

compound=true;    

node [
  fontname = "Bitstream Vera Sans"
  fontsize = 8
  shape = "record"
]

edge [
  fontname = "Bitstream Vera Sans"
  fontsize = 8
  mode="ipsep"            
]


DDI4_Individual [
  label = "{<id>Individual | + hasIndividualName : IndividualName \l + ddiId :  \l + hasContactInformation : ContactInformation \l \l \l| \l \l}"

  tooltip = "Agents:Individual"

href = "Individual.html"
]

subgraph Agents {
label = "Agents"    

  node [ color = "#0000ff" ]

DDI4_Agent [
  label = "{<id>DDI_Agent}"

  tooltip = "Agents:Agent"

href = "../Agents/Agent.html"
]

}

DDI4_Individual -> DDI4_Agent [arrowhead=onormal color="#000000"];

}