digraph G {
fontname = "Bitstream Vera Sans"
fontsize = 8

overlap=false;

compound=true;    

node [
  fontname = "Bitstream Vera Sans"
  fontsize = 8
  shape = "record"
]

edge [
  fontname = "Bitstream Vera Sans"
  fontsize = 8
  mode="ipsep"            
]


DDI4_Capture [
  label = "{<id>Capture | + name : ObjectName \l + displayLabel : LabelForDisplay \l + usage : InternationalStructuredString \l + purpose : InternationalStructuredString \l + captureSource : ExternalControlledVocabularyEntry \l + analysisUnit : ExternalControlledVocabularyEntry \l \l \l| <Capture_hasResponseDomain_association> hasResponseDomain \l| <Capture_hasConcept_association> hasConcept \l| <Capture_hasInstruction_association> hasInstruction \l| <Capture_hasExternalAid_association> hasExternalAid \l \l}"

  tooltip = "DataCapture:Capture"

href = "Capture.html"
]

subgraph Conceptual {
label = "Conceptual"    

  node [ color = "#0000ff" ]

DDI4_Concept [
  label = "{<id>DDI_Concept}"

  tooltip = "Conceptual:Concept"

href = "../Conceptual/Concept.html"
]

}

subgraph DataCapture {
label = "DataCapture"    

  node [ color = "#0000ff" ]

DDI4_ExternalAid [
  label = "{<id>DDI_ExternalAid}"

  tooltip = "DataCapture:ExternalAid"

href = "../DataCapture/ExternalAid.html"
]

DDI4_Instruction [
  label = "{<id>DDI_Instruction}"

  tooltip = "DataCapture:Instruction"

href = "../DataCapture/Instruction.html"
]

DDI4_ResponseDomain [
  label = "{<id>DDI_ResponseDomain}"

  tooltip = "DataCapture:ResponseDomain"

href = "../DataCapture/ResponseDomain.html"
]

}

subgraph Identification {
label = "Identification"    

  node [ color = "#0000ff" ]

DDI4_AnnotatedIdentifiable [
  label = "{<id>DDI_AnnotatedIdentifiable}"

  tooltip = "Identification:AnnotatedIdentifiable"

href = "../Identification/AnnotatedIdentifiable.html"
]

}

DDI4_Capture -> DDI4_AnnotatedIdentifiable [arrowhead=onormal color="#000000"];

  DDI4_Capture:Capture_hasResponseDomain_association -> DDI4_ResponseDomain [ arrowhead=none arrowtail=odiamond labeldistance=1.9 taillabel="0..n" headlabel="0..n" edgetooltip="hasResponseDomain" fontcolor="black" color="#00000"];

  DDI4_Capture:Capture_hasConcept_association -> DDI4_Concept [ arrowhead=none arrowtail=odiamond labeldistance=1.9 taillabel="0..n" headlabel="0..n" edgetooltip="hasConcept" fontcolor="black" color="#00000"];

  DDI4_Capture:Capture_hasInstruction_association -> DDI4_Instruction [ arrowhead=none arrowtail=odiamond labeldistance=1.9 taillabel="0..n" headlabel="0..n" edgetooltip="hasInstruction" fontcolor="black" color="#00000"];

  DDI4_Capture:Capture_hasExternalAid_association -> DDI4_ExternalAid [ arrowhead=none arrowtail=odiamond labeldistance=1.9 taillabel="0..n" headlabel="0..n" edgetooltip="hasExternalAid" fontcolor="black" color="#00000"];

}