digraph G {
fontname = "Bitstream Vera Sans"
fontsize = 8

overlap=false;

compound=true;    

node [
  fontname = "Bitstream Vera Sans"
  fontsize = 8
  shape = "record"
]

edge [
  fontname = "Bitstream Vera Sans"
  fontsize = 8
  mode="ipsep"            
]


DDI4_RepresentedMeasurement [
  label = "{<id>RepresentedMeasurement | + measurementType : ExternalControlledVocabularyEntry \l \l \l| <RepresentedMeasurement_hasRepresentedVariable_association> hasRepresentedVariable \l \l}"

  tooltip = "DataCapture:RepresentedMeasurement"

href = "RepresentedMeasurement.html"
]

subgraph Conceptual {
label = "Conceptual"    

  node [ color = "#0000ff" ]

DDI4_RepresentedVariable [
  label = "{<id>DDI_RepresentedVariable}"

  tooltip = "Conceptual:RepresentedVariable"

href = "../Conceptual/RepresentedVariable.html"
]

}

subgraph DataCapture {
label = "DataCapture"    

  node [ color = "#0000ff" ]

DDI4_Capture [
  label = "{<id>DDI_Capture}"

  tooltip = "DataCapture:Capture"

href = "../DataCapture/Capture.html"
]

}

DDI4_RepresentedMeasurement -> DDI4_Capture [arrowhead=onormal color="#000000"];

  DDI4_RepresentedMeasurement:RepresentedMeasurement_hasRepresentedVariable_association -> DDI4_RepresentedVariable [ arrowhead=none arrowtail=odiamond labeldistance=1.9 taillabel="0..n" headlabel="0..1" edgetooltip="hasRepresentedVariable" fontcolor="black" color="#00000"];

}