digraph G {
fontname = "Bitstream Vera Sans"
fontsize = 8

overlap=false;

compound=true;    

node [
  fontname = "Bitstream Vera Sans"
  fontsize = 8
  shape = "record"
]

edge [
  fontname = "Bitstream Vera Sans"
  fontsize = 8
  mode="ipsep"            
]


DDI4_Access [
  label = "{<id>Access | + purpose : InternationalStructuredString \l + confidentialityStatement : InternationalStructuredString \l + accessPermission : Form \l + restrictions : InternationalStructuredString \l + citationRequirement : InternationalStructuredString \l + depositRequirement : InternationalStructuredString \l + accessConditions : InternationalStructuredString \l + disclaimer : InternationalStructuredString \l + contactAgent : AgentAssociation \l + validDates : DateRange \l \l \l| \l \l}"

  tooltip = "Discovery:Access"

href = "Access.html"
]

DDI4_AppliedUse [
  label = "{<id>AppliedUse | + overview : InternationalStructuredString \l \l \l| <AppliedUse_hasGuide_association> hasGuide \l| <AppliedUse_appliesToUnitType_association> appliesToUnitType \l| <AppliedUse_isUsedBy_association> isUsedBy \l \l}"

  tooltip = "Methodologies:AppliedUse"

href = "AppliedUse.html"
]

DDI4_BoundingBox [
  label = "{<id>BoundingBox | + eastLongitude :  \l + westLongitude :  \l + northLatitude :  \l + southLatitude :  \l \l \l| \l \l}"

  tooltip = "Discovery:BoundingBox"

href = "BoundingBox.html"
]

DDI4_Category [
  label = "{<id>Category | + descriptiveText : InternationalStructuredString \l \l \l| \l \l}"

  tooltip = "Conceptual:Category"

href = "Category.html"
]

DDI4_CategoryRelationStructure [
  label = "{<id>CategoryRelationStructure | + hasRelationSpecification : RelationSpecification \l + semantic : ExternalControlledVocabularyEntry \l + totality : TotalityType \l + hasMemberRelation : CategoryRelation \l \l \l| <CategoryRelationStructure_realizes_association> realizes \l \l}"

  tooltip = "Conceptual:CategoryRelationStructure"

href = "CategoryRelationStructure.html"
]

DDI4_CategorySet [
  label = "{<id>CategorySet | + contains : CategoryIndicator \l \l \l| <CategorySet_isStructuredBy_association> isStructuredBy \l \l}"

  tooltip = "Conceptual:CategorySet"

href = "CategorySet.html"
]

DDI4_Code [
  label = "{<id>Code | + representation : ValueString \l \l \l| <Code_denotes_association> denotes \l \l}"

  tooltip = "Representations:Code"

href = "Code.html"
]

DDI4_CodeList [
  label = "{<id>CodeList | + contains : CodeIndicator \l \l \l| <CodeList_realizes_association> realizes \l| <CodeList_isStructuredBy_association> isStructuredBy \l \l}"

  tooltip = "Representations:CodeList"

href = "CodeList.html"
]

DDI4_CodeRelationStructure [
  label = "{<id>CodeRelationStructure | + hasRelationSpecification : RelationSpecification \l + semantic : ExternalControlledVocabularyEntry \l + totality : TotalityType \l + hasMemberRelation : CodeRelation \l \l \l| <CodeRelationStructure_realizes_association> realizes \l \l}"

  tooltip = "Representations:CodeRelationStructure"

href = "CodeRelationStructure.html"
]

DDI4_ComputationAction [
  label = "{<id>ComputationAction | + activityDescription : InternationalStructuredString \l + usesCommandCode : CommandCode \l + typeOfComputation : ExternalControlledVocabularyEntry \l \l \l| \l \l}"

  tooltip = "Workflows:ComputationAction"

href = "ComputationAction.html"
]

DDI4_Concept [
  label = "{<id>Concept | + name : ObjectName \l + definition : InternationalStructuredString \l + displayLabel : LabelForDisplay \l \l \l| <Concept_realizes_association> realizes \l \l}"

  tooltip = "Conceptual:Concept"

href = "Concept.html"
]

DDI4_ConceptRelationStructure [
  label = "{<id>ConceptRelationStructure | + hasRelationSpecification : RelationSpecification \l + semantic : ExternalControlledVocabularyEntry \l + totality : TotalityType \l + hasMemberRelation : ConceptRelation \l \l \l| <ConceptRelationStructure_realizes_association> realizes \l \l}"

  tooltip = "Conceptual:ConceptRelationStructure"

href = "ConceptRelationStructure.html"
]

DDI4_ConceptSystem [
  label = "{<id>ConceptSystem | + type : CollectionType \l + name : ObjectName \l + purpose : InternationalStructuredString \l + contains : ConceptIndicator \l + isOrdered :  \l \l \l| <ConceptSystem_isStructuredBy_association> isStructuredBy \l| <ConceptSystem_realizes_association> realizes \l| <ConceptSystem_definingConcept_association> definingConcept \l \l}"

  tooltip = "Conceptual:ConceptSystem"

href = "ConceptSystem.html"
]

DDI4_ExternalMaterial [
  label = "{<id>ExternalMaterial | + typeOfMaterial : ExternalControlledVocabularyEntry \l + descriptiveText : InternationalStructuredString \l + uri :  \l + relationshipDescription : InternationalStructuredString \l + mimeType : ExternalControlledVocabularyEntry \l + usesSegment : Segment \l + citationOfExternalMaterial : Annotation \l \l \l| \l \l}"

  tooltip = "Utility:ExternalMaterial"

href = "ExternalMaterial.html"
]

DDI4_GeographicExtent [
  label = "{<id>GeographicExtent | + boundingPolygon : Polygon \l + excludingPolygon : Polygon \l + geographicTime : DateRange \l + hasAreaCoverage : AreaCoverage \l + hasCentroid : SpatialPoint \l + locationPoint : SpatialPoint \l + isSpatialLine : SpatialLine \l \l \l| <GeographicExtent_hasBoundingBox_association> hasBoundingBox \l \l}"

  tooltip = "GeographicClassification:GeographicExtent"

href = "GeographicExtent.html"
]

DDI4_GeographicUnit [
  label = "{<id>GeographicUnit | + geographicTime : DateRange \l + supercedes : SpatialRelationship \l + precedes : SpatialRelationship \l \l \l| <GeographicUnit_hasGeographicExtent_association> hasGeographicExtent \l \l}"

  tooltip = "GeographicClassification:GeographicUnit"

href = "GeographicUnit.html"
]

DDI4_Goal [
  label = "{<id>Goal | \l \l| <Goal_isDiscussedIn_association> isDiscussedIn \l \l}"

  tooltip = "Methodologies:Goal"

href = "Goal.html"
]

DDI4_Guide [
  label = "{<id>Guide | + overview : InternationalStructuredString \l \l \l| <Guide_isDiscussedIn_association> isDiscussedIn \l \l}"

  tooltip = "Methodologies:Guide"

href = "Guide.html"
]

DDI4_IfThenElse [
  label = "{<id>IfThenElse | + elseIf : ElseIfAction \l \l \l| <IfThenElse_elseExecutes_association> elseExecutes \l \l}"

  tooltip = "Workflows:IfThenElse"

href = "IfThenElse.html"
]

DDI4_Individual [
  label = "{<id>Individual | + hasIndividualName : IndividualName \l + ddiId :  \l + hasContactInformation : ContactInformation \l \l \l| \l \l}"

  tooltip = "Agents:Individual"

href = "Individual.html"
]

DDI4_LevelStructure [
  label = "{<id>LevelStructure | + name : ObjectName \l + usage : InternationalStructuredString \l + containsLevel : Level \l + validDateRange : DateRange \l \l \l| \l \l}"

  tooltip = "Representations:LevelStructure"

href = "LevelStructure.html"
]

DDI4_Loop [
  label = "{<id>Loop | + initialValue : CommandCode \l + stepValue : CommandCode \l \l \l| \l \l}"

  tooltip = "Workflows:Loop"

href = "Loop.html"
]

DDI4_Machine [
  label = "{<id>Machine | + typeOfMachine : ExternalControlledVocabularyEntry \l + name : ObjectName \l + hasAccessLocation : AccessLocation \l + function : ExternalControlledVocabularyEntry \l + machineInterface : ExternalControlledVocabularyEntry \l + ownerOperatorContact : ContactInformation \l \l \l| \l \l}"

  tooltip = "Agents:Machine"

href = "Machine.html"
]

DDI4_Organization [
  label = "{<id>Organization | + hasOrganizationName : OrganizationName \l + ddiId :  \l + hasContactInformation : ContactInformation \l \l \l| \l \l}"

  tooltip = "Agents:Organization"

href = "Organization.html"
]

DDI4_Parameter [
  label = "{<id>Parameter | + alias :  \l + defaultValue : ValueString \l + isArray :  \l + limitArrayIndex :  \l + agency :  \l + id :  \l + version :  \l + name : ObjectName \l + purpose : InternationalStructuredString \l \l \l| <Parameter_valueRepresentation_association> valueRepresentation \l \l}"

  tooltip = "Workflows:Parameter"

href = "Parameter.html"
]

DDI4_Population [
  label = "{<id>Population | + timePeriodOfPopulation : DateRange \l \l \l| <Population_composedOf_association> composedOf \l| <Population_narrowsUniverse_association> narrowsUniverse \l| <Population_geographyOfPopulation_association> geographyOfPopulation \l \l}"

  tooltip = "Conceptual:Population"

href = "Population.html"
]

DDI4_Precondition [
  label = "{<id>Precondition | \l \l| <Precondition_isDiscussedIn_association> isDiscussedIn \l| <Precondition_basedOnPriorResult_association> basedOnPriorResult \l \l}"

  tooltip = "Methodologies:Precondition"

href = "Precondition.html"
]

DDI4_RepeatUntil [
  label = "{<id>RepeatUntil | \l \l| \l \l}"

  tooltip = "Workflows:RepeatUntil"

href = "RepeatUntil.html"
]

DDI4_RepeatWhile [
  label = "{<id>RepeatWhile | \l \l| \l \l}"

  tooltip = "Workflows:RepeatWhile"

href = "RepeatWhile.html"
]

DDI4_SampleFrame [
  label = "{<id>SampleFrame | + name : ObjectName \l + displayLabel : LabelForDisplay \l + usage : InternationalStructuredString \l + purpose : InternationalStructuredString \l + limitations : InternationalStructuredString \l + updateProcedures : InternationalStructuredString \l + referencePeriod : DateRange \l + validPeriod : DateRange \l \l \l| <SampleFrame_hasCustodian_association> hasCustodian \l| <SampleFrame_hasAccess_association> hasAccess \l| <SampleFrame_hasPopulation_association> hasPopulation \l| <SampleFrame_hasPrimaryUnitType_association> hasPrimaryUnitType \l| <SampleFrame_hasSecondaryUnitType_association> hasSecondaryUnitType \l| <SampleFrame_sourceFrame_association> sourceFrame \l| <SampleFrame_hasInputParameter_association> hasInputParameter \l| <SampleFrame_hasOutputParameter_association> hasOutputParameter \l \l}"

  tooltip = "SamplingMethodology:SampleFrame"

href = "SampleFrame.html"
]

DDI4_SamplePopulationResult [
  label = "{<id>SamplePopulationResult | + sizeOfSample :  \l + strataName :  \l + sampleDate : Date \l \l \l| <SamplePopulationResult_sampleUnitType_association> sampleUnitType \l| <SamplePopulationResult_populationSampled_association> populationSampled \l \l}"

  tooltip = "SamplingMethodology:SamplePopulationResult"

href = "SamplePopulationResult.html"
]

DDI4_SamplingAlgorithm [
  label = "{<id>SamplingAlgorithm | + codifiedExpressionOfAlgorithm : CommandCode \l \l \l| \l \l}"

  tooltip = "SamplingMethodology:SamplingAlgorithm"

href = "SamplingAlgorithm.html"
]

DDI4_SamplingDesign [
  label = "{<id>SamplingDesign | \l \l| <SamplingDesign_expressesAlgorithm_association> expressesAlgorithm \l| <SamplingDesign_specifiesGoal_association> specifiesGoal \l| <SamplingDesign_implementedBy_association> implementedBy \l \l}"

  tooltip = "SamplingMethodology:SamplingDesign"

href = "SamplingDesign.html"
]

DDI4_SamplingGoal [
  label = "{<id>SamplingGoal | + overallTargetSampleSize :  \l + overallTargetSamplePercent :  \l + targetSampleSize : TargetSample \l \l \l| \l \l}"

  tooltip = "SamplingMethodology:SamplingGoal"

href = "SamplingGoal.html"
]

DDI4_SamplingProcedure [
  label = "{<id>SamplingProcedure | \l \l| <SamplingProcedure_hasDesign_association> hasDesign \l| <SamplingProcedure_hasProcess_association> hasProcess \l| <SamplingProcedure_isExpressedBy_association> isExpressedBy \l| <SamplingProcedure_componentMethodology_association> componentMethodology \l \l}"

  tooltip = "SamplingMethodology:SamplingProcedure"

href = "SamplingProcedure.html"
]

DDI4_SamplingProcess [
  label = "{<id>SamplingProcess | + overview : InternationalStructuredString \l \l \l| <SamplingProcess_isDiscussedIn_association> isDiscussedIn \l| <SamplingProcess_isSpecifiedBy_association> isSpecifiedBy \l| <SamplingProcess_hasResults_association> hasResults \l| <SamplingProcess_realizes_association> realizes \l| <SamplingProcess_implementsAlgorithm_association> implementsAlgorithm \l \l}"

  tooltip = "SamplingMethodology:SamplingProcess"

href = "SamplingProcess.html"
]

DDI4_Split [
  label = "{<id>Split | \l \l| \l \l}"

  tooltip = "Workflows:Split"

href = "Split.html"
]

DDI4_SplitJoin [
  label = "{<id>SplitJoin | \l \l| \l \l}"

  tooltip = "Workflows:SplitJoin"

href = "SplitJoin.html"
]

DDI4_SubstantiveConceptualDomain [
  label = "{<id>SubstantiveConceptualDomain | \l \l| \l \l}"

  tooltip = "Conceptual:SubstantiveConceptualDomain"

href = "SubstantiveConceptualDomain.html"
]

DDI4_SubstantiveValueDomain [
  label = "{<id>SubstantiveValueDomain | \l \l| <SubstantiveValueDomain_takesConceptsFrom_association> takesConceptsFrom \l| <SubstantiveValueDomain_describedValueDomain_association> describedValueDomain \l| <SubstantiveValueDomain_enumeratedValueDomain_association> enumeratedValueDomain \l \l}"

  tooltip = "Representations:SubstantiveValueDomain"

href = "SubstantiveValueDomain.html"
]

DDI4_Unit [
  label = "{<id>Unit | + displayLabel : LabelForDisplay \l + name : ObjectName \l + definition : InternationalStructuredString \l \l \l| <Unit_hasUnitType_association> hasUnitType \l \l}"

  tooltip = "Conceptual:Unit"

href = "Unit.html"
]

DDI4_UnitType [
  label = "{<id>UnitType | + descriptiveText : InternationalStructuredString \l \l \l| <UnitType_usesConcept_association> usesConcept \l \l}"

  tooltip = "Conceptual:UnitType"

href = "UnitType.html"
]

DDI4_Universe [
  label = "{<id>Universe | + isInclusive :  \l + descriptiveText : InternationalStructuredString \l \l \l| <Universe_narrowsUnitType_association> narrowsUnitType \l| <Universe_usesConcept_association> usesConcept \l \l}"

  tooltip = "Conceptual:Universe"

href = "Universe.html"
]

DDI4_ValueAndConceptDescription [
  label = "{<id>ValueAndConceptDescription | + description : InternationalStructuredString \l + logicalExpression : ExternalControlledVocabularyEntry \l + regularExpression : TypedString \l + minimumValueInclusive :  \l + maximumValueInclusive :  \l + minimumValueExclusive :  \l + maximumValueExclusive :  \l + classificationLevel : CategoryRelationCode \l + formatPattern : ExternalControlledVocabularyEntry \l \l \l| \l \l}"

  tooltip = "Representations:ValueAndConceptDescription"

href = "ValueAndConceptDescription.html"
]

DDI4_WorkflowService [
  label = "{<id>WorkflowService | + serviceInterface : ExternalControlledVocabularyEntry \l + serviceLocation : ExternalControlledVocabularyEntry \l + estimatedDuration : Date \l \l \l| <WorkflowService_hasAgent_association> hasAgent \l| <WorkflowService_realizes_association> realizes \l \l}"

  tooltip = "Workflows:WorkflowService"

href = "WorkflowService.html"
]

DDI4_WorkflowStepSequence [
  label = "{<id>WorkflowStepSequence | + typeOfWorkflowStepSequence : ExternalControlledVocabularyEntry \l + orderedStep : WorkflowStepOrder \l + name : ObjectName \l + purpose : InternationalStructuredString \l \l \l| \l \l}"

  tooltip = "Workflows:WorkflowStepSequence"

href = "WorkflowStepSequence.html"
]

subgraph Conceptual {
label = "Conceptual"    

  node [ color = "#0000ff" ]

DDI4_ConceptualDomain [
  label = "{<id>DDI_ConceptualDomain}"

  tooltip = "Conceptual:ConceptualDomain"

href = "../Conceptual/ConceptualDomain.html"
]

}

subgraph SimpleMethodologyOverview {
label = "SimpleMethodologyOverview"    

  node [ color = "#0000ff" ]

DDI4_AlgorithmOverview [
  label = "{<id>DDI_AlgorithmOverview}"

  tooltip = "SimpleMethodologyOverview:AlgorithmOverview"

href = "../SimpleMethodologyOverview/AlgorithmOverview.html"
]

DDI4_DesignOverview [
  label = "{<id>DDI_DesignOverview}"

  tooltip = "SimpleMethodologyOverview:DesignOverview"

href = "../SimpleMethodologyOverview/DesignOverview.html"
]

DDI4_MethodologyOverview [
  label = "{<id>DDI_MethodologyOverview}"

  tooltip = "SimpleMethodologyOverview:MethodologyOverview"

href = "../SimpleMethodologyOverview/MethodologyOverview.html"
]

}

subgraph SignificationPattern {
label = "SignificationPattern"    

  node [ color = "#0000ff" ]

DDI4_Signified [
  label = "{<id>DDI_Signified}"

  tooltip = "SignificationPattern:Signified"

href = "../SignificationPattern/Signified.html"
]

}

subgraph ProcessPattern {
label = "ProcessPattern"    

  node [ color = "#0000ff" ]

DDI4_Process [
  label = "{<id>DDI_Process}"

  tooltip = "ProcessPattern:Process"

href = "../ProcessPattern/Process.html"
]

DDI4_Service [
  label = "{<id>DDI_Service}"

  tooltip = "ProcessPattern:Service"

href = "../ProcessPattern/Service.html"
]

}

subgraph Workflows {
label = "Workflows"    

  node [ color = "#0000ff" ]

DDI4_Act [
  label = "{<id>DDI_Act}"

  tooltip = "Workflows:Act"

href = "../Workflows/Act.html"
]

DDI4_ConditionalControlStep [
  label = "{<id>DDI_ConditionalControlStep}"

  tooltip = "Workflows:ConditionalControlStep"

href = "../Workflows/ConditionalControlStep.html"
]

DDI4_TemporalRelationControlStep [
  label = "{<id>DDI_TemporalRelationControlStep}"

  tooltip = "Workflows:TemporalRelationControlStep"

href = "../Workflows/TemporalRelationControlStep.html"
]

DDI4_WorkflowControlStep [
  label = "{<id>DDI_WorkflowControlStep}"

  tooltip = "Workflows:WorkflowControlStep"

href = "../Workflows/WorkflowControlStep.html"
]

}

subgraph Methodologies {
label = "Methodologies"    

  node [ color = "#0000ff" ]

DDI4_BusinessFunction [
  label = "{<id>DDI_BusinessFunction}"

  tooltip = "Methodologies:BusinessFunction"

href = "../Methodologies/BusinessFunction.html"
]

DDI4_Result [
  label = "{<id>DDI_Result}"

  tooltip = "Methodologies:Result"

href = "../Methodologies/Result.html"
]

}

subgraph CollectionsPattern {
label = "CollectionsPattern"    

  node [ color = "#0000ff" ]

DDI4_RelationStructure [
  label = "{<id>DDI_RelationStructure}"

  tooltip = "CollectionsPattern:RelationStructure"

href = "../CollectionsPattern/RelationStructure.html"
]

DDI4_StructuredCollection [
  label = "{<id>DDI_StructuredCollection}"

  tooltip = "CollectionsPattern:StructuredCollection"

href = "../CollectionsPattern/StructuredCollection.html"
]

}

subgraph Identification {
label = "Identification"    

  node [ color = "#0000ff" ]

DDI4_AnnotatedIdentifiable [
  label = "{<id>DDI_AnnotatedIdentifiable}"

  tooltip = "Identification:AnnotatedIdentifiable"

href = "../Identification/AnnotatedIdentifiable.html"
]

DDI4_Identifiable [
  label = "{<id>DDI_Identifiable}"

  tooltip = "Identification:Identifiable"

href = "../Identification/Identifiable.html"
]

}

subgraph Agents {
label = "Agents"    

  node [ color = "#0000ff" ]

DDI4_Agent [
  label = "{<id>DDI_Agent}"

  tooltip = "Agents:Agent"

href = "../Agents/Agent.html"
]

}

subgraph Representations {
label = "Representations"    

  node [ color = "#0000ff" ]

DDI4_Designation [
  label = "{<id>DDI_Designation}"

  tooltip = "Representations:Designation"

href = "../Representations/Designation.html"
]

DDI4_EnumerationDomain [
  label = "{<id>DDI_EnumerationDomain}"

  tooltip = "Representations:EnumerationDomain"

href = "../Representations/EnumerationDomain.html"
]

DDI4_ValueDomain [
  label = "{<id>DDI_ValueDomain}"

  tooltip = "Representations:ValueDomain"

href = "../Representations/ValueDomain.html"
]

}

DDI4_Access -> DDI4_AnnotatedIdentifiable [arrowhead=onormal color="#000000"];

DDI4_AppliedUse -> DDI4_AnnotatedIdentifiable [arrowhead=onormal color="#000000"];

  DDI4_AppliedUse:AppliedUse_hasGuide_association -> DDI4_Guide [ arrowhead=none arrowtail=odiamond labeldistance=1.9 taillabel="0..n" headlabel="0..n" edgetooltip="hasGuide" fontcolor="black" color="#00000"];

  DDI4_AppliedUse:AppliedUse_appliesToUnitType_association -> DDI4_UnitType [ arrowhead=none arrowtail=odiamond labeldistance=1.9 taillabel="0..n" headlabel="0..n" edgetooltip="appliesToUnitType" fontcolor="black" color="#00000"];

  DDI4_AppliedUse:AppliedUse_isUsedBy_association -> DDI4_AnnotatedIdentifiable [ arrowhead=none arrowtail=odiamond labeldistance=1.9 taillabel="0..n" headlabel="0..n" edgetooltip="isUsedBy" fontcolor="black" color="#00000"];

DDI4_BoundingBox -> DDI4_AnnotatedIdentifiable [arrowhead=onormal color="#000000"];

DDI4_Category -> DDI4_Concept [arrowhead=onormal color="#000000"];

DDI4_CategoryRelationStructure -> DDI4_Identifiable [arrowhead=onormal color="#000000"];

  DDI4_CategoryRelationStructure:CategoryRelationStructure_realizes_association -> DDI4_RelationStructure [ arrowhead=none arrowtail=none  edgetooltip="realizes" fontcolor="black" color="#00000"];

DDI4_CategorySet -> DDI4_ConceptSystem [arrowhead=onormal color="#000000"];

  DDI4_CategorySet:CategorySet_isStructuredBy_association -> DDI4_CategoryRelationStructure [ arrowhead=none arrowtail=odiamond labeldistance=1.9 taillabel="0..n" headlabel="0..n" edgetooltip="isStructuredBy" fontcolor="black" color="#00000"];

DDI4_Code -> DDI4_Designation [arrowhead=onormal color="#000000"];

  DDI4_Code:Code_denotes_association -> DDI4_Category [ arrowhead=none arrowtail=odiamond labeldistance=1.9 taillabel="0..n" headlabel="0..1" edgetooltip="denotes" fontcolor="black" color="#00000"];

DDI4_CodeList -> DDI4_EnumerationDomain [arrowhead=onormal color="#000000"];

  DDI4_CodeList:CodeList_realizes_association -> DDI4_StructuredCollection [ arrowhead=none arrowtail=none  edgetooltip="realizes" fontcolor="black" color="#00000"];

  DDI4_CodeList:CodeList_isStructuredBy_association -> DDI4_CodeRelationStructure [ arrowhead=none arrowtail=odiamond labeldistance=1.9 taillabel="0..n" headlabel="0..1" edgetooltip="isStructuredBy" fontcolor="black" color="#00000"];

DDI4_CodeRelationStructure -> DDI4_Identifiable [arrowhead=onormal color="#000000"];

  DDI4_CodeRelationStructure:CodeRelationStructure_realizes_association -> DDI4_RelationStructure [ arrowhead=none arrowtail=none  edgetooltip="realizes" fontcolor="black" color="#00000"];

DDI4_ComputationAction -> DDI4_Act [arrowhead=onormal color="#000000"];

DDI4_Concept -> DDI4_AnnotatedIdentifiable [arrowhead=onormal color="#000000"];

  DDI4_Concept:Concept_realizes_association -> DDI4_Signified [ arrowhead=none arrowtail=none  edgetooltip="realizes" fontcolor="black" color="#00000"];

DDI4_ConceptRelationStructure -> DDI4_Identifiable [arrowhead=onormal color="#000000"];

  DDI4_ConceptRelationStructure:ConceptRelationStructure_realizes_association -> DDI4_RelationStructure [ arrowhead=none arrowtail=none  edgetooltip="realizes" fontcolor="black" color="#00000"];

DDI4_ConceptSystem -> DDI4_AnnotatedIdentifiable [arrowhead=onormal color="#000000"];

  DDI4_ConceptSystem:ConceptSystem_isStructuredBy_association -> DDI4_ConceptRelationStructure [ arrowhead=none arrowtail=odiamond labeldistance=1.9 taillabel="0..n" headlabel="0..n" edgetooltip="isStructuredBy" fontcolor="black" color="#00000"];

  DDI4_ConceptSystem:ConceptSystem_realizes_association -> DDI4_StructuredCollection [ arrowhead=none arrowtail=none  edgetooltip="realizes" fontcolor="black" color="#00000"];

  DDI4_ConceptSystem:ConceptSystem_definingConcept_association -> DDI4_Concept [ arrowhead=none arrowtail=odiamond labeldistance=1.9 taillabel="0..n" headlabel="0..n" edgetooltip="definingConcept" fontcolor="black" color="#00000"];

DDI4_ExternalMaterial -> DDI4_Identifiable [arrowhead=onormal color="#000000"];

DDI4_GeographicExtent -> DDI4_AnnotatedIdentifiable [arrowhead=onormal color="#000000"];

  DDI4_GeographicExtent:GeographicExtent_hasBoundingBox_association -> DDI4_BoundingBox [ arrowhead=none arrowtail=odiamond labeldistance=1.9 taillabel="0..n" headlabel="0..1" edgetooltip="hasBoundingBox" fontcolor="black" color="#00000"];

DDI4_GeographicUnit -> DDI4_Unit [arrowhead=onormal color="#000000"];

  DDI4_GeographicUnit:GeographicUnit_hasGeographicExtent_association -> DDI4_GeographicExtent [ arrowhead=none arrowtail=odiamond labeldistance=1.9 taillabel="0..n" headlabel="0..n" edgetooltip="hasGeographicExtent" fontcolor="black" color="#00000"];

DDI4_Goal -> DDI4_BusinessFunction [arrowhead=onormal color="#000000"];

  DDI4_Goal:Goal_isDiscussedIn_association -> DDI4_ExternalMaterial [ arrowhead=none arrowtail=odiamond labeldistance=1.9 taillabel="0..n" headlabel="0..n" edgetooltip="isDiscussedIn" fontcolor="black" color="#00000"];

DDI4_Guide -> DDI4_AnnotatedIdentifiable [arrowhead=onormal color="#000000"];

  DDI4_Guide:Guide_isDiscussedIn_association -> DDI4_ExternalMaterial [ arrowhead=none arrowtail=odiamond labeldistance=1.9 taillabel="0..n" headlabel="0..n" edgetooltip="isDiscussedIn" fontcolor="black" color="#00000"];

DDI4_IfThenElse -> DDI4_ConditionalControlStep [arrowhead=onormal color="#000000"];

  DDI4_IfThenElse:IfThenElse_elseExecutes_association -> DDI4_WorkflowStepSequence [ arrowhead=none arrowtail=odiamond labeldistance=1.9 taillabel="0..n" headlabel="0..1" edgetooltip="elseExecutes" fontcolor="black" color="#00000"];

DDI4_Individual -> DDI4_Agent [arrowhead=onormal color="#000000"];

DDI4_LevelStructure -> DDI4_AnnotatedIdentifiable [arrowhead=onormal color="#000000"];

DDI4_Loop -> DDI4_ConditionalControlStep [arrowhead=onormal color="#000000"];

DDI4_Machine -> DDI4_Agent [arrowhead=onormal color="#000000"];

DDI4_Organization -> DDI4_Agent [arrowhead=onormal color="#000000"];

DDI4_Parameter -> DDI4_ [arrowhead=onormal color="#000000"];

  DDI4_Parameter:Parameter_valueRepresentation_association -> DDI4_ValueDomain [ arrowhead=none arrowtail=odiamond labeldistance=1.9 taillabel="0..n" headlabel="0..1" edgetooltip="valueRepresentation" fontcolor="black" color="#00000"];

DDI4_Population -> DDI4_Universe [arrowhead=onormal color="#000000"];

  DDI4_Population:Population_composedOf_association -> DDI4_Unit [ arrowhead=none arrowtail=odiamond labeldistance=1.9 taillabel="0..n" headlabel="0..n" edgetooltip="composedOf" fontcolor="black" color="#00000"];

  DDI4_Population:Population_narrowsUniverse_association -> DDI4_Universe [ arrowhead=none arrowtail=odiamond labeldistance=1.9 taillabel="0..n" headlabel="0..1" edgetooltip="narrowsUniverse" fontcolor="black" color="#00000"];

  DDI4_Population:Population_geographyOfPopulation_association -> DDI4_GeographicUnit [ arrowhead=none arrowtail=odiamond labeldistance=1.9 taillabel="0..n" headlabel="0..n" edgetooltip="geographyOfPopulation" fontcolor="black" color="#00000"];

DDI4_Precondition -> DDI4_BusinessFunction [arrowhead=onormal color="#000000"];

  DDI4_Precondition:Precondition_isDiscussedIn_association -> DDI4_ExternalMaterial [ arrowhead=none arrowtail=odiamond labeldistance=1.9 taillabel="0..n" headlabel="0..n" edgetooltip="isDiscussedIn" fontcolor="black" color="#00000"];

  DDI4_Precondition:Precondition_basedOnPriorResult_association -> DDI4_Result [ arrowhead=none arrowtail=odiamond labeldistance=1.9 taillabel="0..n" headlabel="0..n" edgetooltip="basedOnPriorResult" fontcolor="black" color="#00000"];

DDI4_RepeatUntil -> DDI4_ConditionalControlStep [arrowhead=onormal color="#000000"];

DDI4_RepeatWhile -> DDI4_ConditionalControlStep [arrowhead=onormal color="#000000"];

DDI4_SampleFrame -> DDI4_AnnotatedIdentifiable [arrowhead=onormal color="#000000"];

  DDI4_SampleFrame:SampleFrame_hasCustodian_association -> DDI4_Agent [ arrowhead=none arrowtail=odiamond labeldistance=1.9 taillabel="0..n" headlabel="0..1" edgetooltip="hasCustodian" fontcolor="black" color="#00000"];

  DDI4_SampleFrame:SampleFrame_hasAccess_association -> DDI4_Access [ arrowhead=none arrowtail=odiamond labeldistance=1.9 taillabel="0..n" headlabel="0..1" edgetooltip="hasAccess" fontcolor="black" color="#00000"];

  DDI4_SampleFrame:SampleFrame_hasPopulation_association -> DDI4_Population [ arrowhead=none arrowtail=odiamond labeldistance=1.9 taillabel="0..n" headlabel="0..1" edgetooltip="hasPopulation" fontcolor="black" color="#00000"];

  DDI4_SampleFrame:SampleFrame_hasPrimaryUnitType_association -> DDI4_UnitType [ arrowhead=none arrowtail=odiamond labeldistance=1.9 taillabel="0..n" headlabel="0..1" edgetooltip="hasPrimaryUnitType" fontcolor="black" color="#00000"];

  DDI4_SampleFrame:SampleFrame_hasSecondaryUnitType_association -> DDI4_UnitType [ arrowhead=none arrowtail=odiamond labeldistance=1.9 taillabel="0..n" headlabel="0..n" edgetooltip="hasSecondaryUnitType" fontcolor="black" color="#00000"];

  DDI4_SampleFrame:SampleFrame_sourceFrame_association -> DDI4_SampleFrame [ arrowhead=none arrowtail=odiamond labeldistance=1.9 taillabel="0..n" headlabel="0..n" edgetooltip="sourceFrame" fontcolor="black" color="#00000"];

  DDI4_SampleFrame:SampleFrame_hasInputParameter_association -> DDI4_Parameter [ arrowhead=none arrowtail=odiamond labeldistance=1.9 taillabel="0..1" headlabel="0..n" edgetooltip="hasInputParameter" fontcolor="black" color="#00000"];

  DDI4_SampleFrame:SampleFrame_hasOutputParameter_association -> DDI4_Parameter [ arrowhead=none arrowtail=odiamond labeldistance=1.9 taillabel="0..1" headlabel="0..n" edgetooltip="hasOutputParameter" fontcolor="black" color="#00000"];

DDI4_SamplePopulationResult -> DDI4_Result [arrowhead=onormal color="#000000"];

  DDI4_SamplePopulationResult:SamplePopulationResult_sampleUnitType_association -> DDI4_UnitType [ arrowhead=none arrowtail=odiamond labeldistance=1.9 taillabel="0..n" headlabel="0..1" edgetooltip="sampleUnitType" fontcolor="black" color="#00000"];

  DDI4_SamplePopulationResult:SamplePopulationResult_populationSampled_association -> DDI4_Population [ arrowhead=none arrowtail=odiamond labeldistance=1.9 taillabel="0..n" headlabel="0..1" edgetooltip="populationSampled" fontcolor="black" color="#00000"];

DDI4_SamplingAlgorithm -> DDI4_AlgorithmOverview [arrowhead=onormal color="#000000"];

DDI4_SamplingDesign -> DDI4_DesignOverview [arrowhead=onormal color="#000000"];

  DDI4_SamplingDesign:SamplingDesign_expressesAlgorithm_association -> DDI4_SamplingAlgorithm [ arrowhead=none arrowtail=odiamond labeldistance=1.9 taillabel="0..n" headlabel="0..n" edgetooltip="expressesAlgorithm" fontcolor="black" color="#00000"];

  DDI4_SamplingDesign:SamplingDesign_specifiesGoal_association -> DDI4_SamplingGoal [ arrowhead=none arrowtail=odiamond labeldistance=1.9 taillabel="0..n" headlabel="0..n" edgetooltip="specifiesGoal" fontcolor="black" color="#00000"];

  DDI4_SamplingDesign:SamplingDesign_implementedBy_association -> DDI4_SamplingProcess [ arrowhead=none arrowtail=odiamond labeldistance=1.9 taillabel="0..n" headlabel="0..n" edgetooltip="implementedBy" fontcolor="black" color="#00000"];

DDI4_SamplingGoal -> DDI4_Goal [arrowhead=onormal color="#000000"];

DDI4_SamplingProcedure -> DDI4_MethodologyOverview [arrowhead=onormal color="#000000"];

  DDI4_SamplingProcedure:SamplingProcedure_hasDesign_association -> DDI4_SamplingDesign [ arrowhead=none arrowtail=odiamond labeldistance=1.9 taillabel="0..n" headlabel="0..n" edgetooltip="hasDesign" fontcolor="black" color="#00000"];

  DDI4_SamplingProcedure:SamplingProcedure_hasProcess_association -> DDI4_SamplingProcess [ arrowhead=none arrowtail=odiamond labeldistance=1.9 taillabel="0..n" headlabel="0..n" edgetooltip="hasProcess" fontcolor="black" color="#00000"];

  DDI4_SamplingProcedure:SamplingProcedure_isExpressedBy_association -> DDI4_SamplingAlgorithm [ arrowhead=none arrowtail=odiamond labeldistance=1.9 taillabel="0..n" headlabel="0..n" edgetooltip="isExpressedBy" fontcolor="black" color="#00000"];

  DDI4_SamplingProcedure:SamplingProcedure_componentMethodology_association -> DDI4_SamplingProcedure [ arrowhead=none arrowtail=odiamond labeldistance=1.9 taillabel="0..n" headlabel="0..n" edgetooltip="componentMethodology" fontcolor="black" color="#00000"];

DDI4_SamplingProcess -> DDI4_AnnotatedIdentifiable [arrowhead=onormal color="#000000"];

  DDI4_SamplingProcess:SamplingProcess_isDiscussedIn_association -> DDI4_ExternalMaterial [ arrowhead=none arrowtail=odiamond labeldistance=1.9 taillabel="0..n" headlabel="0..n" edgetooltip="isDiscussedIn" fontcolor="black" color="#00000"];

  DDI4_SamplingProcess:SamplingProcess_isSpecifiedBy_association -> DDI4_WorkflowStepSequence [ arrowhead=none arrowtail=odiamond labeldistance=1.9 taillabel="0..n" headlabel="0..1" edgetooltip="isSpecifiedBy" fontcolor="black" color="#00000"];

  DDI4_SamplingProcess:SamplingProcess_hasResults_association -> DDI4_SamplePopulationResult [ arrowhead=none arrowtail=odiamond labeldistance=1.9 taillabel="0..n" headlabel="0..n" edgetooltip="hasResults" fontcolor="black" color="#00000"];

  DDI4_SamplingProcess:SamplingProcess_realizes_association -> DDI4_Process [ arrowhead=none arrowtail=none  edgetooltip="realizes" fontcolor="black" color="#00000"];

  DDI4_SamplingProcess:SamplingProcess_implementsAlgorithm_association -> DDI4_SamplingAlgorithm [ arrowhead=none arrowtail=odiamond labeldistance=1.9 taillabel="0..n" headlabel="0..n" edgetooltip="implementsAlgorithm" fontcolor="black" color="#00000"];

DDI4_Split -> DDI4_TemporalRelationControlStep [arrowhead=onormal color="#000000"];

DDI4_SplitJoin -> DDI4_TemporalRelationControlStep [arrowhead=onormal color="#000000"];

DDI4_SubstantiveConceptualDomain -> DDI4_ConceptualDomain [arrowhead=onormal color="#000000"];

DDI4_SubstantiveValueDomain -> DDI4_ValueDomain [arrowhead=onormal color="#000000"];

  DDI4_SubstantiveValueDomain:SubstantiveValueDomain_takesConceptsFrom_association -> DDI4_SubstantiveConceptualDomain [ arrowhead=none arrowtail=odiamond labeldistance=1.9 taillabel="0..n" headlabel="0..1" edgetooltip="takesConceptsFrom" fontcolor="black" color="#00000"];

  DDI4_SubstantiveValueDomain:SubstantiveValueDomain_describedValueDomain_association -> DDI4_ValueAndConceptDescription [ arrowhead=none arrowtail=odiamond labeldistance=1.9 taillabel="0..n" headlabel="0..1" edgetooltip="describedValueDomain" fontcolor="black" color="#00000"];

  DDI4_SubstantiveValueDomain:SubstantiveValueDomain_enumeratedValueDomain_association -> DDI4_EnumerationDomain [ arrowhead=none arrowtail=odiamond labeldistance=1.9 taillabel="0..n" headlabel="0..1" edgetooltip="enumeratedValueDomain" fontcolor="black" color="#00000"];

DDI4_Unit -> DDI4_AnnotatedIdentifiable [arrowhead=onormal color="#000000"];

  DDI4_Unit:Unit_hasUnitType_association -> DDI4_UnitType [ arrowhead=none arrowtail=odiamond labeldistance=1.9 taillabel="0..n" headlabel="0..n" edgetooltip="hasUnitType" fontcolor="black" color="#00000"];

DDI4_UnitType -> DDI4_Concept [arrowhead=onormal color="#000000"];

  DDI4_UnitType:UnitType_usesConcept_association -> DDI4_Concept [ arrowhead=none arrowtail=odiamond labeldistance=1.9 taillabel="0..n" headlabel="0..1" edgetooltip="usesConcept" fontcolor="black" color="#00000"];

DDI4_Universe -> DDI4_Concept [arrowhead=onormal color="#000000"];

  DDI4_Universe:Universe_narrowsUnitType_association -> DDI4_UnitType [ arrowhead=none arrowtail=odiamond labeldistance=1.9 taillabel="0..n" headlabel="0..1" edgetooltip="narrowsUnitType" fontcolor="black" color="#00000"];

  DDI4_Universe:Universe_usesConcept_association -> DDI4_Concept [ arrowhead=none arrowtail=odiamond labeldistance=1.9 taillabel="0..n" headlabel="0..n" edgetooltip="usesConcept" fontcolor="black" color="#00000"];

DDI4_ValueAndConceptDescription -> DDI4_Identifiable [arrowhead=onormal color="#000000"];

DDI4_WorkflowService -> DDI4_AnnotatedIdentifiable [arrowhead=onormal color="#000000"];

  DDI4_WorkflowService:WorkflowService_hasAgent_association -> DDI4_Agent [ arrowhead=none arrowtail=odiamond labeldistance=1.9 taillabel="0..n" headlabel="0..n" edgetooltip="hasAgent" fontcolor="black" color="#00000"];

  DDI4_WorkflowService:WorkflowService_realizes_association -> DDI4_Service [ arrowhead=none arrowtail=none  edgetooltip="realizes" fontcolor="black" color="#00000"];

DDI4_WorkflowStepSequence -> DDI4_WorkflowControlStep [arrowhead=onormal color="#000000"];

}