digraph G {
fontname = "Bitstream Vera Sans"
fontsize = 8

overlap=false;

compound=true;    

node [
  fontname = "Bitstream Vera Sans"
  fontsize = 8
  shape = "record"
]

edge [
  fontname = "Bitstream Vera Sans"
  fontsize = 8
  mode="ipsep"            
]


DDI4_ConceptualDomain [
  label = "{<id>ConceptualDomain | + displayLabel : LabelForDisplay \l \l \l| <ConceptualDomain_describedConceptualDomain_association> describedConceptualDomain \l| <ConceptualDomain_enumeratedConceptualDomain_association> enumeratedConceptualDomain \l \l}"

  tooltip = "Conceptual:ConceptualDomain"

href = "ConceptualDomain.html"
]

subgraph Conceptual {
label = "Conceptual"    

  node [ color = "#0000ff" ]

DDI4_ConceptSystem [
  label = "{<id>DDI_ConceptSystem}"

  tooltip = "Conceptual:ConceptSystem"

href = "../Conceptual/ConceptSystem.html"
]

}

subgraph Identification {
label = "Identification"    

  node [ color = "#0000ff" ]

DDI4_AnnotatedIdentifiable [
  label = "{<id>DDI_AnnotatedIdentifiable}"

  tooltip = "Identification:AnnotatedIdentifiable"

href = "../Identification/AnnotatedIdentifiable.html"
]

}

subgraph Representations {
label = "Representations"    

  node [ color = "#0000ff" ]

DDI4_ValueAndConceptDescription [
  label = "{<id>DDI_ValueAndConceptDescription}"

  tooltip = "Representations:ValueAndConceptDescription"

href = "../Representations/ValueAndConceptDescription.html"
]

}

DDI4_ConceptualDomain -> DDI4_AnnotatedIdentifiable [arrowhead=onormal color="#000000"];

  DDI4_ConceptualDomain:ConceptualDomain_describedConceptualDomain_association -> DDI4_ValueAndConceptDescription [ arrowhead=none arrowtail=odiamond labeldistance=1.9 taillabel="0..n" headlabel="0..1" edgetooltip="describedConceptualDomain" fontcolor="black" color="#00000"];

  DDI4_ConceptualDomain:ConceptualDomain_enumeratedConceptualDomain_association -> DDI4_ConceptSystem [ arrowhead=none arrowtail=odiamond labeldistance=1.9 taillabel="0..n" headlabel="0..1" edgetooltip="enumeratedConceptualDomain" fontcolor="black" color="#00000"];

}