digraph G {
fontname = "Bitstream Vera Sans"
fontsize = 8

overlap=false;

compound=true;    

node [
  fontname = "Bitstream Vera Sans"
  fontsize = 8
  shape = "record"
]

edge [
  fontname = "Bitstream Vera Sans"
  fontsize = 8
  mode="ipsep"            
]


DDI4_VariableCollection [
  label = "{<id>VariableCollection | + type : CollectionType \l + name : ObjectName \l + purpose : InternationalStructuredString \l + displayLabel : LabelForDisplay \l + usage : InternationalStructuredString \l + groupingSemantic : ExternalControlledVocabularyEntry \l + contains : VariableIndicator \l + isOrdered :  \l \l \l| <VariableCollection_isStructuredBy_association> isStructuredBy \l| <VariableCollection_realizes_association> realizes \l| <VariableCollection_definingConcept_association> definingConcept \l \l}"

  tooltip = "Conceptual:VariableCollection"

href = "VariableCollection.html"
]

subgraph Conceptual {
label = "Conceptual"    

  node [ color = "#0000ff" ]

DDI4_Concept [
  label = "{<id>DDI_Concept}"

  tooltip = "Conceptual:Concept"

href = "../Conceptual/Concept.html"
]

DDI4_VariableRelationStructure [
  label = "{<id>DDI_VariableRelationStructure}"

  tooltip = "Conceptual:VariableRelationStructure"

href = "../Conceptual/VariableRelationStructure.html"
]

}

subgraph CollectionsPattern {
label = "CollectionsPattern"    

  node [ color = "#0000ff" ]

DDI4_StructuredCollection [
  label = "{<id>DDI_StructuredCollection}"

  tooltip = "CollectionsPattern:StructuredCollection"

href = "../CollectionsPattern/StructuredCollection.html"
]

}

subgraph Identification {
label = "Identification"    

  node [ color = "#0000ff" ]

DDI4_AnnotatedIdentifiable [
  label = "{<id>DDI_AnnotatedIdentifiable}"

  tooltip = "Identification:AnnotatedIdentifiable"

href = "../Identification/AnnotatedIdentifiable.html"
]

}

DDI4_VariableCollection -> DDI4_AnnotatedIdentifiable [arrowhead=onormal color="#000000"];

  DDI4_VariableCollection:VariableCollection_isStructuredBy_association -> DDI4_VariableRelationStructure [ arrowhead=none arrowtail=odiamond labeldistance=1.9 taillabel="0..n" headlabel="0..n" edgetooltip="isStructuredBy" fontcolor="black" color="#00000"];

  DDI4_VariableCollection:VariableCollection_realizes_association -> DDI4_StructuredCollection [ arrowhead=none arrowtail=none  edgetooltip="realizes" fontcolor="black" color="#00000"];

  DDI4_VariableCollection:VariableCollection_definingConcept_association -> DDI4_Concept [ arrowhead=none arrowtail=odiamond labeldistance=1.9 taillabel="0..n" headlabel="0..n" edgetooltip="definingConcept" fontcolor="black" color="#00000"];

}