digraph G {
fontname = "Bitstream Vera Sans"
fontsize = 8

overlap=false;

compound=true;    

node [
  fontname = "Bitstream Vera Sans"
  fontsize = 8
  shape = "record"
]

edge [
  fontname = "Bitstream Vera Sans"
  fontsize = 8
  mode="ipsep"            
]


DDI4_SamplingDesign [
  label = "{<id>SamplingDesign | \l \l| <SamplingDesign_expressesAlgorithm_association> expressesAlgorithm \l| <SamplingDesign_specifiesGoal_association> specifiesGoal \l| <SamplingDesign_implementedBy_association> implementedBy \l \l}"

  tooltip = "SamplingMethodology:SamplingDesign"

href = "SamplingDesign.html"
]

subgraph SimpleMethodologyOverview {
label = "SimpleMethodologyOverview"    

  node [ color = "#0000ff" ]

DDI4_DesignOverview [
  label = "{<id>DDI_DesignOverview}"

  tooltip = "SimpleMethodologyOverview:DesignOverview"

href = "../SimpleMethodologyOverview/DesignOverview.html"
]

}

subgraph SamplingMethodology {
label = "SamplingMethodology"    

  node [ color = "#0000ff" ]

DDI4_SamplingAlgorithm [
  label = "{<id>DDI_SamplingAlgorithm}"

  tooltip = "SamplingMethodology:SamplingAlgorithm"

href = "../SamplingMethodology/SamplingAlgorithm.html"
]

DDI4_SamplingGoal [
  label = "{<id>DDI_SamplingGoal}"

  tooltip = "SamplingMethodology:SamplingGoal"

href = "../SamplingMethodology/SamplingGoal.html"
]

DDI4_SamplingProcess [
  label = "{<id>DDI_SamplingProcess}"

  tooltip = "SamplingMethodology:SamplingProcess"

href = "../SamplingMethodology/SamplingProcess.html"
]

}

DDI4_SamplingDesign -> DDI4_DesignOverview [arrowhead=onormal color="#000000"];

  DDI4_SamplingDesign:SamplingDesign_expressesAlgorithm_association -> DDI4_SamplingAlgorithm [ arrowhead=none arrowtail=odiamond labeldistance=1.9 taillabel="0..n" headlabel="0..n" edgetooltip="expressesAlgorithm" fontcolor="black" color="#00000"];

  DDI4_SamplingDesign:SamplingDesign_specifiesGoal_association -> DDI4_SamplingGoal [ arrowhead=none arrowtail=odiamond labeldistance=1.9 taillabel="0..n" headlabel="0..n" edgetooltip="specifiesGoal" fontcolor="black" color="#00000"];

  DDI4_SamplingDesign:SamplingDesign_implementedBy_association -> DDI4_SamplingProcess [ arrowhead=none arrowtail=odiamond labeldistance=1.9 taillabel="0..n" headlabel="0..n" edgetooltip="implementedBy" fontcolor="black" color="#00000"];

}