digraph G {
fontname = "Bitstream Vera Sans"
fontsize = 8

overlap=false;

compound=true;    

node [
  fontname = "Bitstream Vera Sans"
  fontsize = 8
  shape = "record"
]

edge [
  fontname = "Bitstream Vera Sans"
  fontsize = 8
  mode="ipsep"            
]


DDI4_GeographicUnitClassification [
  label = "{<id>GeographicUnitClassification | + contains : GeographicUnitIndicator \l + releaseDate : Date \l + validDates : DateRange \l + isCurrent :  \l + isFloating :  \l + displayLabel : LabelForDisplay \l + usage : InternationalStructuredString \l \l \l| <GeographicUnitClassification_references_association> references \l| <GeographicUnitClassification_isStructuredBy_association> isStructuredBy \l| <GeographicUnitClassification_isMaintainedBy_association> isMaintainedBy \l| <GeographicUnitClassification_variantOf_association> variantOf \l| <GeographicUnitClassification_replaces_association> replaces \l| <GeographicUnitClassification_isReplacedBy_association> isReplacedBy \l| <GeographicUnitClassification_realizes_association> realizes \l \l}"

  tooltip = "GeographicClassification:GeographicUnitClassification"

href = "GeographicUnitClassification.html"
]

subgraph Conceptual {
label = "Conceptual"    

  node [ color = "#0000ff" ]

DDI4_ConceptSystem [
  label = "{<id>DDI_ConceptSystem}"

  tooltip = "Conceptual:ConceptSystem"

href = "../Conceptual/ConceptSystem.html"
]

}

subgraph GeographicClassification {
label = "GeographicClassification"    

  node [ color = "#0000ff" ]

DDI4_GeographicUnitRelationStructure [
  label = "{<id>DDI_GeographicUnitRelationStructure}"

  tooltip = "GeographicClassification:GeographicUnitRelationStructure"

href = "../GeographicClassification/GeographicUnitRelationStructure.html"
]

}

subgraph CollectionsPattern {
label = "CollectionsPattern"    

  node [ color = "#0000ff" ]

DDI4_StructuredCollection [
  label = "{<id>DDI_StructuredCollection}"

  tooltip = "CollectionsPattern:StructuredCollection"

href = "../CollectionsPattern/StructuredCollection.html"
]

}

subgraph Agents {
label = "Agents"    

  node [ color = "#0000ff" ]

DDI4_Organization [
  label = "{<id>DDI_Organization}"

  tooltip = "Agents:Organization"

href = "../Agents/Organization.html"
]

}

subgraph Representations {
label = "Representations"    

  node [ color = "#0000ff" ]

DDI4_EnumerationDomain [
  label = "{<id>DDI_EnumerationDomain}"

  tooltip = "Representations:EnumerationDomain"

href = "../Representations/EnumerationDomain.html"
]

}

DDI4_GeographicUnitClassification -> DDI4_EnumerationDomain [arrowhead=onormal color="#000000"];

  DDI4_GeographicUnitClassification:GeographicUnitClassification_references_association -> DDI4_ConceptSystem [ arrowhead=none arrowtail=odiamond labeldistance=1.9 taillabel="0..n" headlabel="0..n" edgetooltip="references" fontcolor="black" color="#00000"];

  DDI4_GeographicUnitClassification:GeographicUnitClassification_isStructuredBy_association -> DDI4_GeographicUnitRelationStructure [ arrowhead=none arrowtail=odiamond labeldistance=1.9 taillabel="0..n" headlabel="0..1" edgetooltip="isStructuredBy" fontcolor="black" color="#00000"];

  DDI4_GeographicUnitClassification:GeographicUnitClassification_isMaintainedBy_association -> DDI4_Organization [ arrowhead=none arrowtail=odiamond labeldistance=1.9 taillabel="0..n" headlabel="0..n" edgetooltip="isMaintainedBy" fontcolor="black" color="#00000"];

  DDI4_GeographicUnitClassification:GeographicUnitClassification_variantOf_association -> DDI4_GeographicUnitClassification [ arrowhead=none arrowtail=odiamond labeldistance=1.9 taillabel="0..n" headlabel="0..1" edgetooltip="variantOf" fontcolor="black" color="#00000"];

  DDI4_GeographicUnitClassification:GeographicUnitClassification_replaces_association -> DDI4_GeographicUnitClassification [ arrowhead=none arrowtail=odiamond labeldistance=1.9 taillabel="0..n" headlabel="0..n" edgetooltip="replaces" fontcolor="black" color="#00000"];

  DDI4_GeographicUnitClassification:GeographicUnitClassification_isReplacedBy_association -> DDI4_GeographicUnitClassification [ arrowhead=none arrowtail=odiamond labeldistance=1.9 taillabel="0..n" headlabel="0..n" edgetooltip="isReplacedBy" fontcolor="black" color="#00000"];

  DDI4_GeographicUnitClassification:GeographicUnitClassification_realizes_association -> DDI4_StructuredCollection [ arrowhead=none arrowtail=none  edgetooltip="realizes" fontcolor="black" color="#00000"];

}