digraph G {
fontname = "Bitstream Vera Sans"
fontsize = 8

overlap=false;

compound=true;    

node [
  fontname = "Bitstream Vera Sans"
  fontsize = 8
  shape = "record"
]

edge [
  fontname = "Bitstream Vera Sans"
  fontsize = 8
  mode="ipsep"            
]


DDI4_MemberRelation [
  label = "{<id>MemberRelation | + hasRelationSpecification : RelationSpecification \l + semantic : ExternalControlledVocabularyEntry \l + totality : TotalityType \l \l \l| <MemberRelation_source_association> source \l| <MemberRelation_target_association> target \l \l}"

  tooltip = "CollectionsPattern:MemberRelation"

href = "MemberRelation.html"
]

subgraph CollectionsPattern {
label = "CollectionsPattern"    

  node [ color = "#0000ff" ]

DDI4_CollectionMember [
  label = "{<id>DDI_CollectionMember}"

  tooltip = "CollectionsPattern:CollectionMember"

href = "../CollectionsPattern/CollectionMember.html"
]

}

DDI4_MemberRelation -> DDI4_ [arrowhead=onormal color="#000000"];

  DDI4_MemberRelation:MemberRelation_source_association -> DDI4_CollectionMember [ arrowhead=none arrowtail=odiamond labeldistance=1.9 taillabel="0..n" headlabel="0..1" edgetooltip="source" fontcolor="black" color="#00000"];

  DDI4_MemberRelation:MemberRelation_target_association -> DDI4_CollectionMember [ arrowhead=none arrowtail=odiamond labeldistance=1.9 taillabel="0..n" headlabel="0..n" edgetooltip="target" fontcolor="black" color="#00000"];

}