digraph G {
fontname = "Bitstream Vera Sans"
fontsize = 8

overlap=false;

compound=true;    

node [
  fontname = "Bitstream Vera Sans"
  fontsize = 8
  shape = "record"
]

edge [
  fontname = "Bitstream Vera Sans"
  fontsize = 8
  mode="ipsep"            
]


DDI4_AgentId [
  label = "{<id>AgentId | + agentIdValue :  \l + agentIdType :  \l \l \l| \l \l}"

  tooltip = "StructuredDataTypes:AgentId"

href = "AgentId.html"
]

DDI4_AgentId -> DDI4_ [arrowhead=onormal color="#000000"];

}