digraph G {
fontname = "Bitstream Vera Sans"
fontsize = 8

overlap=false;

compound=true;    

node [
  fontname = "Bitstream Vera Sans"
  fontsize = 8
  shape = "record"
]

edge [
  fontname = "Bitstream Vera Sans"
  fontsize = 8
  mode="ipsep"            
]


DDI4_BusinessProcessCondition [
  label = "{<id>BusinessProcessCondition | + sql :  \l + rejectionCriteria : CommandCode \l + dataDescription : InternationalStructuredString \l \l \l| <BusinessProcessCondition_usesLogicalRecord_association> usesLogicalRecord \l \l}"

  tooltip = "StructuredDataTypes:BusinessProcessCondition"

href = "BusinessProcessCondition.html"
]

subgraph LogicalDataDescription {
label = "LogicalDataDescription"    

  node [ color = "#0000ff" ]

DDI4_LogicalRecord [
  label = "{<id>DDI_LogicalRecord}"

  tooltip = "LogicalDataDescription:LogicalRecord"

href = "../LogicalDataDescription/LogicalRecord.html"
]

}

DDI4_BusinessProcessCondition -> DDI4_ [arrowhead=onormal color="#000000"];

  DDI4_BusinessProcessCondition:BusinessProcessCondition_usesLogicalRecord_association -> DDI4_LogicalRecord [ arrowhead=none arrowtail=odiamond labeldistance=1.9 taillabel="0..n" headlabel="0..1" edgetooltip="usesLogicalRecord" fontcolor="black" color="#00000"];

}