digraph G {
fontname = "Bitstream Vera Sans"
fontsize = 8

overlap=false;

compound=true;    

node [
  fontname = "Bitstream Vera Sans"
  fontsize = 8
  shape = "record"
]

edge [
  fontname = "Bitstream Vera Sans"
  fontsize = 8
  mode="ipsep"            
]


DDI4_CharacterOffset [
  label = "{<id>CharacterOffset | + startCharOffset :  \l + endCharOffset :  \l + characterLength :  \l \l \l| \l \l}"

  tooltip = "StructuredDataTypes:CharacterOffset"

href = "CharacterOffset.html"
]

DDI4_CharacterOffset -> DDI4_ [arrowhead=onormal color="#000000"];

}