digraph G {
fontname = "Bitstream Vera Sans"
fontsize = 8

overlap=false;

compound=true;    

node [
  fontname = "Bitstream Vera Sans"
  fontsize = 8
  shape = "record"
]

edge [
  fontname = "Bitstream Vera Sans"
  fontsize = 8
  mode="ipsep"            
]


DDI4_ClassificationIndexEntryIndicator [
  label = "{<id>ClassificationIndexEntryIndicator | + index :  \l \l \l| <ClassificationIndexEntryIndicator_member_association> member \l| <ClassificationIndexEntryIndicator_realizes_association> realizes \l \l}"

  tooltip = "StructuredDataTypes:ClassificationIndexEntryIndicator"

href = "ClassificationIndexEntryIndicator.html"
]

subgraph CollectionsPattern {
label = "CollectionsPattern"    

  node [ color = "#0000ff" ]

DDI4_MemberIndicator [
  label = "{<id>DDI_MemberIndicator}"

  tooltip = "CollectionsPattern:MemberIndicator"

href = "../CollectionsPattern/MemberIndicator.html"
]

}

subgraph Representations {
label = "Representations"    

  node [ color = "#0000ff" ]

DDI4_ClassificationIndexEntry [
  label = "{<id>DDI_ClassificationIndexEntry}"

  tooltip = "Representations:ClassificationIndexEntry"

href = "../Representations/ClassificationIndexEntry.html"
]

}

DDI4_ClassificationIndexEntryIndicator -> DDI4_ [arrowhead=onormal color="#000000"];

  DDI4_ClassificationIndexEntryIndicator:ClassificationIndexEntryIndicator_member_association -> DDI4_ClassificationIndexEntry [ arrowhead=none arrowtail=diamond labeldistance=1.9 taillabel="0..n" headlabel="1..1" edgetooltip="member" fontcolor="black" color="#00000"];

  DDI4_ClassificationIndexEntryIndicator:ClassificationIndexEntryIndicator_realizes_association -> DDI4_MemberIndicator [ arrowhead=none arrowtail=none  edgetooltip="realizes" fontcolor="black" color="#00000"];

}