digraph G {
fontname = "Bitstream Vera Sans"
fontsize = 8

overlap=false;

compound=true;    

node [
  fontname = "Bitstream Vera Sans"
  fontsize = 8
  shape = "record"
]

edge [
  fontname = "Bitstream Vera Sans"
  fontsize = 8
  mode="ipsep"            
]


DDI4_ClassificationSeriesIndicator [
  label = "{<id>ClassificationSeriesIndicator | + index :  \l \l \l| <ClassificationSeriesIndicator_member_association> member \l| <ClassificationSeriesIndicator_realizes_association> realizes \l \l}"

  tooltip = "StructuredDataTypes:ClassificationSeriesIndicator"

href = "ClassificationSeriesIndicator.html"
]

subgraph CollectionsPattern {
label = "CollectionsPattern"    

  node [ color = "#0000ff" ]

DDI4_MemberIndicator [
  label = "{<id>DDI_MemberIndicator}"

  tooltip = "CollectionsPattern:MemberIndicator"

href = "../CollectionsPattern/MemberIndicator.html"
]

}

subgraph Representations {
label = "Representations"    

  node [ color = "#0000ff" ]

DDI4_ClassificationSeries [
  label = "{<id>DDI_ClassificationSeries}"

  tooltip = "Representations:ClassificationSeries"

href = "../Representations/ClassificationSeries.html"
]

}

DDI4_ClassificationSeriesIndicator -> DDI4_ [arrowhead=onormal color="#000000"];

  DDI4_ClassificationSeriesIndicator:ClassificationSeriesIndicator_member_association -> DDI4_ClassificationSeries [ arrowhead=none arrowtail=diamond labeldistance=1.9 taillabel="0..n" headlabel="1..1" edgetooltip="member" fontcolor="black" color="#00000"];

  DDI4_ClassificationSeriesIndicator:ClassificationSeriesIndicator_realizes_association -> DDI4_MemberIndicator [ arrowhead=none arrowtail=none  edgetooltip="realizes" fontcolor="black" color="#00000"];

}