digraph G {
fontname = "Bitstream Vera Sans"
fontsize = 8

overlap=false;

compound=true;    

node [
  fontname = "Bitstream Vera Sans"
  fontsize = 8
  shape = "record"
]

edge [
  fontname = "Bitstream Vera Sans"
  fontsize = 8
  mode="ipsep"            
]


DDI4_ClassificationSeriesRelation [
  label = "{<id>ClassificationSeriesRelation | + hasRelationSpecification : RelationSpecification \l + semantic : ExternalControlledVocabularyEntry \l + totality : TotalityType \l \l \l| <ClassificationSeriesRelation_source_association> source \l| <ClassificationSeriesRelation_target_association> target \l| <ClassificationSeriesRelation_realizes_association> realizes \l \l}"

  tooltip = "StructuredDataTypes:ClassificationSeriesRelation"

href = "ClassificationSeriesRelation.html"
]

subgraph CollectionsPattern {
label = "CollectionsPattern"    

  node [ color = "#0000ff" ]

DDI4_MemberRelation [
  label = "{<id>DDI_MemberRelation}"

  tooltip = "CollectionsPattern:MemberRelation"

href = "../CollectionsPattern/MemberRelation.html"
]

}

subgraph Representations {
label = "Representations"    

  node [ color = "#0000ff" ]

DDI4_ClassificationSeries [
  label = "{<id>DDI_ClassificationSeries}"

  tooltip = "Representations:ClassificationSeries"

href = "../Representations/ClassificationSeries.html"
]

}

DDI4_ClassificationSeriesRelation -> DDI4_ [arrowhead=onormal color="#000000"];

  DDI4_ClassificationSeriesRelation:ClassificationSeriesRelation_source_association -> DDI4_ClassificationSeries [ arrowhead=none arrowtail=odiamond labeldistance=1.9 taillabel="0..n" headlabel="0..1" edgetooltip="source" fontcolor="black" color="#00000"];

  DDI4_ClassificationSeriesRelation:ClassificationSeriesRelation_target_association -> DDI4_ClassificationSeries [ arrowhead=none arrowtail=odiamond labeldistance=1.9 taillabel="0..n" headlabel="0..n" edgetooltip="target" fontcolor="black" color="#00000"];

  DDI4_ClassificationSeriesRelation:ClassificationSeriesRelation_realizes_association -> DDI4_MemberRelation [ arrowhead=none arrowtail=none  edgetooltip="realizes" fontcolor="black" color="#00000"];

}