digraph G {
fontname = "Bitstream Vera Sans"
fontsize = 8

overlap=false;

compound=true;    

node [
  fontname = "Bitstream Vera Sans"
  fontsize = 8
  shape = "record"
]

edge [
  fontname = "Bitstream Vera Sans"
  fontsize = 8
  mode="ipsep"            
]


DDI4_ConceptRelation [
  label = "{<id>ConceptRelation | + hasRelationSpecification : RelationSpecification \l + semantic : ExternalControlledVocabularyEntry \l + totality : TotalityType \l \l \l| <ConceptRelation_source_association> source \l| <ConceptRelation_target_association> target \l| <ConceptRelation_realizes_association> realizes \l \l}"

  tooltip = "StructuredDataTypes:ConceptRelation"

href = "ConceptRelation.html"
]

subgraph Conceptual {
label = "Conceptual"    

  node [ color = "#0000ff" ]

DDI4_Concept [
  label = "{<id>DDI_Concept}"

  tooltip = "Conceptual:Concept"

href = "../Conceptual/Concept.html"
]

}

subgraph CollectionsPattern {
label = "CollectionsPattern"    

  node [ color = "#0000ff" ]

DDI4_MemberRelation [
  label = "{<id>DDI_MemberRelation}"

  tooltip = "CollectionsPattern:MemberRelation"

href = "../CollectionsPattern/MemberRelation.html"
]

}

DDI4_ConceptRelation -> DDI4_ [arrowhead=onormal color="#000000"];

  DDI4_ConceptRelation:ConceptRelation_source_association -> DDI4_Concept [ arrowhead=none arrowtail=diamond labeldistance=1.9 taillabel="0..n" headlabel="1..1" edgetooltip="source" fontcolor="black" color="#00000"];

  DDI4_ConceptRelation:ConceptRelation_target_association -> DDI4_Concept [ arrowhead=none arrowtail=diamond labeldistance=1.9 taillabel="0..n" headlabel="1..1" edgetooltip="target" fontcolor="black" color="#00000"];

  DDI4_ConceptRelation:ConceptRelation_realizes_association -> DDI4_MemberRelation [ arrowhead=none arrowtail=none  edgetooltip="realizes" fontcolor="black" color="#00000"];

}