digraph G {
fontname = "Bitstream Vera Sans"
fontsize = 8

overlap=false;

compound=true;    

node [
  fontname = "Bitstream Vera Sans"
  fontsize = 8
  shape = "record"
]

edge [
  fontname = "Bitstream Vera Sans"
  fontsize = 8
  mode="ipsep"            
]


DDI4_CorrespondenceType [
  label = "{<id>CorrespondenceType | + commonality : InternationalStructuredString \l + difference : InternationalStructuredString \l + commonalityTypeCode : ExternalControlledVocabularyEntry \l + hasMappingRelation : MappingRelation \l \l \l| \l \l}"

  tooltip = "StructuredDataTypes:CorrespondenceType"

href = "CorrespondenceType.html"
]

DDI4_CorrespondenceType -> DDI4_ [arrowhead=onormal color="#000000"];

}