digraph G {
fontname = "Bitstream Vera Sans"
fontsize = 8

overlap=false;

compound=true;    

node [
  fontname = "Bitstream Vera Sans"
  fontsize = 8
  shape = "record"
]

edge [
  fontname = "Bitstream Vera Sans"
  fontsize = 8
  mode="ipsep"            
]


DDI4_Date [
  label = "{<id>Date | + isoDate : IsoDateType \l + nonIsoDate : NonIsoDateType \l \l \l| \l \l}"

  tooltip = "StructuredDataTypes:Date"

href = "Date.html"
]

DDI4_Date -> DDI4_ [arrowhead=onormal color="#000000"];

}