digraph G {
fontname = "Bitstream Vera Sans"
fontsize = 8

overlap=false;

compound=true;    

node [
  fontname = "Bitstream Vera Sans"
  fontsize = 8
  shape = "record"
]

edge [
  fontname = "Bitstream Vera Sans"
  fontsize = 8
  mode="ipsep"            
]


DDI4_DynamicTextContent [
  label = "{<id>DynamicTextContent | + purpose : InternationalStructuredString \l + orderPosition :  \l \l \l| \l \l}"

  tooltip = "StructuredDataTypes:DynamicTextContent"

href = "DynamicTextContent.html"
]

DDI4_DynamicTextContent -> DDI4_ [arrowhead=onormal color="#000000"];

}