digraph G {
fontname = "Bitstream Vera Sans"
fontsize = 8

overlap=false;

compound=true;    

node [
  fontname = "Bitstream Vera Sans"
  fontsize = 8
  shape = "record"
]

edge [
  fontname = "Bitstream Vera Sans"
  fontsize = 8
  mode="ipsep"            
]


DDI4_GeographicUnitTypeIndicator [
  label = "{<id>GeographicUnitTypeIndicator | + index :  \l + isInLevel :  \l \l \l| <GeographicUnitTypeIndicator_member_association> member \l| <GeographicUnitTypeIndicator_realizes_association> realizes \l \l}"

  tooltip = "StructuredDataTypes:GeographicUnitTypeIndicator"

href = "GeographicUnitTypeIndicator.html"
]

subgraph Conceptual {
label = "Conceptual"    

  node [ color = "#0000ff" ]

DDI4_UnitType [
  label = "{<id>DDI_UnitType}"

  tooltip = "Conceptual:UnitType"

href = "../Conceptual/UnitType.html"
]

}

subgraph CollectionsPattern {
label = "CollectionsPattern"    

  node [ color = "#0000ff" ]

DDI4_MemberIndicator [
  label = "{<id>DDI_MemberIndicator}"

  tooltip = "CollectionsPattern:MemberIndicator"

href = "../CollectionsPattern/MemberIndicator.html"
]

}

DDI4_GeographicUnitTypeIndicator -> DDI4_ [arrowhead=onormal color="#000000"];

  DDI4_GeographicUnitTypeIndicator:GeographicUnitTypeIndicator_member_association -> DDI4_UnitType [ arrowhead=none arrowtail=diamond labeldistance=1.9 taillabel="0..n" headlabel="1..1" edgetooltip="member" fontcolor="black" color="#00000"];

  DDI4_GeographicUnitTypeIndicator:GeographicUnitTypeIndicator_realizes_association -> DDI4_MemberIndicator [ arrowhead=none arrowtail=none  edgetooltip="realizes" fontcolor="black" color="#00000"];

}