digraph G {
fontname = "Bitstream Vera Sans"
fontsize = 8

overlap=false;

compound=true;    

node [
  fontname = "Bitstream Vera Sans"
  fontsize = 8
  shape = "record"
]

edge [
  fontname = "Bitstream Vera Sans"
  fontsize = 8
  mode="ipsep"            
]


DDI4_InternationalIdentifier [
  label = "{<id>InternationalIdentifier | + identifierContent :  \l + managingAgency : ExternalControlledVocabularyEntry \l + isURI :  \l \l \l| \l \l}"

  tooltip = "StructuredDataTypes:InternationalIdentifier"

href = "InternationalIdentifier.html"
]

DDI4_InternationalIdentifier -> DDI4_ [arrowhead=onormal color="#000000"];

}