digraph G {
fontname = "Bitstream Vera Sans"
fontsize = 8

overlap=false;

compound=true;    

node [
  fontname = "Bitstream Vera Sans"
  fontsize = 8
  shape = "record"
]

edge [
  fontname = "Bitstream Vera Sans"
  fontsize = 8
  mode="ipsep"            
]


DDI4_LanguageSpecificStringType [
  label = "{<id>LanguageSpecificStringType | + content :  \l + language :  \l + isTranslated :  \l + isTranslatable :  \l + translationSourceLanguage :  \l + translationDate :  \l + scope :  \l \l \l| \l \l}"

  tooltip = "StructuredDataTypes:LanguageSpecificStringType"

href = "LanguageSpecificStringType.html"
]

DDI4_LanguageSpecificStringType -> DDI4_ [arrowhead=onormal color="#000000"];

}