digraph G {
fontname = "Bitstream Vera Sans"
fontsize = 8

overlap=false;

compound=true;    

node [
  fontname = "Bitstream Vera Sans"
  fontsize = 8
  shape = "record"
]

edge [
  fontname = "Bitstream Vera Sans"
  fontsize = 8
  mode="ipsep"            
]


DDI4_Level [
  label = "{<id>Level | + levelNumber :  \l + displayLabel : LabelForDisplay \l \l \l| <Level_definedBy_association> definedBy \l \l}"

  tooltip = "StructuredDataTypes:Level"

href = "Level.html"
]

subgraph Conceptual {
label = "Conceptual"    

  node [ color = "#0000ff" ]

DDI4_Concept [
  label = "{<id>DDI_Concept}"

  tooltip = "Conceptual:Concept"

href = "../Conceptual/Concept.html"
]

}

DDI4_Level -> DDI4_ [arrowhead=onormal color="#000000"];

  DDI4_Level:Level_definedBy_association -> DDI4_Concept [ arrowhead=none arrowtail=odiamond labeldistance=1.9 taillabel="0..n" headlabel="0..1" edgetooltip="definedBy" fontcolor="black" color="#00000"];

}