digraph G {
fontname = "Bitstream Vera Sans"
fontsize = 8

overlap=false;

compound=true;    

node [
  fontname = "Bitstream Vera Sans"
  fontsize = 8
  shape = "record"
]

edge [
  fontname = "Bitstream Vera Sans"
  fontsize = 8
  mode="ipsep"            
]


DDI4_LogicalRecordRelation [
  label = "{<id>LogicalRecordRelation | + hasRelationSpecification : RelationSpecification \l + semantic : ExternalControlledVocabularyEntry \l + totality : TotalityType \l \l \l| <LogicalRecordRelation_source_association> source \l| <LogicalRecordRelation_target_association> target \l| <LogicalRecordRelation_realizes_association> realizes \l \l}"

  tooltip = "StructuredDataTypes:LogicalRecordRelation"

href = "LogicalRecordRelation.html"
]

subgraph CollectionsPattern {
label = "CollectionsPattern"    

  node [ color = "#0000ff" ]

DDI4_MemberRelation [
  label = "{<id>DDI_MemberRelation}"

  tooltip = "CollectionsPattern:MemberRelation"

href = "../CollectionsPattern/MemberRelation.html"
]

}

subgraph LogicalDataDescription {
label = "LogicalDataDescription"    

  node [ color = "#0000ff" ]

DDI4_LogicalRecord [
  label = "{<id>DDI_LogicalRecord}"

  tooltip = "LogicalDataDescription:LogicalRecord"

href = "../LogicalDataDescription/LogicalRecord.html"
]

}

DDI4_LogicalRecordRelation -> DDI4_ [arrowhead=onormal color="#000000"];

  DDI4_LogicalRecordRelation:LogicalRecordRelation_source_association -> DDI4_LogicalRecord [ arrowhead=none arrowtail=odiamond labeldistance=1.9 taillabel="0..n" headlabel="0..1" edgetooltip="source" fontcolor="black" color="#00000"];

  DDI4_LogicalRecordRelation:LogicalRecordRelation_target_association -> DDI4_LogicalRecord [ arrowhead=none arrowtail=odiamond labeldistance=1.9 taillabel="0..n" headlabel="0..n" edgetooltip="target" fontcolor="black" color="#00000"];

  DDI4_LogicalRecordRelation:LogicalRecordRelation_realizes_association -> DDI4_MemberRelation [ arrowhead=none arrowtail=none  edgetooltip="realizes" fontcolor="black" color="#00000"];

}