digraph G {
fontname = "Bitstream Vera Sans"
fontsize = 8

overlap=false;

compound=true;    

node [
  fontname = "Bitstream Vera Sans"
  fontsize = 8
  shape = "record"
]

edge [
  fontname = "Bitstream Vera Sans"
  fontsize = 8
  mode="ipsep"            
]


DDI4_OrganizationName [
  label = "{<id>OrganizationName | + abbreviation : InternationalString \l + typeOfOrganizationName : ExternalControlledVocabularyEntry \l + effectiveDates : DateRange \l + isFormal :  \l \l \l| \l \l}"

  tooltip = "StructuredDataTypes:OrganizationName"

href = "OrganizationName.html"
]

subgraph StructuredDataTypes {
label = "StructuredDataTypes"    

  node [ color = "#0000ff" ]

DDI4_ObjectName [
  label = "{<id>DDI_ObjectName}"

  tooltip = "StructuredDataTypes:ObjectName"

href = "../StructuredDataTypes/ObjectName.html"
]

}

DDI4_OrganizationName -> DDI4_ObjectName [arrowhead=onormal color="#000000"];

}