digraph G {
fontname = "Bitstream Vera Sans"
fontsize = 8

overlap=false;

compound=true;    

node [
  fontname = "Bitstream Vera Sans"
  fontsize = 8
  shape = "record"
]

edge [
  fontname = "Bitstream Vera Sans"
  fontsize = 8
  mode="ipsep"            
]


DDI4_SpatialPoint [
  label = "{<id>SpatialPoint | + xCoordinate : SpatialCoordinate \l + yCoordinate : SpatialCoordinate \l \l \l| \l \l}"

  tooltip = "StructuredDataTypes:SpatialPoint"

href = "SpatialPoint.html"
]

DDI4_SpatialPoint -> DDI4_ [arrowhead=onormal color="#000000"];

}