digraph G {
fontname = "Bitstream Vera Sans"
fontsize = 8

overlap=false;

compound=true;    

node [
  fontname = "Bitstream Vera Sans"
  fontsize = 8
  shape = "record"
]

edge [
  fontname = "Bitstream Vera Sans"
  fontsize = 8
  mode="ipsep"            
]


DDI4_Statistic [
  label = "{<id>Statistic | + isWeighted :  \l + computationBase : ComputationBaseList \l + typeOfNumericValue :  \l + content :  \l \l \l| \l \l}"

  tooltip = "StructuredDataTypes:Statistic"

href = "Statistic.html"
]

DDI4_Statistic -> DDI4_ [arrowhead=onormal color="#000000"];

}