digraph G {
fontname = "Bitstream Vera Sans"
fontsize = 8

overlap=false;

compound=true;    

node [
  fontname = "Bitstream Vera Sans"
  fontsize = 8
  shape = "record"
]

edge [
  fontname = "Bitstream Vera Sans"
  fontsize = 8
  mode="ipsep"            
]


DDI4_AccessLocation [
  label = "{<id>AccessLocation | + uri :  \l + mimeType : ExternalControlledVocabularyEntry \l + physicalLocation : InternationalString \l \l \l| \l \l}"

  tooltip = "StructuredDataTypes:AccessLocation"

href = "AccessLocation.html"
]

DDI4_Address [
  label = "{<id>Address | + typeOfAddress : ExternalControlledVocabularyEntry \l + line :  \l + cityPlaceLocal :  \l + stateProvince :  \l + postalCode :  \l + countryCode : ExternalControlledVocabularyEntry \l + timeZone : ExternalControlledVocabularyEntry \l + effectiveDates : DateRange \l + privacy : ExternalControlledVocabularyEntry \l + isPreferred :  \l + geographicPoint : SpatialPoint \l + regionalCoverage : ExternalControlledVocabularyEntry \l + typeOfLocation : ExternalControlledVocabularyEntry \l + locationName : ObjectName \l \l \l| \l \l}"

  tooltip = "StructuredDataTypes:Address"

href = "Address.html"
]

DDI4_AgentAssociation [
  label = "{<id>AgentAssociation | + agentName : BibliographicName \l + role : PairedExternalControlledVocabularyEntry \l \l \l| <AgentAssociation_associatedAgent_association> associatedAgent \l \l}"

  tooltip = "StructuredDataTypes:AgentAssociation"

href = "AgentAssociation.html"
]

DDI4_AgentId [
  label = "{<id>AgentId | + agentIdValue :  \l + agentIdType :  \l \l \l| \l \l}"

  tooltip = "StructuredDataTypes:AgentId"

href = "AgentId.html"
]

DDI4_AgentIndicator [
  label = "{<id>AgentIndicator | + index :  \l \l \l| <AgentIndicator_member_association> member \l| <AgentIndicator_realizes_association> realizes \l \l}"

  tooltip = "StructuredDataTypes:AgentIndicator"

href = "AgentIndicator.html"
]

DDI4_AgentRelation [
  label = "{<id>AgentRelation | + effectiveDates : DateRange \l + semantic : ExternalControlledVocabularyEntry \l + hasRelationSpecification : RelationSpecification \l + totality : TotalityType \l \l \l| <AgentRelation_source_association> source \l| <AgentRelation_target_association> target \l| <AgentRelation_realizes_association> realizes \l \l}"

  tooltip = "StructuredDataTypes:AgentRelation"

href = "AgentRelation.html"
]

DDI4_Annotation [
  label = "{<id>Annotation | + title : InternationalString \l + subTitle : InternationalString \l + alternativeTitle : InternationalString \l + creator : AgentAssociation \l + publisher : AgentAssociation \l + contributor : AgentAssociation \l + date : AnnotationDate \l + languageOfObject :  \l + identifier : InternationalIdentifier \l + copyright : InternationalString \l + typeOfResource : ExternalControlledVocabularyEntry \l + informationSource : InternationalString \l + versionIdentification :  \l + versioningAgent : AgentAssociation \l + summary : InternationalString \l + relatedResource : ResourceIdentifier \l + provenance : InternationalString \l + rights : InternationalString \l + recordCreationDate : IsoDateType \l + recordLastRevisionDate : IsoDateType \l \l \l| \l \l}"

  tooltip = "StructuredDataTypes:Annotation"

href = "Annotation.html"
]

DDI4_AnnotationDate [
  label = "{<id>AnnotationDate | + typeOfDate : ExternalControlledVocabularyEntry \l \l \l| \l \l}"

  tooltip = "StructuredDataTypes:AnnotationDate"

href = "AnnotationDate.html"
]

DDI4_AreaCoverage [
  label = "{<id>AreaCoverage | + typeOfArea : ExternalControlledVocabularyEntry \l + measurementUnit : ExternalControlledVocabularyEntry \l + areaMeasure :  \l \l \l| \l \l}"

  tooltip = "StructuredDataTypes:AreaCoverage"

href = "AreaCoverage.html"
]

DDI4_AudioSegment [
  label = "{<id>AudioSegment | + typeOfAudioClip : ExternalControlledVocabularyEntry \l + audioClipBegin :  \l + audioClipEnd :  \l \l \l| \l \l}"

  tooltip = "StructuredDataTypes:AudioSegment"

href = "AudioSegment.html"
]

DDI4_BasedOnObjectInformation [
  label = "{<id>BasedOnObjectInformation | + basedOnRationaleDescription : InternationalString \l + basedOnRationaleCode : ExternalControlledVocabularyEntry \l \l \l| <BasedOnObjectInformation_basedOn_association> basedOn \l \l}"

  tooltip = "StructuredDataTypes:BasedOnObjectInformation"

href = "BasedOnObjectInformation.html"
]

DDI4_BibliographicName [
  label = "{<id>BibliographicName | + affiliation :  \l \l \l| \l \l}"

  tooltip = "StructuredDataTypes:BibliographicName"

href = "BibliographicName.html"
]

DDI4_Binding [
  label = "{<id>Binding | \l \l| <Binding_fromParameter_association> fromParameter \l| <Binding_toParameter_association> toParameter \l \l}"

  tooltip = "StructuredDataTypes:Binding"

href = "Binding.html"
]

DDI4_BusinessProcessCondition [
  label = "{<id>BusinessProcessCondition | + sql :  \l + rejectionCriteria : CommandCode \l + dataDescription : InternationalStructuredString \l \l \l| <BusinessProcessCondition_usesLogicalRecord_association> usesLogicalRecord \l \l}"

  tooltip = "StructuredDataTypes:BusinessProcessCondition"

href = "BusinessProcessCondition.html"
]

DDI4_BusinessProcessIndicator [
  label = "{<id>BusinessProcessIndicator | + index :  \l \l \l| <BusinessProcessIndicator_member_association> member \l| <BusinessProcessIndicator_realizes_association> realizes \l \l}"

  tooltip = "StructuredDataTypes:BusinessProcessIndicator"

href = "BusinessProcessIndicator.html"
]

DDI4_CategoryIndicator [
  label = "{<id>CategoryIndicator | + index :  \l \l \l| <CategoryIndicator_member_association> member \l| <CategoryIndicator_realizes_association> realizes \l \l}"

  tooltip = "StructuredDataTypes:CategoryIndicator"

href = "CategoryIndicator.html"
]

DDI4_CategoryRelation [
  label = "{<id>CategoryRelation | + totality : TotalityType \l + hasRelationSpecification : RelationSpecification \l + semantic : ExternalControlledVocabularyEntry \l \l \l| <CategoryRelation_realizes_association> realizes \l| <CategoryRelation_source_association> source \l| <CategoryRelation_target_association> target \l \l}"

  tooltip = "StructuredDataTypes:CategoryRelation"

href = "CategoryRelation.html"
]

DDI4_CategoryStatistic [
  label = "{<id>CategoryStatistic | + typeOfCategoryStatistic : ExternalControlledVocabularyEntry \l + hasStatistic : Statistic \l + categoryValue : ValueString \l + filterValue : ValueString \l \l \l| <CategoryStatistic_forCodeItem_association> forCodeItem \l \l}"

  tooltip = "StructuredDataTypes:CategoryStatistic"

href = "CategoryStatistic.html"
]

DDI4_CharacterOffset [
  label = "{<id>CharacterOffset | + startCharOffset :  \l + endCharOffset :  \l + characterLength :  \l \l \l| \l \l}"

  tooltip = "StructuredDataTypes:CharacterOffset"

href = "CharacterOffset.html"
]

DDI4_ClassificationIndexEntryIndicator [
  label = "{<id>ClassificationIndexEntryIndicator | + index :  \l \l \l| <ClassificationIndexEntryIndicator_member_association> member \l| <ClassificationIndexEntryIndicator_realizes_association> realizes \l \l}"

  tooltip = "StructuredDataTypes:ClassificationIndexEntryIndicator"

href = "ClassificationIndexEntryIndicator.html"
]

DDI4_ClassificationItemIndicator [
  label = "{<id>ClassificationItemIndicator | + index :  \l + hasLevel :  \l \l \l| <ClassificationItemIndicator_member_association> member \l| <ClassificationItemIndicator_realizes_association> realizes \l \l}"

  tooltip = "StructuredDataTypes:ClassificationItemIndicator"

href = "ClassificationItemIndicator.html"
]

DDI4_ClassificationItemRelation [
  label = "{<id>ClassificationItemRelation | + totality : TotalityType \l + hasRelationSpecification : RelationSpecification \l + semantic : ExternalControlledVocabularyEntry \l \l \l| <ClassificationItemRelation_realizes_association> realizes \l| <ClassificationItemRelation_source_association> source \l| <ClassificationItemRelation_target_association> target \l \l}"

  tooltip = "StructuredDataTypes:ClassificationItemRelation"

href = "ClassificationItemRelation.html"
]

DDI4_ClassificationSeriesIndicator [
  label = "{<id>ClassificationSeriesIndicator | + index :  \l \l \l| <ClassificationSeriesIndicator_member_association> member \l| <ClassificationSeriesIndicator_realizes_association> realizes \l \l}"

  tooltip = "StructuredDataTypes:ClassificationSeriesIndicator"

href = "ClassificationSeriesIndicator.html"
]

DDI4_ClassificationSeriesRelation [
  label = "{<id>ClassificationSeriesRelation | + hasRelationSpecification : RelationSpecification \l + semantic : ExternalControlledVocabularyEntry \l + totality : TotalityType \l \l \l| <ClassificationSeriesRelation_source_association> source \l| <ClassificationSeriesRelation_target_association> target \l| <ClassificationSeriesRelation_realizes_association> realizes \l \l}"

  tooltip = "StructuredDataTypes:ClassificationSeriesRelation"

href = "ClassificationSeriesRelation.html"
]

DDI4_CodeIndicator [
  label = "{<id>CodeIndicator | + index :  \l + isInLevel :  \l \l \l| <CodeIndicator_member_association> member \l| <CodeIndicator_realizes_association> realizes \l \l}"

  tooltip = "StructuredDataTypes:CodeIndicator"

href = "CodeIndicator.html"
]

DDI4_CodeRelation [
  label = "{<id>CodeRelation | + totality : TotalityType \l + hasRelationSpecification : RelationSpecification \l + semantic : ExternalControlledVocabularyEntry \l \l \l| <CodeRelation_realizes_association> realizes \l| <CodeRelation_source_association> source \l| <CodeRelation_target_association> target \l \l}"

  tooltip = "StructuredDataTypes:CodeRelation"

href = "CodeRelation.html"
]

DDI4_Command [
  label = "{<id>Command | + programLanguage : ExternalControlledVocabularyEntry \l + commandContent :  \l \l \l| \l \l}"

  tooltip = "StructuredDataTypes:Command"

href = "Command.html"
]

DDI4_CommandCode [
  label = "{<id>CommandCode | + description : InternationalStructuredString \l + usesCommandFile : CommandFile \l + usesCommand : Command \l \l \l| \l \l}"

  tooltip = "StructuredDataTypes:CommandCode"

href = "CommandCode.html"
]

DDI4_CommandFile [
  label = "{<id>CommandFile | + programLanguage : ExternalControlledVocabularyEntry \l + location : InternationalString \l + uri :  \l \l \l| \l \l}"

  tooltip = "StructuredDataTypes:CommandFile"

href = "CommandFile.html"
]

DDI4_ConceptIndicator [
  label = "{<id>ConceptIndicator | + index :  \l \l \l| <ConceptIndicator_member_association> member \l| <ConceptIndicator_realizes_association> realizes \l \l}"

  tooltip = "StructuredDataTypes:ConceptIndicator"

href = "ConceptIndicator.html"
]

DDI4_ConceptRelation [
  label = "{<id>ConceptRelation | + hasRelationSpecification : RelationSpecification \l + semantic : ExternalControlledVocabularyEntry \l + totality : TotalityType \l \l \l| <ConceptRelation_source_association> source \l| <ConceptRelation_target_association> target \l| <ConceptRelation_realizes_association> realizes \l \l}"

  tooltip = "StructuredDataTypes:ConceptRelation"

href = "ConceptRelation.html"
]

DDI4_ConditionalText [
  label = "{<id>ConditionalText | + expression : CommandCode \l \l \l| \l \l}"

  tooltip = "StructuredDataTypes:ConditionalText"

href = "ConditionalText.html"
]

DDI4_ContactInformation [
  label = "{<id>ContactInformation | + website : WebLink \l + hasEmail : Email \l + electronicMessaging : ElectronicMessageSystem \l + hasAddress : Address \l + hasTelephone : Telephone \l \l \l| \l \l}"

  tooltip = "StructuredDataTypes:ContactInformation"

href = "ContactInformation.html"
]

DDI4_ContentDateOffset [
  label = "{<id>ContentDateOffset | + numberOfUnits :  \l + isNegativeOffset :  \l \l \l| \l \l}"

  tooltip = "StructuredDataTypes:ContentDateOffset"

href = "ContentDateOffset.html"
]

DDI4_CorrespondenceType [
  label = "{<id>CorrespondenceType | + commonality : InternationalStructuredString \l + difference : InternationalStructuredString \l + commonalityTypeCode : ExternalControlledVocabularyEntry \l + hasMappingRelation : MappingRelation \l \l \l| \l \l}"

  tooltip = "StructuredDataTypes:CorrespondenceType"

href = "CorrespondenceType.html"
]

DDI4_CustomItemIndicator [
  label = "{<id>CustomItemIndicator | + index :  \l \l \l| <CustomItemIndicator_member_association> member \l| <CustomItemIndicator_realizes_association> realizes \l \l}"

  tooltip = "StructuredDataTypes:CustomItemIndicator"

href = "CustomItemIndicator.html"
]

DDI4_CustomItemRelation [
  label = "{<id>CustomItemRelation | + hasRelationSpecification : RelationSpecification \l + semantic : ExternalControlledVocabularyEntry \l + totality : TotalityType \l \l \l| <CustomItemRelation_source_association> source \l| <CustomItemRelation_target_association> target \l| <CustomItemRelation_realizes_association> realizes \l \l}"

  tooltip = "StructuredDataTypes:CustomItemRelation"

href = "CustomItemRelation.html"
]

DDI4_CustomValueIndicator [
  label = "{<id>CustomValueIndicator | + index :  \l \l \l| <CustomValueIndicator_member_association> member \l| <CustomValueIndicator_realizes_association> realizes \l \l}"

  tooltip = "StructuredDataTypes:CustomValueIndicator"

href = "CustomValueIndicator.html"
]

DDI4_DataPointIndicator [
  label = "{<id>DataPointIndicator | + index :  \l \l \l| <DataPointIndicator_member_association> member \l| <DataPointIndicator_realizes_association> realizes \l \l}"

  tooltip = "StructuredDataTypes:DataPointIndicator"

href = "DataPointIndicator.html"
]

DDI4_DataPointRelation [
  label = "{<id>DataPointRelation | + hasRelationSpecification : RelationSpecification \l + semantic : ExternalControlledVocabularyEntry \l + totality : TotalityType \l \l \l| <DataPointRelation_source_association> source \l| <DataPointRelation_target_association> target \l| <DataPointRelation_realizes_association> realizes \l \l}"

  tooltip = "StructuredDataTypes:DataPointRelation"

href = "DataPointRelation.html"
]

DDI4_DataStoreIndicator [
  label = "{<id>DataStoreIndicator | + index :  \l \l \l| <DataStoreIndicator_member_association> member \l| <DataStoreIndicator_realizes_association> realizes \l \l}"

  tooltip = "StructuredDataTypes:DataStoreIndicator"

href = "DataStoreIndicator.html"
]

DDI4_DataStoreRelation [
  label = "{<id>DataStoreRelation | + hasRelationSpecification : RelationSpecification \l + semantic : ExternalControlledVocabularyEntry \l + totality : TotalityType \l \l \l| <DataStoreRelation_source_association> source \l| <DataStoreRelation_target_association> target \l| <DataStoreRelation_realizes_association> realizes \l \l}"

  tooltip = "StructuredDataTypes:DataStoreRelation"

href = "DataStoreRelation.html"
]

DDI4_Date [
  label = "{<id>Date | + isoDate : IsoDateType \l + nonIsoDate : NonIsoDateType \l \l \l| \l \l}"

  tooltip = "StructuredDataTypes:Date"

href = "Date.html"
]

DDI4_DateRange [
  label = "{<id>DateRange | + startDate : Date \l + endDate : Date \l \l \l| \l \l}"

  tooltip = "StructuredDataTypes:DateRange"

href = "DateRange.html"
]

DDI4_DoubleNumberRangeValue [
  label = "{<id>DoubleNumberRangeValue | + isInclusive :  \l + doubleValue :  \l \l \l| \l \l}"

  tooltip = "StructuredDataTypes:DoubleNumberRangeValue"

href = "DoubleNumberRangeValue.html"
]

DDI4_DynamicText [
  label = "{<id>DynamicText | + textContent : DynamicTextContent \l + isStructureRequired :  \l + audienceLanguage :  \l \l \l| \l \l}"

  tooltip = "StructuredDataTypes:DynamicText"

href = "DynamicText.html"
]

DDI4_DynamicTextContent [
  label = "{<id>DynamicTextContent | + purpose : InternationalStructuredString \l + orderPosition :  \l \l \l| \l \l}"

  tooltip = "StructuredDataTypes:DynamicTextContent"

href = "DynamicTextContent.html"
]

DDI4_ElectronicMessageSystem [
  label = "{<id>ElectronicMessageSystem | + contactAddress :  \l + typeOfService : ExternalControlledVocabularyEntry \l + effectiveDates : DateRange \l + privacy : ExternalControlledVocabularyEntry \l + isPreferred :  \l \l \l| \l \l}"

  tooltip = "StructuredDataTypes:ElectronicMessageSystem"

href = "ElectronicMessageSystem.html"
]

DDI4_ElseIfAction [
  label = "{<id>ElseIfAction | + condition : CommandCode \l \l \l| <ElseIfAction_executes_association> executes \l \l}"

  tooltip = "StructuredDataTypes:ElseIfAction"

href = "ElseIfAction.html"
]

DDI4_Email [
  label = "{<id>Email | + internetEmail :  \l + typeOfEmail : ExternalControlledVocabularyEntry \l + effectiveDates : DateRange \l + privacy : ExternalControlledVocabularyEntry \l + isPreferred :  \l \l \l| \l \l}"

  tooltip = "StructuredDataTypes:Email"

href = "Email.html"
]

DDI4_ExternalControlledVocabularyEntry [
  label = "{<id>ExternalControlledVocabularyEntry | + controlledVocabularyID :  \l + controlledVocabularyName :  \l + controlledVocabularyAgencyName :  \l + controlledVocabularyVersionID :  \l + otherValue :  \l + uri :  \l + content :  \l + language :  \l \l \l| \l \l}"

  tooltip = "StructuredDataTypes:ExternalControlledVocabularyEntry"

href = "ExternalControlledVocabularyEntry.html"
]

DDI4_FixedText [
  label = "{<id>FixedText | + whiteSpace : WhiteSpaceRule \l \l \l| \l \l}"

  tooltip = "StructuredDataTypes:FixedText"

href = "FixedText.html"
]

DDI4_Form [
  label = "{<id>Form | + formNumber :  \l + uri :  \l + statement : InternationalString \l + isRequired :  \l \l \l| \l \l}"

  tooltip = "StructuredDataTypes:Form"

href = "Form.html"
]

DDI4_GeographicUnitIndicator [
  label = "{<id>GeographicUnitIndicator | + index :  \l + isInLevel :  \l \l \l| <GeographicUnitIndicator_member_association> member \l| <GeographicUnitIndicator_realizes_association> realizes \l \l}"

  tooltip = "StructuredDataTypes:GeographicUnitIndicator"

href = "GeographicUnitIndicator.html"
]

DDI4_GeographicUnitRelation [
  label = "{<id>GeographicUnitRelation | + hasRelationSpecification : RelationSpecification \l + hasSpatialRelationSpecification : SpatialRelationSpecification \l + semantic : ExternalControlledVocabularyEntry \l + totality : TotalityType \l \l \l| <GeographicUnitRelation_source_association> source \l| <GeographicUnitRelation_target_association> target \l| <GeographicUnitRelation_realizes_association> realizes \l \l}"

  tooltip = "StructuredDataTypes:GeographicUnitRelation"

href = "GeographicUnitRelation.html"
]

DDI4_GeographicUnitTypeIndicator [
  label = "{<id>GeographicUnitTypeIndicator | + index :  \l + isInLevel :  \l \l \l| <GeographicUnitTypeIndicator_member_association> member \l| <GeographicUnitTypeIndicator_realizes_association> realizes \l \l}"

  tooltip = "StructuredDataTypes:GeographicUnitTypeIndicator"

href = "GeographicUnitTypeIndicator.html"
]

DDI4_GeographicUnitTypeRelation [
  label = "{<id>GeographicUnitTypeRelation | + hasRelationSpecification : RelationSpecification \l + hasSpatialRelationSpecification : SpatialRelationSpecification \l + isExhaustiveCoverage :  \l + semantic : ExternalControlledVocabularyEntry \l + totality : TotalityType \l \l \l| <GeographicUnitTypeRelation_realizes_association> realizes \l| <GeographicUnitTypeRelation_source_association> source \l| <GeographicUnitTypeRelation_target_association> target \l \l}"

  tooltip = "StructuredDataTypes:GeographicUnitTypeRelation"

href = "GeographicUnitTypeRelation.html"
]

DDI4_Image [
  label = "{<id>Image | + uri :  \l + typeOfImage : ExternalControlledVocabularyEntry \l + dpi :  \l + languageOfImage :  \l \l \l| \l \l}"

  tooltip = "StructuredDataTypes:Image"

href = "Image.html"
]

DDI4_ImageArea [
  label = "{<id>ImageArea | + content :  \l + shape : ShapeCoded \l \l \l| \l \l}"

  tooltip = "StructuredDataTypes:ImageArea"

href = "ImageArea.html"
]

DDI4_IndexEntryRelation [
  label = "{<id>IndexEntryRelation | + hasRelationSpecification : RelationSpecification \l + semantic : ExternalControlledVocabularyEntry \l + totality : TotalityType \l \l \l| <IndexEntryRelation_source_association> source \l| <IndexEntryRelation_target_association> target \l| <IndexEntryRelation_realizes_association> realizes \l \l}"

  tooltip = "StructuredDataTypes:IndexEntryRelation"

href = "IndexEntryRelation.html"
]

DDI4_IndividualName [
  label = "{<id>IndividualName | + prefix :  \l + firstGiven :  \l + middle :  \l + lastFamily :  \l + suffix :  \l + fullName : InternationalString \l + effectiveDates : DateRange \l + abbreviation : InternationalString \l + typeOfIndividualName : ExternalControlledVocabularyEntry \l + sex : SexSpecificationType \l + isPreferred :  \l + context : ExternalControlledVocabularyEntry \l + isFormal :  \l \l \l| \l \l}"

  tooltip = "StructuredDataTypes:IndividualName"

href = "IndividualName.html"
]

DDI4_InstanceVariableIndicator [
  label = "{<id>InstanceVariableIndicator | + index :  \l \l \l| <InstanceVariableIndicator_member_association> member \l| <InstanceVariableIndicator_realizes_association> realizes \l \l}"

  tooltip = "StructuredDataTypes:InstanceVariableIndicator"

href = "InstanceVariableIndicator.html"
]

DDI4_InstanceVariableRelation [
  label = "{<id>InstanceVariableRelation | + totality : TotalityType \l + hasRelationSpecification : RelationSpecification \l + semantic : ExternalControlledVocabularyEntry \l \l \l| <InstanceVariableRelation_realizes_association> realizes \l| <InstanceVariableRelation_source_association> source \l| <InstanceVariableRelation_target_association> target \l \l}"

  tooltip = "StructuredDataTypes:InstanceVariableRelation"

href = "InstanceVariableRelation.html"
]

DDI4_InstanceVariableValueMap [
  label = "{<id>InstanceVariableValueMap | + valueRelationship : ValueRelationshipType \l + setValue : ValueString \l + hasCorrespondenceType : CorrespondenceType \l \l \l| <InstanceVariableValueMap_source_association> source \l| <InstanceVariableValueMap_target_association> target \l| <InstanceVariableValueMap_realizes_association> realizes \l \l}"

  tooltip = "StructuredDataTypes:InstanceVariableValueMap"

href = "InstanceVariableValueMap.html"
]

DDI4_InternationalIdentifier [
  label = "{<id>InternationalIdentifier | + identifierContent :  \l + managingAgency : ExternalControlledVocabularyEntry \l + isURI :  \l \l \l| \l \l}"

  tooltip = "StructuredDataTypes:InternationalIdentifier"

href = "InternationalIdentifier.html"
]

DDI4_InternationalString [
  label = "{<id>InternationalString | + languageSpecificString : LanguageSpecificStringType \l \l \l| \l \l}"

  tooltip = "StructuredDataTypes:InternationalString"

href = "InternationalString.html"
]

DDI4_InternationalStructuredString [
  label = "{<id>InternationalStructuredString | + languageSpecificStructuredString : LanguageSpecificStructuredStringType \l \l \l| \l \l}"

  tooltip = "StructuredDataTypes:InternationalStructuredString"

href = "InternationalStructuredString.html"
]

DDI4_LabelForDisplay [
  label = "{<id>LabelForDisplay | + locationVariant : ExternalControlledVocabularyEntry \l + validDates : DateRange \l + maxLength :  \l \l \l| \l \l}"

  tooltip = "StructuredDataTypes:LabelForDisplay"

href = "LabelForDisplay.html"
]

DDI4_LanguageSpecificStringType [
  label = "{<id>LanguageSpecificStringType | + content :  \l + language :  \l + isTranslated :  \l + isTranslatable :  \l + translationSourceLanguage :  \l + translationDate :  \l + scope :  \l \l \l| \l \l}"

  tooltip = "StructuredDataTypes:LanguageSpecificStringType"

href = "LanguageSpecificStringType.html"
]

DDI4_LanguageSpecificStructuredStringType [
  label = "{<id>LanguageSpecificStructuredStringType | + isPlainText :  \l + structureUsed : StringStructureType \l + otherDefined :  \l \l \l| \l \l}"

  tooltip = "StructuredDataTypes:LanguageSpecificStructuredStringType"

href = "LanguageSpecificStructuredStringType.html"
]

DDI4_Level [
  label = "{<id>Level | + levelNumber :  \l + displayLabel : LabelForDisplay \l \l \l| <Level_definedBy_association> definedBy \l \l}"

  tooltip = "StructuredDataTypes:Level"

href = "Level.html"
]

DDI4_LineParameter [
  label = "{<id>LineParameter | + startLine :  \l + startOffset :  \l + endLine :  \l + endOffset :  \l \l \l| \l \l}"

  tooltip = "StructuredDataTypes:LineParameter"

href = "LineParameter.html"
]

DDI4_LiteralText [
  label = "{<id>LiteralText | + text : LanguageSpecificStructuredStringType \l \l \l| \l \l}"

  tooltip = "StructuredDataTypes:LiteralText"

href = "LiteralText.html"
]

DDI4_LocalIdFormat [
  label = "{<id>LocalIdFormat | + localIdValue :  \l + localIdType :  \l + localIdVersion :  \l \l \l| \l \l}"

  tooltip = "StructuredDataTypes:LocalIdFormat"

href = "LocalIdFormat.html"
]

DDI4_LocationName [
  label = "{<id>LocationName | + effectiveDates : DateRange \l \l \l| \l \l}"

  tooltip = "StructuredDataTypes:LocationName"

href = "LocationName.html"
]

DDI4_LogicalRecordIndicator [
  label = "{<id>LogicalRecordIndicator | + index :  \l \l \l| <LogicalRecordIndicator_member_association> member \l| <LogicalRecordIndicator_realizes_association> realizes \l \l}"

  tooltip = "StructuredDataTypes:LogicalRecordIndicator"

href = "LogicalRecordIndicator.html"
]

DDI4_LogicalRecordRelation [
  label = "{<id>LogicalRecordRelation | + hasRelationSpecification : RelationSpecification \l + semantic : ExternalControlledVocabularyEntry \l + totality : TotalityType \l \l \l| <LogicalRecordRelation_source_association> source \l| <LogicalRecordRelation_target_association> target \l| <LogicalRecordRelation_realizes_association> realizes \l \l}"

  tooltip = "StructuredDataTypes:LogicalRecordRelation"

href = "LogicalRecordRelation.html"
]

DDI4_Map [
  label = "{<id>Map | + validDates : DateRange \l + hasCorrespondenceType : CorrespondenceType \l + displayLabel : LabelForDisplay \l + usage : InternationalStructuredString \l \l \l| <Map_source_association> source \l| <Map_target_association> target \l| <Map_realizes_association> realizes \l \l}"

  tooltip = "StructuredDataTypes:Map"

href = "Map.html"
]

DDI4_NonIsoDateType [
  label = "{<id>NonIsoDateType | + dateContent :  \l + nonIsoDateFormat : ExternalControlledVocabularyEntry \l + calendar : ExternalControlledVocabularyEntry \l \l \l| \l \l}"

  tooltip = "StructuredDataTypes:NonIsoDateType"

href = "NonIsoDateType.html"
]

DDI4_NumberRange [
  label = "{<id>NumberRange | + displayLabel : LabelForDisplay \l + highCode : NumberRangeValue \l + highCodeDouble : DoubleNumberRangeValue \l + lowCode : NumberRangeValue \l + lowCodeDouble : DoubleNumberRangeValue \l + regExp :  \l + isTopCoded :  \l + isBottomCoded :  \l \l \l| \l \l}"

  tooltip = "StructuredDataTypes:NumberRange"

href = "NumberRange.html"
]

DDI4_NumberRangeValue [
  label = "{<id>NumberRangeValue | + isInclusive :  \l + decimalValue :  \l \l \l| \l \l}"

  tooltip = "StructuredDataTypes:NumberRangeValue"

href = "NumberRangeValue.html"
]

DDI4_ObjectName [
  label = "{<id>ObjectName | + content :  \l + context : ExternalControlledVocabularyEntry \l \l \l| \l \l}"

  tooltip = "StructuredDataTypes:ObjectName"

href = "ObjectName.html"
]

DDI4_OrganizationName [
  label = "{<id>OrganizationName | + abbreviation : InternationalString \l + typeOfOrganizationName : ExternalControlledVocabularyEntry \l + effectiveDates : DateRange \l + isFormal :  \l \l \l| \l \l}"

  tooltip = "StructuredDataTypes:OrganizationName"

href = "OrganizationName.html"
]

DDI4_PairedExternalControlledVocabularyEntry [
  label = "{<id>PairedExternalControlledVocabularyEntry | + term : ExternalControlledVocabularyEntry \l + extent : ExternalControlledVocabularyEntry \l \l \l| \l \l}"

  tooltip = "StructuredDataTypes:PairedExternalControlledVocabularyEntry"

href = "PairedExternalControlledVocabularyEntry.html"
]

DDI4_PhysicalRecordSegmentIndicator [
  label = "{<id>PhysicalRecordSegmentIndicator | + index :  \l \l \l| <PhysicalRecordSegmentIndicator_member_association> member \l| <PhysicalRecordSegmentIndicator_realizes_association> realizes \l \l}"

  tooltip = "StructuredDataTypes:PhysicalRecordSegmentIndicator"

href = "PhysicalRecordSegmentIndicator.html"
]

DDI4_PhysicalRecordSegmentRelation [
  label = "{<id>PhysicalRecordSegmentRelation | + hasRelationSpecification : RelationSpecification \l + semantic : ExternalControlledVocabularyEntry \l + totality : TotalityType \l \l \l| <PhysicalRecordSegmentRelation_source_association> source \l| <PhysicalRecordSegmentRelation_target_association> target \l| <PhysicalRecordSegmentRelation_realizes_association> realizes \l \l}"

  tooltip = "StructuredDataTypes:PhysicalRecordSegmentRelation"

href = "PhysicalRecordSegmentRelation.html"
]

DDI4_Polygon [
  label = "{<id>Polygon | + uri :  \l + polygonLinkCode :  \l + shapeFileFormat : ExternalControlledVocabularyEntry \l + point : SpatialPoint \l \l \l| \l \l}"

  tooltip = "StructuredDataTypes:Polygon"

href = "Polygon.html"
]

DDI4_PrivateImage [
  label = "{<id>PrivateImage | + effectiveDates : DateRange \l + privacy : ExternalControlledVocabularyEntry \l \l \l| \l \l}"

  tooltip = "StructuredDataTypes:PrivateImage"

href = "PrivateImage.html"
]

DDI4_RangeValue [
  label = "{<id>RangeValue | + included :  \l \l \l| \l \l}"

  tooltip = "StructuredDataTypes:RangeValue"

href = "RangeValue.html"
]

DDI4_RationaleDefinition [
  label = "{<id>RationaleDefinition | + rationaleDescription : InternationalString \l + rationaleCode : ExternalControlledVocabularyEntry \l \l \l| \l \l}"

  tooltip = "StructuredDataTypes:RationaleDefinition"

href = "RationaleDefinition.html"
]

DDI4_ReferenceDate [
  label = "{<id>ReferenceDate | + subject : ExternalControlledVocabularyEntry \l + keyword : ExternalControlledVocabularyEntry \l \l \l| \l \l}"

  tooltip = "StructuredDataTypes:ReferenceDate"

href = "ReferenceDate.html"
]

DDI4_ResourceIdentifier [
  label = "{<id>ResourceIdentifier | + typeOfRelatedResource : ExternalControlledVocabularyEntry \l \l \l| \l \l}"

  tooltip = "StructuredDataTypes:ResourceIdentifier"

href = "ResourceIdentifier.html"
]

DDI4_Segment [
  label = "{<id>Segment | + usesAudioSegment : AudioSegment \l + usesVideoSegment : VideoSegment \l + xml :  \l + useseTextualSegment : TextualSegment \l + usesImageArea : ImageArea \l \l \l| \l \l}"

  tooltip = "StructuredDataTypes:Segment"

href = "Segment.html"
]

DDI4_SpatialCoordinate [
  label = "{<id>SpatialCoordinate | + content :  \l + coordinateType : PointFormat \l \l \l| \l \l}"

  tooltip = "StructuredDataTypes:SpatialCoordinate"

href = "SpatialCoordinate.html"
]

DDI4_SpatialLine [
  label = "{<id>SpatialLine | + uri :  \l + lineLinkCode :  \l + shapeFileFormat : ExternalControlledVocabularyEntry \l + point : SpatialPoint \l \l \l| \l \l}"

  tooltip = "StructuredDataTypes:SpatialLine"

href = "SpatialLine.html"
]

DDI4_SpatialPoint [
  label = "{<id>SpatialPoint | + xCoordinate : SpatialCoordinate \l + yCoordinate : SpatialCoordinate \l \l \l| \l \l}"

  tooltip = "StructuredDataTypes:SpatialPoint"

href = "SpatialPoint.html"
]

DDI4_SpatialRelationship [
  label = "{<id>SpatialRelationship | + hasSpatialObjectPair : SpatialObjectPairs \l + hasSpatialRelationSpecification : SpatialRelationSpecification \l + eventDate : Date \l \l \l| <SpatialRelationship_relatesTo_association> relatesTo \l \l}"

  tooltip = "StructuredDataTypes:SpatialRelationship"

href = "SpatialRelationship.html"
]

DDI4_Statistic [
  label = "{<id>Statistic | + isWeighted :  \l + computationBase : ComputationBaseList \l + typeOfNumericValue :  \l + content :  \l \l \l| \l \l}"

  tooltip = "StructuredDataTypes:Statistic"

href = "Statistic.html"
]

DDI4_StatisticalClassificationIndicator [
  label = "{<id>StatisticalClassificationIndicator | + index :  \l \l \l| <StatisticalClassificationIndicator_member_association> member \l| <StatisticalClassificationIndicator_realizes_association> realizes \l \l}"

  tooltip = "StructuredDataTypes:StatisticalClassificationIndicator"

href = "StatisticalClassificationIndicator.html"
]

DDI4_StatisticalClassificationRelation [
  label = "{<id>StatisticalClassificationRelation | + hasRelationSpecification : RelationSpecification \l + semantic : ExternalControlledVocabularyEntry \l + totality : TotalityType \l \l \l| <StatisticalClassificationRelation_source_association> source \l| <StatisticalClassificationRelation_target_association> target \l| <StatisticalClassificationRelation_realizes_association> realizes \l \l}"

  tooltip = "StructuredDataTypes:StatisticalClassificationRelation"

href = "StatisticalClassificationRelation.html"
]

DDI4_StudyIndicator [
  label = "{<id>StudyIndicator | + index :  \l \l \l| <StudyIndicator_member_association> member \l| <StudyIndicator_realizes_association> realizes \l \l}"

  tooltip = "StructuredDataTypes:StudyIndicator"

href = "StudyIndicator.html"
]

DDI4_StudyRelation [
  label = "{<id>StudyRelation | + hasRelationSpecification : RelationSpecification \l + semantic : ExternalControlledVocabularyEntry \l + totality : TotalityType \l \l \l| <StudyRelation_source_association> source \l| <StudyRelation_target_association> target \l| <StudyRelation_realizes_association> realizes \l \l}"

  tooltip = "StructuredDataTypes:StudyRelation"

href = "StudyRelation.html"
]

DDI4_SummaryStatistic [
  label = "{<id>SummaryStatistic | + typeOfSummaryStatistic : ExternalControlledVocabularyEntry \l + hasStatistic : Statistic \l \l \l| \l \l}"

  tooltip = "StructuredDataTypes:SummaryStatistic"

href = "SummaryStatistic.html"
]

DDI4_TargetSample [
  label = "{<id>TargetSample | + isPrimary :  \l + targetSize :  \l + targetPercent :  \l \l \l| <TargetSample_hasUnitType_association> hasUnitType \l| <TargetSample_fromUniverse_association> fromUniverse \l \l}"

  tooltip = "StructuredDataTypes:TargetSample"

href = "TargetSample.html"
]

DDI4_Telephone [
  label = "{<id>Telephone | + telephoneNumber :  \l + typeOfTelephone : ExternalControlledVocabularyEntry \l + effectiveDates : DateRange \l + privacy : ExternalControlledVocabularyEntry \l + isPreferred :  \l \l \l| \l \l}"

  tooltip = "StructuredDataTypes:Telephone"

href = "Telephone.html"
]

DDI4_TextualSegment [
  label = "{<id>TextualSegment | + lineParamenter : LineParameter \l + characterParameter : CharacterOffset \l \l \l| \l \l}"

  tooltip = "StructuredDataTypes:TextualSegment"

href = "TextualSegment.html"
]

DDI4_TypedDescriptiveText [
  label = "{<id>TypedDescriptiveText | + typeOfContent : ExternalControlledVocabularyEntry \l + descriptiveText : InternationalStructuredString \l \l \l| \l \l}"

  tooltip = "StructuredDataTypes:TypedDescriptiveText"

href = "TypedDescriptiveText.html"
]

DDI4_TypedString [
  label = "{<id>TypedString | + typeOfContent : ExternalControlledVocabularyEntry \l + content :  \l \l \l| \l \l}"

  tooltip = "StructuredDataTypes:TypedString"

href = "TypedString.html"
]

DDI4_ValueMappingIndicator [
  label = "{<id>ValueMappingIndicator | + index :  \l \l \l| <ValueMappingIndicator_member_association> member \l| <ValueMappingIndicator_realizes_association> realizes \l \l}"

  tooltip = "StructuredDataTypes:ValueMappingIndicator"

href = "ValueMappingIndicator.html"
]

DDI4_ValueMappingRelation [
  label = "{<id>ValueMappingRelation | + hasRelationSpecification : RelationSpecification \l + semantic : ExternalControlledVocabularyEntry \l + totality : TotalityType \l \l \l| <ValueMappingRelation_realizes_association> realizes \l| <ValueMappingRelation_source_association> source \l| <ValueMappingRelation_target_association> target \l \l}"

  tooltip = "StructuredDataTypes:ValueMappingRelation"

href = "ValueMappingRelation.html"
]

DDI4_ValueString [
  label = "{<id>ValueString | + content :  \l + whiteSpace : WhiteSpaceRule \l \l \l| <ValueString_realizes_association> realizes \l \l}"

  tooltip = "StructuredDataTypes:ValueString"

href = "ValueString.html"
]

DDI4_VariableIndicator [
  label = "{<id>VariableIndicator | + index :  \l \l \l| <VariableIndicator_member_association> member \l| <VariableIndicator_realizes_association> realizes \l \l}"

  tooltip = "StructuredDataTypes:VariableIndicator"

href = "VariableIndicator.html"
]

DDI4_VariableRelation [
  label = "{<id>VariableRelation | + hasRelationSpecification : RelationSpecification \l + semantic : ExternalControlledVocabularyEntry \l + totality : TotalityType \l \l \l| <VariableRelation_source_association> source \l| <VariableRelation_target_association> target \l| <VariableRelation_realizes_association> realizes \l \l}"

  tooltip = "StructuredDataTypes:VariableRelation"

href = "VariableRelation.html"
]

DDI4_VideoSegment [
  label = "{<id>VideoSegment | + typeOfVideoClip : ExternalControlledVocabularyEntry \l + videoClipBegin :  \l + videoClipEnd :  \l \l \l| \l \l}"

  tooltip = "StructuredDataTypes:VideoSegment"

href = "VideoSegment.html"
]

DDI4_VocabularyEntryIndicator [
  label = "{<id>VocabularyEntryIndicator | + index :  \l \l \l| <VocabularyEntryIndicator_member_association> member \l| <VocabularyEntryIndicator_realizes_association> realizes \l \l}"

  tooltip = "StructuredDataTypes:VocabularyEntryIndicator"

href = "VocabularyEntryIndicator.html"
]

DDI4_VocabularyEntryRelation [
  label = "{<id>VocabularyEntryRelation | + hasRelationSpecification : RelationSpecification \l + semantic : ExternalControlledVocabularyEntry \l + totality : TotalityType \l \l \l| <VocabularyEntryRelation_source_association> source \l| <VocabularyEntryRelation_target_association> target \l| <VocabularyEntryRelation_realizes_association> realizes \l \l}"

  tooltip = "StructuredDataTypes:VocabularyEntryRelation"

href = "VocabularyEntryRelation.html"
]

DDI4_WebLink [
  label = "{<id>WebLink | + isPreferred :  \l + uri :  \l + typeOfWebsite : ExternalControlledVocabularyEntry \l + effectiveDates : DateRange \l + privacy : ExternalControlledVocabularyEntry \l \l \l| \l \l}"

  tooltip = "StructuredDataTypes:WebLink"

href = "WebLink.html"
]

DDI4_WorkflowStepOrder [
  label = "{<id>WorkflowStepOrder | + index :  \l \l \l| <WorkflowStepOrder_indexedWorkflowStep_association> indexedWorkflowStep \l \l}"

  tooltip = "StructuredDataTypes:WorkflowStepOrder"

href = "WorkflowStepOrder.html"
]

subgraph Conceptual {
label = "Conceptual"    

  node [ color = "#0000ff" ]

DDI4_Category [
  label = "{<id>DDI_Category}"

  tooltip = "Conceptual:Category"

href = "../Conceptual/Category.html"
]

DDI4_Concept [
  label = "{<id>DDI_Concept}"

  tooltip = "Conceptual:Concept"

href = "../Conceptual/Concept.html"
]

DDI4_ConceptualVariable [
  label = "{<id>DDI_ConceptualVariable}"

  tooltip = "Conceptual:ConceptualVariable"

href = "../Conceptual/ConceptualVariable.html"
]

DDI4_InstanceVariable [
  label = "{<id>DDI_InstanceVariable}"

  tooltip = "Conceptual:InstanceVariable"

href = "../Conceptual/InstanceVariable.html"
]

DDI4_UnitType [
  label = "{<id>DDI_UnitType}"

  tooltip = "Conceptual:UnitType"

href = "../Conceptual/UnitType.html"
]

DDI4_Universe [
  label = "{<id>DDI_Universe}"

  tooltip = "Conceptual:Universe"

href = "../Conceptual/Universe.html"
]

}

subgraph SignificationPattern {
label = "SignificationPattern"    

  node [ color = "#0000ff" ]

DDI4_Signifier [
  label = "{<id>DDI_Signifier}"

  tooltip = "SignificationPattern:Signifier"

href = "../SignificationPattern/Signifier.html"
]

}

subgraph GeographicClassification {
label = "GeographicClassification"    

  node [ color = "#0000ff" ]

DDI4_GeographicUnit [
  label = "{<id>DDI_GeographicUnit}"

  tooltip = "GeographicClassification:GeographicUnit"

href = "../GeographicClassification/GeographicUnit.html"
]

}

subgraph FormatDescription {
label = "FormatDescription"    

  node [ color = "#0000ff" ]

DDI4_PhysicalRecordSegment [
  label = "{<id>DDI_PhysicalRecordSegment}"

  tooltip = "FormatDescription:PhysicalRecordSegment"

href = "../FormatDescription/PhysicalRecordSegment.html"
]

DDI4_ValueMapping [
  label = "{<id>DDI_ValueMapping}"

  tooltip = "FormatDescription:ValueMapping"

href = "../FormatDescription/ValueMapping.html"
]

}

subgraph CustomMetadata {
label = "CustomMetadata"    

  node [ color = "#0000ff" ]

DDI4_CustomItem [
  label = "{<id>DDI_CustomItem}"

  tooltip = "CustomMetadata:CustomItem"

href = "../CustomMetadata/CustomItem.html"
]

DDI4_CustomValue [
  label = "{<id>DDI_CustomValue}"

  tooltip = "CustomMetadata:CustomValue"

href = "../CustomMetadata/CustomValue.html"
]

DDI4_VocabularyEntry [
  label = "{<id>DDI_VocabularyEntry}"

  tooltip = "CustomMetadata:VocabularyEntry"

href = "../CustomMetadata/VocabularyEntry.html"
]

}

subgraph StudyRelated {
label = "StudyRelated"    

  node [ color = "#0000ff" ]

DDI4_Study [
  label = "{<id>DDI_Study}"

  tooltip = "StudyRelated:Study"

href = "../StudyRelated/Study.html"
]

}

subgraph BusinessWorkflow {
label = "BusinessWorkflow"    

  node [ color = "#0000ff" ]

DDI4_BusinessProcess [
  label = "{<id>DDI_BusinessProcess}"

  tooltip = "BusinessWorkflow:BusinessProcess"

href = "../BusinessWorkflow/BusinessProcess.html"
]

}

subgraph Workflows {
label = "Workflows"    

  node [ color = "#0000ff" ]

DDI4_Parameter [
  label = "{<id>DDI_Parameter}"

  tooltip = "Workflows:Parameter"

href = "../Workflows/Parameter.html"
]

DDI4_WorkflowStep [
  label = "{<id>DDI_WorkflowStep}"

  tooltip = "Workflows:WorkflowStep"

href = "../Workflows/WorkflowStep.html"
]

DDI4_WorkflowStepSequence [
  label = "{<id>DDI_WorkflowStepSequence}"

  tooltip = "Workflows:WorkflowStepSequence"

href = "../Workflows/WorkflowStepSequence.html"
]

}

subgraph CollectionsPattern {
label = "CollectionsPattern"    

  node [ color = "#0000ff" ]

DDI4_ComparisonMap [
  label = "{<id>DDI_ComparisonMap}"

  tooltip = "CollectionsPattern:ComparisonMap"

href = "../CollectionsPattern/ComparisonMap.html"
]

DDI4_MemberIndicator [
  label = "{<id>DDI_MemberIndicator}"

  tooltip = "CollectionsPattern:MemberIndicator"

href = "../CollectionsPattern/MemberIndicator.html"
]

DDI4_MemberRelation [
  label = "{<id>DDI_MemberRelation}"

  tooltip = "CollectionsPattern:MemberRelation"

href = "../CollectionsPattern/MemberRelation.html"
]

}

subgraph Identification {
label = "Identification"    

  node [ color = "#0000ff" ]

DDI4_Identifiable [
  label = "{<id>DDI_Identifiable}"

  tooltip = "Identification:Identifiable"

href = "../Identification/Identifiable.html"
]

}

subgraph LogicalDataDescription {
label = "LogicalDataDescription"    

  node [ color = "#0000ff" ]

DDI4_DataPoint [
  label = "{<id>DDI_DataPoint}"

  tooltip = "LogicalDataDescription:DataPoint"

href = "../LogicalDataDescription/DataPoint.html"
]

DDI4_DataStore [
  label = "{<id>DDI_DataStore}"

  tooltip = "LogicalDataDescription:DataStore"

href = "../LogicalDataDescription/DataStore.html"
]

DDI4_LogicalRecord [
  label = "{<id>DDI_LogicalRecord}"

  tooltip = "LogicalDataDescription:LogicalRecord"

href = "../LogicalDataDescription/LogicalRecord.html"
]

}

subgraph Agents {
label = "Agents"    

  node [ color = "#0000ff" ]

DDI4_Agent [
  label = "{<id>DDI_Agent}"

  tooltip = "Agents:Agent"

href = "../Agents/Agent.html"
]

}

subgraph Representations {
label = "Representations"    

  node [ color = "#0000ff" ]

DDI4_ClassificationIndexEntry [
  label = "{<id>DDI_ClassificationIndexEntry}"

  tooltip = "Representations:ClassificationIndexEntry"

href = "../Representations/ClassificationIndexEntry.html"
]

DDI4_ClassificationItem [
  label = "{<id>DDI_ClassificationItem}"

  tooltip = "Representations:ClassificationItem"

href = "../Representations/ClassificationItem.html"
]

DDI4_ClassificationSeries [
  label = "{<id>DDI_ClassificationSeries}"

  tooltip = "Representations:ClassificationSeries"

href = "../Representations/ClassificationSeries.html"
]

DDI4_Code [
  label = "{<id>DDI_Code}"

  tooltip = "Representations:Code"

href = "../Representations/Code.html"
]

DDI4_Designation [
  label = "{<id>DDI_Designation}"

  tooltip = "Representations:Designation"

href = "../Representations/Designation.html"
]

DDI4_StatisticalClassification [
  label = "{<id>DDI_StatisticalClassification}"

  tooltip = "Representations:StatisticalClassification"

href = "../Representations/StatisticalClassification.html"
]

}

DDI4_AccessLocation -> DDI4_ [arrowhead=onormal color="#000000"];

DDI4_Address -> DDI4_ [arrowhead=onormal color="#000000"];

DDI4_AgentAssociation -> DDI4_ [arrowhead=onormal color="#000000"];

  DDI4_AgentAssociation:AgentAssociation_associatedAgent_association -> DDI4_Agent [ arrowhead=none arrowtail=odiamond labeldistance=1.9 taillabel="0..n" headlabel="0..1" edgetooltip="associatedAgent" fontcolor="black" color="#00000"];

DDI4_AgentId -> DDI4_ [arrowhead=onormal color="#000000"];

DDI4_AgentIndicator -> DDI4_ [arrowhead=onormal color="#000000"];

  DDI4_AgentIndicator:AgentIndicator_member_association -> DDI4_Agent [ arrowhead=none arrowtail=diamond labeldistance=1.9 taillabel="0..n" headlabel="1..1" edgetooltip="member" fontcolor="black" color="#00000"];

  DDI4_AgentIndicator:AgentIndicator_realizes_association -> DDI4_MemberIndicator [ arrowhead=none arrowtail=none  edgetooltip="realizes" fontcolor="black" color="#00000"];

DDI4_AgentRelation -> DDI4_ [arrowhead=onormal color="#000000"];

  DDI4_AgentRelation:AgentRelation_source_association -> DDI4_Agent [ arrowhead=none arrowtail=diamond labeldistance=1.9 taillabel="0..n" headlabel="1..1" edgetooltip="source" fontcolor="black" color="#00000"];

  DDI4_AgentRelation:AgentRelation_target_association -> DDI4_Agent [ arrowhead=none arrowtail=diamond labeldistance=1.9 taillabel="0..n" headlabel="1..1" edgetooltip="target" fontcolor="black" color="#00000"];

  DDI4_AgentRelation:AgentRelation_realizes_association -> DDI4_MemberRelation [ arrowhead=none arrowtail=none  edgetooltip="realizes" fontcolor="black" color="#00000"];

DDI4_Annotation -> DDI4_ [arrowhead=onormal color="#000000"];

DDI4_AnnotationDate -> DDI4_Date [arrowhead=onormal color="#000000"];

DDI4_AreaCoverage -> DDI4_ [arrowhead=onormal color="#000000"];

DDI4_AudioSegment -> DDI4_ [arrowhead=onormal color="#000000"];

DDI4_BasedOnObjectInformation -> DDI4_ [arrowhead=onormal color="#000000"];

  DDI4_BasedOnObjectInformation:BasedOnObjectInformation_basedOn_association -> DDI4_Identifiable [ arrowhead=none arrowtail=diamond labeldistance=1.9 taillabel="0..n" headlabel="1..n" edgetooltip="basedOn" fontcolor="black" color="#00000"];

DDI4_BibliographicName -> DDI4_InternationalString [arrowhead=onormal color="#000000"];

DDI4_Binding -> DDI4_ [arrowhead=onormal color="#000000"];

  DDI4_Binding:Binding_fromParameter_association -> DDI4_Parameter [ arrowhead=none arrowtail=diamond labeldistance=1.9 taillabel="0..n" headlabel="1..1" edgetooltip="fromParameter" fontcolor="black" color="#00000"];

  DDI4_Binding:Binding_toParameter_association -> DDI4_Parameter [ arrowhead=none arrowtail=diamond labeldistance=1.9 taillabel="0..n" headlabel="1..1" edgetooltip="toParameter" fontcolor="black" color="#00000"];

DDI4_BusinessProcessCondition -> DDI4_ [arrowhead=onormal color="#000000"];

  DDI4_BusinessProcessCondition:BusinessProcessCondition_usesLogicalRecord_association -> DDI4_LogicalRecord [ arrowhead=none arrowtail=odiamond labeldistance=1.9 taillabel="0..n" headlabel="0..1" edgetooltip="usesLogicalRecord" fontcolor="black" color="#00000"];

DDI4_BusinessProcessIndicator -> DDI4_ [arrowhead=onormal color="#000000"];

  DDI4_BusinessProcessIndicator:BusinessProcessIndicator_member_association -> DDI4_BusinessProcess [ arrowhead=none arrowtail=diamond labeldistance=1.9 taillabel="0..n" headlabel="1..1" edgetooltip="member" fontcolor="black" color="#00000"];

  DDI4_BusinessProcessIndicator:BusinessProcessIndicator_realizes_association -> DDI4_MemberIndicator [ arrowhead=none arrowtail=none  edgetooltip="realizes" fontcolor="black" color="#00000"];

DDI4_CategoryIndicator -> DDI4_ [arrowhead=onormal color="#000000"];

  DDI4_CategoryIndicator:CategoryIndicator_member_association -> DDI4_Category [ arrowhead=none arrowtail=diamond labeldistance=1.9 taillabel="0..n" headlabel="1..1" edgetooltip="member" fontcolor="black" color="#00000"];

  DDI4_CategoryIndicator:CategoryIndicator_realizes_association -> DDI4_MemberIndicator [ arrowhead=none arrowtail=none  edgetooltip="realizes" fontcolor="black" color="#00000"];

DDI4_CategoryRelation -> DDI4_ [arrowhead=onormal color="#000000"];

  DDI4_CategoryRelation:CategoryRelation_realizes_association -> DDI4_MemberRelation [ arrowhead=none arrowtail=none  edgetooltip="realizes" fontcolor="black" color="#00000"];

  DDI4_CategoryRelation:CategoryRelation_source_association -> DDI4_Category [ arrowhead=none arrowtail=diamond labeldistance=1.9 taillabel="0..n" headlabel="1..1" edgetooltip="source" fontcolor="black" color="#00000"];

  DDI4_CategoryRelation:CategoryRelation_target_association -> DDI4_Category [ arrowhead=none arrowtail=odiamond labeldistance=1.9 taillabel="0..n" headlabel="0..n" edgetooltip="target" fontcolor="black" color="#00000"];

DDI4_CategoryStatistic -> DDI4_ [arrowhead=onormal color="#000000"];

  DDI4_CategoryStatistic:CategoryStatistic_forCodeItem_association -> DDI4_Designation [ arrowhead=none arrowtail=odiamond labeldistance=1.9 taillabel="0..n" headlabel="0..1" edgetooltip="forCodeItem" fontcolor="black" color="#00000"];

DDI4_CharacterOffset -> DDI4_ [arrowhead=onormal color="#000000"];

DDI4_ClassificationIndexEntryIndicator -> DDI4_ [arrowhead=onormal color="#000000"];

  DDI4_ClassificationIndexEntryIndicator:ClassificationIndexEntryIndicator_member_association -> DDI4_ClassificationIndexEntry [ arrowhead=none arrowtail=diamond labeldistance=1.9 taillabel="0..n" headlabel="1..1" edgetooltip="member" fontcolor="black" color="#00000"];

  DDI4_ClassificationIndexEntryIndicator:ClassificationIndexEntryIndicator_realizes_association -> DDI4_MemberIndicator [ arrowhead=none arrowtail=none  edgetooltip="realizes" fontcolor="black" color="#00000"];

DDI4_ClassificationItemIndicator -> DDI4_ [arrowhead=onormal color="#000000"];

  DDI4_ClassificationItemIndicator:ClassificationItemIndicator_member_association -> DDI4_ClassificationItem [ arrowhead=none arrowtail=diamond labeldistance=1.9 taillabel="0..n" headlabel="1..1" edgetooltip="member" fontcolor="black" color="#00000"];

  DDI4_ClassificationItemIndicator:ClassificationItemIndicator_realizes_association -> DDI4_MemberIndicator [ arrowhead=none arrowtail=none  edgetooltip="realizes" fontcolor="black" color="#00000"];

DDI4_ClassificationItemRelation -> DDI4_ [arrowhead=onormal color="#000000"];

  DDI4_ClassificationItemRelation:ClassificationItemRelation_realizes_association -> DDI4_MemberRelation [ arrowhead=none arrowtail=none  edgetooltip="realizes" fontcolor="black" color="#00000"];

  DDI4_ClassificationItemRelation:ClassificationItemRelation_source_association -> DDI4_ClassificationItem [ arrowhead=none arrowtail=diamond labeldistance=1.9 taillabel="0..n" headlabel="1..1" edgetooltip="source" fontcolor="black" color="#00000"];

  DDI4_ClassificationItemRelation:ClassificationItemRelation_target_association -> DDI4_ClassificationItem [ arrowhead=none arrowtail=odiamond labeldistance=1.9 taillabel="0..n" headlabel="0..n" edgetooltip="target" fontcolor="black" color="#00000"];

DDI4_ClassificationSeriesIndicator -> DDI4_ [arrowhead=onormal color="#000000"];

  DDI4_ClassificationSeriesIndicator:ClassificationSeriesIndicator_member_association -> DDI4_ClassificationSeries [ arrowhead=none arrowtail=diamond labeldistance=1.9 taillabel="0..n" headlabel="1..1" edgetooltip="member" fontcolor="black" color="#00000"];

  DDI4_ClassificationSeriesIndicator:ClassificationSeriesIndicator_realizes_association -> DDI4_MemberIndicator [ arrowhead=none arrowtail=none  edgetooltip="realizes" fontcolor="black" color="#00000"];

DDI4_ClassificationSeriesRelation -> DDI4_ [arrowhead=onormal color="#000000"];

  DDI4_ClassificationSeriesRelation:ClassificationSeriesRelation_source_association -> DDI4_ClassificationSeries [ arrowhead=none arrowtail=odiamond labeldistance=1.9 taillabel="0..n" headlabel="0..1" edgetooltip="source" fontcolor="black" color="#00000"];

  DDI4_ClassificationSeriesRelation:ClassificationSeriesRelation_target_association -> DDI4_ClassificationSeries [ arrowhead=none arrowtail=odiamond labeldistance=1.9 taillabel="0..n" headlabel="0..n" edgetooltip="target" fontcolor="black" color="#00000"];

  DDI4_ClassificationSeriesRelation:ClassificationSeriesRelation_realizes_association -> DDI4_MemberRelation [ arrowhead=none arrowtail=none  edgetooltip="realizes" fontcolor="black" color="#00000"];

DDI4_CodeIndicator -> DDI4_ [arrowhead=onormal color="#000000"];

  DDI4_CodeIndicator:CodeIndicator_member_association -> DDI4_Code [ arrowhead=none arrowtail=diamond labeldistance=1.9 taillabel="0..n" headlabel="1..1" edgetooltip="member" fontcolor="black" color="#00000"];

  DDI4_CodeIndicator:CodeIndicator_realizes_association -> DDI4_MemberIndicator [ arrowhead=none arrowtail=none  edgetooltip="realizes" fontcolor="black" color="#00000"];

DDI4_CodeRelation -> DDI4_ [arrowhead=onormal color="#000000"];

  DDI4_CodeRelation:CodeRelation_realizes_association -> DDI4_MemberRelation [ arrowhead=none arrowtail=none  edgetooltip="realizes" fontcolor="black" color="#00000"];

  DDI4_CodeRelation:CodeRelation_source_association -> DDI4_Code [ arrowhead=none arrowtail=diamond labeldistance=1.9 taillabel="0..n" headlabel="1..1" edgetooltip="source" fontcolor="black" color="#00000"];

  DDI4_CodeRelation:CodeRelation_target_association -> DDI4_Code [ arrowhead=none arrowtail=odiamond labeldistance=1.9 taillabel="0..n" headlabel="0..n" edgetooltip="target" fontcolor="black" color="#00000"];

DDI4_Command -> DDI4_ [arrowhead=onormal color="#000000"];

DDI4_CommandCode -> DDI4_ [arrowhead=onormal color="#000000"];

DDI4_CommandFile -> DDI4_ [arrowhead=onormal color="#000000"];

DDI4_ConceptIndicator -> DDI4_ [arrowhead=onormal color="#000000"];

  DDI4_ConceptIndicator:ConceptIndicator_member_association -> DDI4_Concept [ arrowhead=none arrowtail=diamond labeldistance=1.9 taillabel="0..n" headlabel="1..1" edgetooltip="member" fontcolor="black" color="#00000"];

  DDI4_ConceptIndicator:ConceptIndicator_realizes_association -> DDI4_MemberIndicator [ arrowhead=none arrowtail=none  edgetooltip="realizes" fontcolor="black" color="#00000"];

DDI4_ConceptRelation -> DDI4_ [arrowhead=onormal color="#000000"];

  DDI4_ConceptRelation:ConceptRelation_source_association -> DDI4_Concept [ arrowhead=none arrowtail=diamond labeldistance=1.9 taillabel="0..n" headlabel="1..1" edgetooltip="source" fontcolor="black" color="#00000"];

  DDI4_ConceptRelation:ConceptRelation_target_association -> DDI4_Concept [ arrowhead=none arrowtail=diamond labeldistance=1.9 taillabel="0..n" headlabel="1..1" edgetooltip="target" fontcolor="black" color="#00000"];

  DDI4_ConceptRelation:ConceptRelation_realizes_association -> DDI4_MemberRelation [ arrowhead=none arrowtail=none  edgetooltip="realizes" fontcolor="black" color="#00000"];

DDI4_ConditionalText -> DDI4_DynamicTextContent [arrowhead=onormal color="#000000"];

DDI4_ContactInformation -> DDI4_ [arrowhead=onormal color="#000000"];

DDI4_ContentDateOffset -> DDI4_ExternalControlledVocabularyEntry [arrowhead=onormal color="#000000"];

DDI4_CorrespondenceType -> DDI4_ [arrowhead=onormal color="#000000"];

DDI4_CustomItemIndicator -> DDI4_ [arrowhead=onormal color="#000000"];

  DDI4_CustomItemIndicator:CustomItemIndicator_member_association -> DDI4_CustomItem [ arrowhead=none arrowtail=diamond labeldistance=1.9 taillabel="0..n" headlabel="1..1" edgetooltip="member" fontcolor="black" color="#00000"];

  DDI4_CustomItemIndicator:CustomItemIndicator_realizes_association -> DDI4_MemberIndicator [ arrowhead=none arrowtail=none  edgetooltip="realizes" fontcolor="black" color="#00000"];

DDI4_CustomItemRelation -> DDI4_ [arrowhead=onormal color="#000000"];

  DDI4_CustomItemRelation:CustomItemRelation_source_association -> DDI4_CustomItem [ arrowhead=none arrowtail=diamond labeldistance=1.9 taillabel="0..n" headlabel="1..1" edgetooltip="source" fontcolor="black" color="#00000"];

  DDI4_CustomItemRelation:CustomItemRelation_target_association -> DDI4_CustomItem [ arrowhead=none arrowtail=odiamond labeldistance=1.9 taillabel="0..n" headlabel="0..n" edgetooltip="target" fontcolor="black" color="#00000"];

  DDI4_CustomItemRelation:CustomItemRelation_realizes_association -> DDI4_MemberRelation [ arrowhead=none arrowtail=none  edgetooltip="realizes" fontcolor="black" color="#00000"];

DDI4_CustomValueIndicator -> DDI4_ [arrowhead=onormal color="#000000"];

  DDI4_CustomValueIndicator:CustomValueIndicator_member_association -> DDI4_CustomValue [ arrowhead=none arrowtail=diamond labeldistance=1.9 taillabel="0..n" headlabel="1..1" edgetooltip="member" fontcolor="black" color="#00000"];

  DDI4_CustomValueIndicator:CustomValueIndicator_realizes_association -> DDI4_MemberIndicator [ arrowhead=none arrowtail=none  edgetooltip="realizes" fontcolor="black" color="#00000"];

DDI4_DataPointIndicator -> DDI4_ [arrowhead=onormal color="#000000"];

  DDI4_DataPointIndicator:DataPointIndicator_member_association -> DDI4_DataPoint [ arrowhead=none arrowtail=diamond labeldistance=1.9 taillabel="0..n" headlabel="1..1" edgetooltip="member" fontcolor="black" color="#00000"];

  DDI4_DataPointIndicator:DataPointIndicator_realizes_association -> DDI4_MemberIndicator [ arrowhead=none arrowtail=none  edgetooltip="realizes" fontcolor="black" color="#00000"];

DDI4_DataPointRelation -> DDI4_ [arrowhead=onormal color="#000000"];

  DDI4_DataPointRelation:DataPointRelation_source_association -> DDI4_DataPoint [ arrowhead=none arrowtail=odiamond labeldistance=1.9 taillabel="0..n" headlabel="0..n" edgetooltip="source" fontcolor="black" color="#00000"];

  DDI4_DataPointRelation:DataPointRelation_target_association -> DDI4_DataPoint [ arrowhead=none arrowtail=odiamond labeldistance=1.9 taillabel="0..n" headlabel="0..n" edgetooltip="target" fontcolor="black" color="#00000"];

  DDI4_DataPointRelation:DataPointRelation_realizes_association -> DDI4_MemberRelation [ arrowhead=none arrowtail=none  edgetooltip="realizes" fontcolor="black" color="#00000"];

DDI4_DataStoreIndicator -> DDI4_ [arrowhead=onormal color="#000000"];

  DDI4_DataStoreIndicator:DataStoreIndicator_member_association -> DDI4_DataStore [ arrowhead=none arrowtail=diamond labeldistance=1.9 taillabel="0..n" headlabel="1..1" edgetooltip="member" fontcolor="black" color="#00000"];

  DDI4_DataStoreIndicator:DataStoreIndicator_realizes_association -> DDI4_MemberIndicator [ arrowhead=none arrowtail=none  edgetooltip="realizes" fontcolor="black" color="#00000"];

DDI4_DataStoreRelation -> DDI4_ [arrowhead=onormal color="#000000"];

  DDI4_DataStoreRelation:DataStoreRelation_source_association -> DDI4_DataStore [ arrowhead=none arrowtail=odiamond labeldistance=1.9 taillabel="0..n" headlabel="0..n" edgetooltip="source" fontcolor="black" color="#00000"];

  DDI4_DataStoreRelation:DataStoreRelation_target_association -> DDI4_DataStore [ arrowhead=none arrowtail=odiamond labeldistance=1.9 taillabel="0..n" headlabel="0..n" edgetooltip="target" fontcolor="black" color="#00000"];

  DDI4_DataStoreRelation:DataStoreRelation_realizes_association -> DDI4_MemberRelation [ arrowhead=none arrowtail=none  edgetooltip="realizes" fontcolor="black" color="#00000"];

DDI4_Date -> DDI4_ [arrowhead=onormal color="#000000"];

DDI4_DateRange -> DDI4_ [arrowhead=onormal color="#000000"];

DDI4_DoubleNumberRangeValue -> DDI4_ [arrowhead=onormal color="#000000"];

DDI4_DynamicText -> DDI4_ [arrowhead=onormal color="#000000"];

DDI4_DynamicTextContent -> DDI4_ [arrowhead=onormal color="#000000"];

DDI4_ElectronicMessageSystem -> DDI4_ [arrowhead=onormal color="#000000"];

DDI4_ElseIfAction -> DDI4_ [arrowhead=onormal color="#000000"];

  DDI4_ElseIfAction:ElseIfAction_executes_association -> DDI4_WorkflowStepSequence [ arrowhead=none arrowtail=odiamond labeldistance=1.9 taillabel="0..n" headlabel="0..1" edgetooltip="executes" fontcolor="black" color="#00000"];

DDI4_Email -> DDI4_ [arrowhead=onormal color="#000000"];

DDI4_ExternalControlledVocabularyEntry -> DDI4_ [arrowhead=onormal color="#000000"];

DDI4_FixedText -> DDI4_LanguageSpecificStructuredStringType [arrowhead=onormal color="#000000"];

DDI4_Form -> DDI4_ [arrowhead=onormal color="#000000"];

DDI4_GeographicUnitIndicator -> DDI4_ [arrowhead=onormal color="#000000"];

  DDI4_GeographicUnitIndicator:GeographicUnitIndicator_member_association -> DDI4_GeographicUnit [ arrowhead=none arrowtail=diamond labeldistance=1.9 taillabel="0..n" headlabel="1..1" edgetooltip="member" fontcolor="black" color="#00000"];

  DDI4_GeographicUnitIndicator:GeographicUnitIndicator_realizes_association -> DDI4_MemberIndicator [ arrowhead=none arrowtail=none  edgetooltip="realizes" fontcolor="black" color="#00000"];

DDI4_GeographicUnitRelation -> DDI4_ [arrowhead=onormal color="#000000"];

  DDI4_GeographicUnitRelation:GeographicUnitRelation_source_association -> DDI4_GeographicUnit [ arrowhead=none arrowtail=odiamond labeldistance=1.9 taillabel="0..n" headlabel="0..1" edgetooltip="source" fontcolor="black" color="#00000"];

  DDI4_GeographicUnitRelation:GeographicUnitRelation_target_association -> DDI4_GeographicUnit [ arrowhead=none arrowtail=odiamond labeldistance=1.9 taillabel="0..n" headlabel="0..n" edgetooltip="target" fontcolor="black" color="#00000"];

  DDI4_GeographicUnitRelation:GeographicUnitRelation_realizes_association -> DDI4_MemberRelation [ arrowhead=none arrowtail=none  edgetooltip="realizes" fontcolor="black" color="#00000"];

DDI4_GeographicUnitTypeIndicator -> DDI4_ [arrowhead=onormal color="#000000"];

  DDI4_GeographicUnitTypeIndicator:GeographicUnitTypeIndicator_member_association -> DDI4_UnitType [ arrowhead=none arrowtail=diamond labeldistance=1.9 taillabel="0..n" headlabel="1..1" edgetooltip="member" fontcolor="black" color="#00000"];

  DDI4_GeographicUnitTypeIndicator:GeographicUnitTypeIndicator_realizes_association -> DDI4_MemberIndicator [ arrowhead=none arrowtail=none  edgetooltip="realizes" fontcolor="black" color="#00000"];

DDI4_GeographicUnitTypeRelation -> DDI4_ [arrowhead=onormal color="#000000"];

  DDI4_GeographicUnitTypeRelation:GeographicUnitTypeRelation_realizes_association -> DDI4_MemberRelation [ arrowhead=none arrowtail=none  edgetooltip="realizes" fontcolor="black" color="#00000"];

  DDI4_GeographicUnitTypeRelation:GeographicUnitTypeRelation_source_association -> DDI4_UnitType [ arrowhead=none arrowtail=odiamond labeldistance=1.9 taillabel="0..n" headlabel="0..1" edgetooltip="source" fontcolor="black" color="#00000"];

  DDI4_GeographicUnitTypeRelation:GeographicUnitTypeRelation_target_association -> DDI4_UnitType [ arrowhead=none arrowtail=odiamond labeldistance=1.9 taillabel="0..n" headlabel="0..n" edgetooltip="target" fontcolor="black" color="#00000"];

DDI4_Image -> DDI4_ [arrowhead=onormal color="#000000"];

DDI4_ImageArea -> DDI4_ [arrowhead=onormal color="#000000"];

DDI4_IndexEntryRelation -> DDI4_ [arrowhead=onormal color="#000000"];

  DDI4_IndexEntryRelation:IndexEntryRelation_source_association -> DDI4_ClassificationIndexEntry [ arrowhead=none arrowtail=diamond labeldistance=1.9 taillabel="0..n" headlabel="1..1" edgetooltip="source" fontcolor="black" color="#00000"];

  DDI4_IndexEntryRelation:IndexEntryRelation_target_association -> DDI4_ClassificationIndexEntry [ arrowhead=none arrowtail=diamond labeldistance=1.9 taillabel="0..n" headlabel="1..1" edgetooltip="target" fontcolor="black" color="#00000"];

  DDI4_IndexEntryRelation:IndexEntryRelation_realizes_association -> DDI4_MemberRelation [ arrowhead=none arrowtail=none  edgetooltip="realizes" fontcolor="black" color="#00000"];

DDI4_IndividualName -> DDI4_ [arrowhead=onormal color="#000000"];

DDI4_InstanceVariableIndicator -> DDI4_ [arrowhead=onormal color="#000000"];

  DDI4_InstanceVariableIndicator:InstanceVariableIndicator_member_association -> DDI4_InstanceVariable [ arrowhead=none arrowtail=diamond labeldistance=1.9 taillabel="0..n" headlabel="1..1" edgetooltip="member" fontcolor="black" color="#00000"];

  DDI4_InstanceVariableIndicator:InstanceVariableIndicator_realizes_association -> DDI4_MemberIndicator [ arrowhead=none arrowtail=none  edgetooltip="realizes" fontcolor="black" color="#00000"];

DDI4_InstanceVariableRelation -> DDI4_ [arrowhead=onormal color="#000000"];

  DDI4_InstanceVariableRelation:InstanceVariableRelation_realizes_association -> DDI4_MemberRelation [ arrowhead=none arrowtail=none  edgetooltip="realizes" fontcolor="black" color="#00000"];

  DDI4_InstanceVariableRelation:InstanceVariableRelation_source_association -> DDI4_InstanceVariable [ arrowhead=none arrowtail=diamond labeldistance=1.9 taillabel="0..n" headlabel="1..1" edgetooltip="source" fontcolor="black" color="#00000"];

  DDI4_InstanceVariableRelation:InstanceVariableRelation_target_association -> DDI4_InstanceVariable [ arrowhead=none arrowtail=odiamond labeldistance=1.9 taillabel="0..n" headlabel="0..n" edgetooltip="target" fontcolor="black" color="#00000"];

DDI4_InstanceVariableValueMap -> DDI4_ [arrowhead=onormal color="#000000"];

  DDI4_InstanceVariableValueMap:InstanceVariableValueMap_source_association -> DDI4_InstanceVariable [ arrowhead=none arrowtail=diamond labeldistance=1.9 taillabel="0..n" headlabel="1..n" edgetooltip="source" fontcolor="black" color="#00000"];

  DDI4_InstanceVariableValueMap:InstanceVariableValueMap_target_association -> DDI4_InstanceVariable [ arrowhead=none arrowtail=odiamond labeldistance=1.9 taillabel="0..n" headlabel="0..n" edgetooltip="target" fontcolor="black" color="#00000"];

  DDI4_InstanceVariableValueMap:InstanceVariableValueMap_realizes_association -> DDI4_ComparisonMap [ arrowhead=none arrowtail=none  edgetooltip="realizes" fontcolor="black" color="#00000"];

DDI4_InternationalIdentifier -> DDI4_ [arrowhead=onormal color="#000000"];

DDI4_InternationalString -> DDI4_ [arrowhead=onormal color="#000000"];

DDI4_InternationalStructuredString -> DDI4_ [arrowhead=onormal color="#000000"];

DDI4_LabelForDisplay -> DDI4_InternationalStructuredString [arrowhead=onormal color="#000000"];

DDI4_LanguageSpecificStringType -> DDI4_ [arrowhead=onormal color="#000000"];

DDI4_LanguageSpecificStructuredStringType -> DDI4_LanguageSpecificStringType [arrowhead=onormal color="#000000"];

DDI4_Level -> DDI4_ [arrowhead=onormal color="#000000"];

  DDI4_Level:Level_definedBy_association -> DDI4_Concept [ arrowhead=none arrowtail=odiamond labeldistance=1.9 taillabel="0..n" headlabel="0..1" edgetooltip="definedBy" fontcolor="black" color="#00000"];

DDI4_LineParameter -> DDI4_ [arrowhead=onormal color="#000000"];

DDI4_LiteralText -> DDI4_DynamicTextContent [arrowhead=onormal color="#000000"];

DDI4_LocalIdFormat -> DDI4_ [arrowhead=onormal color="#000000"];

DDI4_LocationName -> DDI4_ObjectName [arrowhead=onormal color="#000000"];

DDI4_LogicalRecordIndicator -> DDI4_ [arrowhead=onormal color="#000000"];

  DDI4_LogicalRecordIndicator:LogicalRecordIndicator_member_association -> DDI4_LogicalRecord [ arrowhead=none arrowtail=diamond labeldistance=1.9 taillabel="0..n" headlabel="1..1" edgetooltip="member" fontcolor="black" color="#00000"];

  DDI4_LogicalRecordIndicator:LogicalRecordIndicator_realizes_association -> DDI4_MemberIndicator [ arrowhead=none arrowtail=none  edgetooltip="realizes" fontcolor="black" color="#00000"];

DDI4_LogicalRecordRelation -> DDI4_ [arrowhead=onormal color="#000000"];

  DDI4_LogicalRecordRelation:LogicalRecordRelation_source_association -> DDI4_LogicalRecord [ arrowhead=none arrowtail=odiamond labeldistance=1.9 taillabel="0..n" headlabel="0..1" edgetooltip="source" fontcolor="black" color="#00000"];

  DDI4_LogicalRecordRelation:LogicalRecordRelation_target_association -> DDI4_LogicalRecord [ arrowhead=none arrowtail=odiamond labeldistance=1.9 taillabel="0..n" headlabel="0..n" edgetooltip="target" fontcolor="black" color="#00000"];

  DDI4_LogicalRecordRelation:LogicalRecordRelation_realizes_association -> DDI4_MemberRelation [ arrowhead=none arrowtail=none  edgetooltip="realizes" fontcolor="black" color="#00000"];

DDI4_Map -> DDI4_ [arrowhead=onormal color="#000000"];

  DDI4_Map:Map_source_association -> DDI4_Concept [ arrowhead=none arrowtail=diamond labeldistance=1.9 taillabel="0..n" headlabel="1..n" edgetooltip="source" fontcolor="black" color="#00000"];

  DDI4_Map:Map_target_association -> DDI4_Concept [ arrowhead=none arrowtail=diamond labeldistance=1.9 taillabel="0..n" headlabel="1..n" edgetooltip="target" fontcolor="black" color="#00000"];

  DDI4_Map:Map_realizes_association -> DDI4_ComparisonMap [ arrowhead=none arrowtail=none  edgetooltip="realizes" fontcolor="black" color="#00000"];

DDI4_NonIsoDateType -> DDI4_ [arrowhead=onormal color="#000000"];

DDI4_NumberRange -> DDI4_ [arrowhead=onormal color="#000000"];

DDI4_NumberRangeValue -> DDI4_ [arrowhead=onormal color="#000000"];

DDI4_ObjectName -> DDI4_ [arrowhead=onormal color="#000000"];

DDI4_OrganizationName -> DDI4_ObjectName [arrowhead=onormal color="#000000"];

DDI4_PairedExternalControlledVocabularyEntry -> DDI4_ [arrowhead=onormal color="#000000"];

DDI4_PhysicalRecordSegmentIndicator -> DDI4_ [arrowhead=onormal color="#000000"];

  DDI4_PhysicalRecordSegmentIndicator:PhysicalRecordSegmentIndicator_member_association -> DDI4_PhysicalRecordSegment [ arrowhead=none arrowtail=diamond labeldistance=1.9 taillabel="0..n" headlabel="1..1" edgetooltip="member" fontcolor="black" color="#00000"];

  DDI4_PhysicalRecordSegmentIndicator:PhysicalRecordSegmentIndicator_realizes_association -> DDI4_MemberIndicator [ arrowhead=none arrowtail=none  edgetooltip="realizes" fontcolor="black" color="#00000"];

DDI4_PhysicalRecordSegmentRelation -> DDI4_ [arrowhead=onormal color="#000000"];

  DDI4_PhysicalRecordSegmentRelation:PhysicalRecordSegmentRelation_source_association -> DDI4_PhysicalRecordSegment [ arrowhead=none arrowtail=odiamond labeldistance=1.9 taillabel="0..n" headlabel="0..1" edgetooltip="source" fontcolor="black" color="#00000"];

  DDI4_PhysicalRecordSegmentRelation:PhysicalRecordSegmentRelation_target_association -> DDI4_PhysicalRecordSegment [ arrowhead=none arrowtail=odiamond labeldistance=1.9 taillabel="0..n" headlabel="0..n" edgetooltip="target" fontcolor="black" color="#00000"];

  DDI4_PhysicalRecordSegmentRelation:PhysicalRecordSegmentRelation_realizes_association -> DDI4_MemberRelation [ arrowhead=none arrowtail=none  edgetooltip="realizes" fontcolor="black" color="#00000"];

DDI4_Polygon -> DDI4_ [arrowhead=onormal color="#000000"];

DDI4_PrivateImage -> DDI4_Image [arrowhead=onormal color="#000000"];

DDI4_RangeValue -> DDI4_ValueString [arrowhead=onormal color="#000000"];

DDI4_RationaleDefinition -> DDI4_ [arrowhead=onormal color="#000000"];

DDI4_ReferenceDate -> DDI4_AnnotationDate [arrowhead=onormal color="#000000"];

DDI4_ResourceIdentifier -> DDI4_InternationalIdentifier [arrowhead=onormal color="#000000"];

DDI4_Segment -> DDI4_ [arrowhead=onormal color="#000000"];

DDI4_SpatialCoordinate -> DDI4_ [arrowhead=onormal color="#000000"];

DDI4_SpatialLine -> DDI4_ [arrowhead=onormal color="#000000"];

DDI4_SpatialPoint -> DDI4_ [arrowhead=onormal color="#000000"];

DDI4_SpatialRelationship -> DDI4_ [arrowhead=onormal color="#000000"];

  DDI4_SpatialRelationship:SpatialRelationship_relatesTo_association -> DDI4_GeographicUnit [ arrowhead=none arrowtail=odiamond labeldistance=1.9 taillabel="0..n" headlabel="0..1" edgetooltip="relatesTo" fontcolor="black" color="#00000"];

DDI4_Statistic -> DDI4_ [arrowhead=onormal color="#000000"];

DDI4_StatisticalClassificationIndicator -> DDI4_ [arrowhead=onormal color="#000000"];

  DDI4_StatisticalClassificationIndicator:StatisticalClassificationIndicator_member_association -> DDI4_StatisticalClassification [ arrowhead=none arrowtail=diamond labeldistance=1.9 taillabel="0..n" headlabel="1..1" edgetooltip="member" fontcolor="black" color="#00000"];

  DDI4_StatisticalClassificationIndicator:StatisticalClassificationIndicator_realizes_association -> DDI4_MemberIndicator [ arrowhead=none arrowtail=none  edgetooltip="realizes" fontcolor="black" color="#00000"];

DDI4_StatisticalClassificationRelation -> DDI4_ [arrowhead=onormal color="#000000"];

  DDI4_StatisticalClassificationRelation:StatisticalClassificationRelation_source_association -> DDI4_StatisticalClassification [ arrowhead=none arrowtail=odiamond labeldistance=1.9 taillabel="0..n" headlabel="0..n" edgetooltip="source" fontcolor="black" color="#00000"];

  DDI4_StatisticalClassificationRelation:StatisticalClassificationRelation_target_association -> DDI4_StatisticalClassification [ arrowhead=none arrowtail=odiamond labeldistance=1.9 taillabel="0..n" headlabel="0..n" edgetooltip="target" fontcolor="black" color="#00000"];

  DDI4_StatisticalClassificationRelation:StatisticalClassificationRelation_realizes_association -> DDI4_MemberRelation [ arrowhead=none arrowtail=none  edgetooltip="realizes" fontcolor="black" color="#00000"];

DDI4_StudyIndicator -> DDI4_ [arrowhead=onormal color="#000000"];

  DDI4_StudyIndicator:StudyIndicator_member_association -> DDI4_Study [ arrowhead=none arrowtail=odiamond labeldistance=1.9 taillabel="0..n" headlabel="0..1" edgetooltip="member" fontcolor="black" color="#00000"];

  DDI4_StudyIndicator:StudyIndicator_realizes_association -> DDI4_MemberIndicator [ arrowhead=none arrowtail=none  edgetooltip="realizes" fontcolor="black" color="#00000"];

DDI4_StudyRelation -> DDI4_ [arrowhead=onormal color="#000000"];

  DDI4_StudyRelation:StudyRelation_source_association -> DDI4_Study [ arrowhead=none arrowtail=odiamond labeldistance=1.9 taillabel="0..n" headlabel="0..1" edgetooltip="source" fontcolor="black" color="#00000"];

  DDI4_StudyRelation:StudyRelation_target_association -> DDI4_Study [ arrowhead=none arrowtail=odiamond labeldistance=1.9 taillabel="0..n" headlabel="0..n" edgetooltip="target" fontcolor="black" color="#00000"];

  DDI4_StudyRelation:StudyRelation_realizes_association -> DDI4_MemberRelation [ arrowhead=none arrowtail=none  edgetooltip="realizes" fontcolor="black" color="#00000"];

DDI4_SummaryStatistic -> DDI4_ [arrowhead=onormal color="#000000"];

DDI4_TargetSample -> DDI4_ [arrowhead=onormal color="#000000"];

  DDI4_TargetSample:TargetSample_hasUnitType_association -> DDI4_UnitType [ arrowhead=none arrowtail=odiamond labeldistance=1.9 taillabel="0..n" headlabel="0..1" edgetooltip="hasUnitType" fontcolor="black" color="#00000"];

  DDI4_TargetSample:TargetSample_fromUniverse_association -> DDI4_Universe [ arrowhead=none arrowtail=odiamond labeldistance=1.9 taillabel="0..n" headlabel="0..1" edgetooltip="fromUniverse" fontcolor="black" color="#00000"];

DDI4_Telephone -> DDI4_ [arrowhead=onormal color="#000000"];

DDI4_TextualSegment -> DDI4_ [arrowhead=onormal color="#000000"];

DDI4_TypedDescriptiveText -> DDI4_ [arrowhead=onormal color="#000000"];

DDI4_TypedString -> DDI4_ [arrowhead=onormal color="#000000"];

DDI4_ValueMappingIndicator -> DDI4_ [arrowhead=onormal color="#000000"];

  DDI4_ValueMappingIndicator:ValueMappingIndicator_member_association -> DDI4_ValueMapping [ arrowhead=none arrowtail=diamond labeldistance=1.9 taillabel="0..n" headlabel="1..1" edgetooltip="member" fontcolor="black" color="#00000"];

  DDI4_ValueMappingIndicator:ValueMappingIndicator_realizes_association -> DDI4_MemberIndicator [ arrowhead=none arrowtail=none  edgetooltip="realizes" fontcolor="black" color="#00000"];

DDI4_ValueMappingRelation -> DDI4_ [arrowhead=onormal color="#000000"];

  DDI4_ValueMappingRelation:ValueMappingRelation_realizes_association -> DDI4_MemberRelation [ arrowhead=none arrowtail=none  edgetooltip="realizes" fontcolor="black" color="#00000"];

  DDI4_ValueMappingRelation:ValueMappingRelation_source_association -> DDI4_ValueMapping [ arrowhead=none arrowtail=diamond labeldistance=1.9 taillabel="0..n" headlabel="1..1" edgetooltip="source" fontcolor="black" color="#00000"];

  DDI4_ValueMappingRelation:ValueMappingRelation_target_association -> DDI4_ValueMapping [ arrowhead=none arrowtail=diamond labeldistance=1.9 taillabel="0..n" headlabel="1..1" edgetooltip="target" fontcolor="black" color="#00000"];

DDI4_ValueString -> DDI4_ [arrowhead=onormal color="#000000"];

  DDI4_ValueString:ValueString_realizes_association -> DDI4_Signifier [ arrowhead=none arrowtail=none  edgetooltip="realizes" fontcolor="black" color="#00000"];

DDI4_VariableIndicator -> DDI4_ [arrowhead=onormal color="#000000"];

  DDI4_VariableIndicator:VariableIndicator_member_association -> DDI4_ConceptualVariable [ arrowhead=none arrowtail=diamond labeldistance=1.9 taillabel="0..n" headlabel="1..1" edgetooltip="member" fontcolor="black" color="#00000"];

  DDI4_VariableIndicator:VariableIndicator_realizes_association -> DDI4_MemberIndicator [ arrowhead=none arrowtail=none  edgetooltip="realizes" fontcolor="black" color="#00000"];

DDI4_VariableRelation -> DDI4_ [arrowhead=onormal color="#000000"];

  DDI4_VariableRelation:VariableRelation_source_association -> DDI4_ConceptualVariable [ arrowhead=none arrowtail=odiamond labeldistance=1.9 taillabel="0..n" headlabel="0..n" edgetooltip="source" fontcolor="black" color="#00000"];

  DDI4_VariableRelation:VariableRelation_target_association -> DDI4_ConceptualVariable [ arrowhead=none arrowtail=odiamond labeldistance=1.9 taillabel="0..n" headlabel="0..n" edgetooltip="target" fontcolor="black" color="#00000"];

  DDI4_VariableRelation:VariableRelation_realizes_association -> DDI4_MemberRelation [ arrowhead=none arrowtail=none  edgetooltip="realizes" fontcolor="black" color="#00000"];

DDI4_VideoSegment -> DDI4_ [arrowhead=onormal color="#000000"];

DDI4_VocabularyEntryIndicator -> DDI4_ [arrowhead=onormal color="#000000"];

  DDI4_VocabularyEntryIndicator:VocabularyEntryIndicator_member_association -> DDI4_VocabularyEntry [ arrowhead=none arrowtail=diamond labeldistance=1.9 taillabel="0..n" headlabel="1..1" edgetooltip="member" fontcolor="black" color="#00000"];

  DDI4_VocabularyEntryIndicator:VocabularyEntryIndicator_realizes_association -> DDI4_MemberIndicator [ arrowhead=none arrowtail=none  edgetooltip="realizes" fontcolor="black" color="#00000"];

DDI4_VocabularyEntryRelation -> DDI4_ [arrowhead=onormal color="#000000"];

  DDI4_VocabularyEntryRelation:VocabularyEntryRelation_source_association -> DDI4_VocabularyEntry [ arrowhead=none arrowtail=diamond labeldistance=1.9 taillabel="0..n" headlabel="1..1" edgetooltip="source" fontcolor="black" color="#00000"];

  DDI4_VocabularyEntryRelation:VocabularyEntryRelation_target_association -> DDI4_VocabularyEntry [ arrowhead=none arrowtail=diamond labeldistance=1.9 taillabel="0..n" headlabel="1..1" edgetooltip="target" fontcolor="black" color="#00000"];

  DDI4_VocabularyEntryRelation:VocabularyEntryRelation_realizes_association -> DDI4_MemberRelation [ arrowhead=none arrowtail=none  edgetooltip="realizes" fontcolor="black" color="#00000"];

DDI4_WebLink -> DDI4_ [arrowhead=onormal color="#000000"];

DDI4_WorkflowStepOrder -> DDI4_ [arrowhead=onormal color="#000000"];

  DDI4_WorkflowStepOrder:WorkflowStepOrder_indexedWorkflowStep_association -> DDI4_WorkflowStep [ arrowhead=none arrowtail=diamond labeldistance=1.9 taillabel="0..n" headlabel="1..1" edgetooltip="indexedWorkflowStep" fontcolor="black" color="#00000"];

}