digraph G {
fontname = "Bitstream Vera Sans"
fontsize = 8

overlap=false;

compound=true;    

node [
  fontname = "Bitstream Vera Sans"
  fontsize = 8
  shape = "record"
]

edge [
  fontname = "Bitstream Vera Sans"
  fontsize = 8
  mode="ipsep"            
]


DDI4_TypedString [
  label = "{<id>TypedString | + typeOfContent : ExternalControlledVocabularyEntry \l + content :  \l \l \l| \l \l}"

  tooltip = "StructuredDataTypes:TypedString"

href = "TypedString.html"
]

DDI4_TypedString -> DDI4_ [arrowhead=onormal color="#000000"];

}