digraph G {
fontname = "Bitstream Vera Sans"
fontsize = 8

overlap=false;

compound=true;    

node [
  fontname = "Bitstream Vera Sans"
  fontsize = 8
  shape = "record"
]

edge [
  fontname = "Bitstream Vera Sans"
  fontsize = 8
  mode="ipsep"            
]


DDI4_VariableRelation [
  label = "{<id>VariableRelation | + hasRelationSpecification : RelationSpecification \l + semantic : ExternalControlledVocabularyEntry \l + totality : TotalityType \l \l \l| <VariableRelation_source_association> source \l| <VariableRelation_target_association> target \l| <VariableRelation_realizes_association> realizes \l \l}"

  tooltip = "StructuredDataTypes:VariableRelation"

href = "VariableRelation.html"
]

subgraph Conceptual {
label = "Conceptual"    

  node [ color = "#0000ff" ]

DDI4_ConceptualVariable [
  label = "{<id>DDI_ConceptualVariable}"

  tooltip = "Conceptual:ConceptualVariable"

href = "../Conceptual/ConceptualVariable.html"
]

}

subgraph CollectionsPattern {
label = "CollectionsPattern"    

  node [ color = "#0000ff" ]

DDI4_MemberRelation [
  label = "{<id>DDI_MemberRelation}"

  tooltip = "CollectionsPattern:MemberRelation"

href = "../CollectionsPattern/MemberRelation.html"
]

}

DDI4_VariableRelation -> DDI4_ [arrowhead=onormal color="#000000"];

  DDI4_VariableRelation:VariableRelation_source_association -> DDI4_ConceptualVariable [ arrowhead=none arrowtail=odiamond labeldistance=1.9 taillabel="0..n" headlabel="0..n" edgetooltip="source" fontcolor="black" color="#00000"];

  DDI4_VariableRelation:VariableRelation_target_association -> DDI4_ConceptualVariable [ arrowhead=none arrowtail=odiamond labeldistance=1.9 taillabel="0..n" headlabel="0..n" edgetooltip="target" fontcolor="black" color="#00000"];

  DDI4_VariableRelation:VariableRelation_realizes_association -> DDI4_MemberRelation [ arrowhead=none arrowtail=none  edgetooltip="realizes" fontcolor="black" color="#00000"];

}