digraph G {
fontname = "Bitstream Vera Sans"
fontsize = 8

overlap=false;

compound=true;    

node [
  fontname = "Bitstream Vera Sans"
  fontsize = 8
  shape = "record"
]

edge [
  fontname = "Bitstream Vera Sans"
  fontsize = 8
  mode="ipsep"            
]


DDI4_VocabularyEntryRelation [
  label = "{<id>VocabularyEntryRelation | + hasRelationSpecification : RelationSpecification \l + semantic : ExternalControlledVocabularyEntry \l + totality : TotalityType \l \l \l| <VocabularyEntryRelation_source_association> source \l| <VocabularyEntryRelation_target_association> target \l| <VocabularyEntryRelation_realizes_association> realizes \l \l}"

  tooltip = "StructuredDataTypes:VocabularyEntryRelation"

href = "VocabularyEntryRelation.html"
]

subgraph CustomMetadata {
label = "CustomMetadata"    

  node [ color = "#0000ff" ]

DDI4_VocabularyEntry [
  label = "{<id>DDI_VocabularyEntry}"

  tooltip = "CustomMetadata:VocabularyEntry"

href = "../CustomMetadata/VocabularyEntry.html"
]

}

subgraph CollectionsPattern {
label = "CollectionsPattern"    

  node [ color = "#0000ff" ]

DDI4_MemberRelation [
  label = "{<id>DDI_MemberRelation}"

  tooltip = "CollectionsPattern:MemberRelation"

href = "../CollectionsPattern/MemberRelation.html"
]

}

DDI4_VocabularyEntryRelation -> DDI4_ [arrowhead=onormal color="#000000"];

  DDI4_VocabularyEntryRelation:VocabularyEntryRelation_source_association -> DDI4_VocabularyEntry [ arrowhead=none arrowtail=diamond labeldistance=1.9 taillabel="0..n" headlabel="1..1" edgetooltip="source" fontcolor="black" color="#00000"];

  DDI4_VocabularyEntryRelation:VocabularyEntryRelation_target_association -> DDI4_VocabularyEntry [ arrowhead=none arrowtail=diamond labeldistance=1.9 taillabel="0..n" headlabel="1..1" edgetooltip="target" fontcolor="black" color="#00000"];

  DDI4_VocabularyEntryRelation:VocabularyEntryRelation_realizes_association -> DDI4_MemberRelation [ arrowhead=none arrowtail=none  edgetooltip="realizes" fontcolor="black" color="#00000"];

}