digraph G {
fontname = "Bitstream Vera Sans"
fontsize = 8

overlap=false;

compound=true;    

node [
  fontname = "Bitstream Vera Sans"
  fontsize = 8
  shape = "record"
]

edge [
  fontname = "Bitstream Vera Sans"
  fontsize = 8
  mode="ipsep"            
]


DDI4_WebLink [
  label = "{<id>WebLink | + isPreferred :  \l + uri :  \l + typeOfWebsite : ExternalControlledVocabularyEntry \l + effectiveDates : DateRange \l + privacy : ExternalControlledVocabularyEntry \l \l \l| \l \l}"

  tooltip = "StructuredDataTypes:WebLink"

href = "WebLink.html"
]

DDI4_WebLink -> DDI4_ [arrowhead=onormal color="#000000"];

}