digraph G {
fontname = "Bitstream Vera Sans"
fontsize = 8

overlap=false;

compound=true;    

node [
  fontname = "Bitstream Vera Sans"
  fontsize = 8
  shape = "record"
]

edge [
  fontname = "Bitstream Vera Sans"
  fontsize = 8
  mode="ipsep"            
]


DDI4_WorkflowStepOrder [
  label = "{<id>WorkflowStepOrder | + index :  \l \l \l| <WorkflowStepOrder_indexedWorkflowStep_association> indexedWorkflowStep \l \l}"

  tooltip = "StructuredDataTypes:WorkflowStepOrder"

href = "WorkflowStepOrder.html"
]

subgraph Workflows {
label = "Workflows"    

  node [ color = "#0000ff" ]

DDI4_WorkflowStep [
  label = "{<id>DDI_WorkflowStep}"

  tooltip = "Workflows:WorkflowStep"

href = "../Workflows/WorkflowStep.html"
]

}

DDI4_WorkflowStepOrder -> DDI4_ [arrowhead=onormal color="#000000"];

  DDI4_WorkflowStepOrder:WorkflowStepOrder_indexedWorkflowStep_association -> DDI4_WorkflowStep [ arrowhead=none arrowtail=diamond labeldistance=1.9 taillabel="0..n" headlabel="1..1" edgetooltip="indexedWorkflowStep" fontcolor="black" color="#00000"];

}