digraph G {
fontname = "Bitstream Vera Sans"
fontsize = 8

overlap=false;

compound=true;    

node [
  fontname = "Bitstream Vera Sans"
  fontsize = 8
  shape = "record"
]

edge [
  fontname = "Bitstream Vera Sans"
  fontsize = 8
  mode="ipsep"            
]


DDI4_SpatialCoverage [
  label = "{<id>SpatialCoverage | + description : InternationalStructuredString \l + spatialAreaCode : ExternalControlledVocabularyEntry \l + spatialObject : SpatialObjectType \l \l \l| <SpatialCoverage_hasBoundingBox_association> hasBoundingBox \l| <SpatialCoverage_usesGeographicUnitTypeClassification_association> usesGeographicUnitTypeClassification \l| <SpatialCoverage_usesGeographicUnitClassification_association> usesGeographicUnitClassification \l| <SpatialCoverage_includesGeographicUnitType_association> includesGeographicUnitType \l| <SpatialCoverage_includesGeographicUnit_association> includesGeographicUnit \l| <SpatialCoverage_highestGeographicUnitTypeCovered_association> highestGeographicUnitTypeCovered \l| <SpatialCoverage_lowestGeographicUnitTypeCovered_association> lowestGeographicUnitTypeCovered \l \l}"

  tooltip = "Discovery:SpatialCoverage"

href = "SpatialCoverage.html"
]

subgraph Conceptual {
label = "Conceptual"    

  node [ color = "#0000ff" ]

DDI4_UnitType [
  label = "{<id>DDI_UnitType}"

  tooltip = "Conceptual:UnitType"

href = "../Conceptual/UnitType.html"
]

}

subgraph GeographicClassification {
label = "GeographicClassification"    

  node [ color = "#0000ff" ]

DDI4_GeographicUnit [
  label = "{<id>DDI_GeographicUnit}"

  tooltip = "GeographicClassification:GeographicUnit"

href = "../GeographicClassification/GeographicUnit.html"
]

DDI4_GeographicUnitClassification [
  label = "{<id>DDI_GeographicUnitClassification}"

  tooltip = "GeographicClassification:GeographicUnitClassification"

href = "../GeographicClassification/GeographicUnitClassification.html"
]

DDI4_GeographicUnitTypeClassification [
  label = "{<id>DDI_GeographicUnitTypeClassification}"

  tooltip = "GeographicClassification:GeographicUnitTypeClassification"

href = "../GeographicClassification/GeographicUnitTypeClassification.html"
]

}

subgraph Discovery {
label = "Discovery"    

  node [ color = "#0000ff" ]

DDI4_BoundingBox [
  label = "{<id>DDI_BoundingBox}"

  tooltip = "Discovery:BoundingBox"

href = "../Discovery/BoundingBox.html"
]

}

subgraph Identification {
label = "Identification"    

  node [ color = "#0000ff" ]

DDI4_AnnotatedIdentifiable [
  label = "{<id>DDI_AnnotatedIdentifiable}"

  tooltip = "Identification:AnnotatedIdentifiable"

href = "../Identification/AnnotatedIdentifiable.html"
]

}

DDI4_SpatialCoverage -> DDI4_AnnotatedIdentifiable [arrowhead=onormal color="#000000"];

  DDI4_SpatialCoverage:SpatialCoverage_hasBoundingBox_association -> DDI4_BoundingBox [ arrowhead=none arrowtail=odiamond labeldistance=1.9 taillabel="0..n" headlabel="0..n" edgetooltip="hasBoundingBox" fontcolor="black" color="#00000"];

  DDI4_SpatialCoverage:SpatialCoverage_usesGeographicUnitTypeClassification_association -> DDI4_GeographicUnitTypeClassification [ arrowhead=none arrowtail=odiamond labeldistance=1.9 taillabel="0..n" headlabel="0..n" edgetooltip="usesGeographicUnitTypeClassification" fontcolor="black" color="#00000"];

  DDI4_SpatialCoverage:SpatialCoverage_usesGeographicUnitClassification_association -> DDI4_GeographicUnitClassification [ arrowhead=none arrowtail=odiamond labeldistance=1.9 taillabel="0..n" headlabel="0..n" edgetooltip="usesGeographicUnitClassification" fontcolor="black" color="#00000"];

  DDI4_SpatialCoverage:SpatialCoverage_includesGeographicUnitType_association -> DDI4_UnitType [ arrowhead=none arrowtail=odiamond labeldistance=1.9 taillabel="0..n" headlabel="0..n" edgetooltip="includesGeographicUnitType" fontcolor="black" color="#00000"];

  DDI4_SpatialCoverage:SpatialCoverage_includesGeographicUnit_association -> DDI4_GeographicUnit [ arrowhead=none arrowtail=odiamond labeldistance=1.9 taillabel="0..n" headlabel="0..n" edgetooltip="includesGeographicUnit" fontcolor="black" color="#00000"];

  DDI4_SpatialCoverage:SpatialCoverage_highestGeographicUnitTypeCovered_association -> DDI4_UnitType [ arrowhead=none arrowtail=odiamond labeldistance=1.9 taillabel="0..n" headlabel="0..n" edgetooltip="highestGeographicUnitTypeCovered" fontcolor="black" color="#00000"];

  DDI4_SpatialCoverage:SpatialCoverage_lowestGeographicUnitTypeCovered_association -> DDI4_UnitType [ arrowhead=none arrowtail=odiamond labeldistance=1.9 taillabel="0..n" headlabel="0..n" edgetooltip="lowestGeographicUnitTypeCovered" fontcolor="black" color="#00000"];

}